,0.08333333333333333,0.16666666666666666,0.25,0.3333333333333333,0.5
3500,55.261633111472975,57.67115303918841,58.10191515560949,58.532677272030575,60.13387584952593
4000,56.91952888080526,56.49690270042922,56.99223526391293,57.48756782739664,59.24418073812717
4500,62.39862621985803,58.40315991441742,58.0605792674108,57.717998620404174,58.59827559841272
5000,65.62889507427414,60.372075591004666,59.30226895295149,58.23246231489833,58.58836742026716
7500,nan,nan,67.7366701397501,64.10644005132076,60.474131797849495
10000,nan,nan,nan,nan,66.54587567290386
