,0.08333333333333333,0.16666666666666666,0.25,0.3333333333333333,0.5
3500,56.33599950402925,58.288914460457924,58.49762188764352,58.70632931482911,60.153449685466384
4000,57.724986639799255,57.42028756088442,57.691822373245,57.96335718560559,59.3194548944394
4500,64.07885441405989,59.24142577766216,58.70892322982548,58.17642068198881,58.998808615055395
5000,67.39343889159278,61.771767387373295,60.322440604376,58.873113821378695,58.93078281525953
7500,nan,nan,68.29409836094698,64.45169105076279,60.794799916986776
10000,nan,nan,nan,nan,66.84078270133577
