,0.08333333333333333,0.16666666666666666,0.25,0.3333333333333333,0.5
3500,53.88281826624741,56.890013454144764,57.45547663424557,58.02093981434639,59.38242201176653
4000,56.09858722186035,56.1929941087856,56.54382853899094,56.89466296919627,58.29970880671321
4500,63.34054314193328,57.70030811194954,57.44219263796169,57.18407716397385,58.09649116367886
5000,67.11234531785067,60.36827224849154,59.10004143647788,57.83181062446421,58.14794752643489
7500,nan,nan,68.18753244936862,64.35314851776677,60.844077458123785
10000,nan,nan,nan,72.58016435088653,65.89519413519827
