,0.08333333333333333,0.16666666666666666,0.25,0.3333333333333333,0.5
3500,nan,nan,nan,nan,nan
4000,53.931518424792145,54.411212679896245,55.00532192029248,55.39689018253341,55.46549765818342
4500,56.90397103298459,53.70818801855231,53.994959129023194,54.40861103127217,54.502416174440604
5000,59.59098079881886,54.017662609507404,54.14249553512995,54.943067426956404,55.18676809801748
7500,nan,68.98150808941506,62.90837063653094,57.34677969788567,55.9136819645249
10000,nan,nan,nan,63.76505306543918,60.788641105117904
