,0.08333333333333333,0.16666666666666666,0.25,0.3333333333333333,0.5
3500,54.46401302344745,57.46920830068786,57.8879927407449,58.30677718080193,59.708278677844646
4000,57.48343851373983,56.51713257728414,56.895212803481556,57.27329302967898,58.65108730642709
4500,63.763787154109465,58.301960884949985,57.93914700100202,57.576333117054055,58.41847496193478
5000,67.60806043150419,61.87208947168688,60.32747444451472,58.782859417342564,58.779154109310284
7500,nan,nan,68.3597411310601,64.48373724657581,60.7833163388489
10000,nan,nan,nan,72.74615318334638,66.59029762258584
