,0.08333333333333333,0.16666666666666666,0.25,0.3333333333333333,0.5
3500,54.51168606911313,57.503557306161426,57.797793362307054,58.09202941845268,59.52138016354904
4000,56.141846597131135,56.71942808291638,56.9035389314394,57.08764977996241,58.40893958003244
4500,63.03565106595277,57.454467345265186,57.21660356355104,56.97873978183689,58.078049863381
5000,66.8349570112848,60.181257412119045,58.98469414104547,57.78813086997188,58.032147994075174
7500,nan,nan,68.04432106396084,64.22887915247622,60.603153329339996
10000,nan,nan,nan,72.46518968053113,65.80289757161825
