,0.08333333333333333,0.16666666666666666,0.25,0.3333333333333333,0.5
3500,55.57164298071207,57.95991499542714,58.33983377000415,58.71975254458115,60.16462159152372
4000,57.4208411742623,57.66410519816673,57.76348476594859,57.86286433373045,59.08625632271044
4500,64.17037852610413,59.28198472040342,58.68818176906519,58.094378817726955,58.88448863049646
5000,67.47780495359105,61.82036661079959,60.355762636707524,58.891158662615446,58.926346993806085
7500,nan,nan,68.32067841220118,64.46539401956203,60.79194661155498
10000,nan,nan,nan,nan,66.8380774872732
