,0.08333333333333333,0.16666666666666666,0.25,0.3333333333333333,0.5
3500,53.62014024283704,56.75300779411547,57.234454017952125,57.71590024178877,58.900065774331665
4000,54.83067942271273,55.785358748483446,56.19140054696759,56.597442345451746,57.93544539691585
4500,62.29501351606052,57.31182422318985,57.15394200220207,56.996059781214306,57.85906478611109
5000,65.3197989083821,59.469482829772176,58.52217813159598,57.574873433419775,57.89427563542209
7500,nan,nan,66.44821575574144,63.272574022638,59.96421303695782
10000,nan,nan,nan,69.94438325478355,65.38691899519624
