,0.08333333333333333,0.16666666666666666,0.25,0.3333333333333333,0.5
3500,54.82699544657133,57.382675857290984,57.97737053700935,58.57206521672771,60.23958859188869
4000,56.10526162991914,56.40639303657975,56.95795334506101,57.50951365354226,59.31669440904548
4500,62.70462838337806,58.65036647961202,58.25165560285282,57.852944726093625,58.75127885997932
5000,65.90549411714133,60.59342251421549,59.514496090991,58.43556966776652,58.73917674979084
7500,nan,nan,67.89225024830601,64.24788363200962,60.60819104739636
10000,nan,nan,nan,nan,66.66033193336384
