,0.08333333333333333,0.16666666666666666,0.25,0.3333333333333333,0.5
3500,nan,nan,nan,nan,nan
4000,53.804479394435944,53.05777442311816,53.635693746047,54.253248564538936,54.936260999548715
4500,54.88931031521219,52.09161766428064,52.75877798296307,53.78830233487939,54.641643787562984
5000,56.61407419149579,52.42884100589814,52.97312540120199,54.012731986027035,54.79758829667537
7500,nan,67.35993218341989,62.9727497613097,58.04685353882305,56.21065987140305
10000,nan,nan,nan,63.1810641519107,60.27813528290508
