,0.08333333333333333,0.16666666666666666,0.25,0.3333333333333333,0.5
3500,55.188627223349144,57.58097509559407,58.06926712837556,58.557559161157045,60.194517161816464
4000,57.27907570755342,56.64740908192775,57.113134803046265,57.57886052416478,59.2879148331898
4500,62.751370576862826,58.68250468067751,58.2762807439229,57.87005680716828,58.75770276716315
5000,65.94840966439016,60.60089048875047,59.46074717393404,58.32060385911761,58.70001856849138
7500,nan,nan,67.90845325543236,64.2585738118938,60.61208076814143
10000,nan,nan,nan,nan,66.66355207070411
