,0.08333333333333333,0.16666666666666666,0.25,0.3333333333333333,0.5
3500,53.20122365418082,56.74830436363372,57.14926130102174,57.550218238409755,58.700555904151315
4000,55.400057932654775,55.273442209827984,55.78110718190303,56.28877215397808,57.776183601966764
4500,61.81897898397103,56.696467285140784,56.598124988741276,56.49978269234175,57.72676606213548
5000,65.05472522311607,59.284508928426476,58.4023855399186,57.52026215141071,57.85315912402565
7500,nan,nan,66.30670615436996,63.1453397688348,59.71534714943654
10000,nan,nan,nan,69.82877555746009,65.28704794474812
