,0.08333333333333333,0.16666666666666666,0.25,0.3333333333333333,0.5
3500,53.827060953992245,56.79905678792547,57.36701434460966,57.934971901293856,59.22521344968395
4000,55.8658774301187,56.13665761138482,56.50553118659361,56.874404761802396,58.20080705173804
4500,63.07251297675627,57.511361333417895,57.35298854840022,57.194615763382544,58.052751822613345
5000,66.8690014528912,60.20097304275469,58.99856060173552,57.79614816071635,58.07757760304514
7500,nan,nan,68.05543868742492,64.23494905637514,60.734338203900705
10000,nan,nan,nan,72.47132782948773,65.80251431587706
