,0.08333333333333333,0.16666666666666666,0.25,0.3333333333333333,0.5
3500,54.67558142100735,57.221198645726226,57.802128955843315,58.3830592659604,60.06356465815852
4000,56.01374231005956,56.29434818842013,56.82909528921954,57.36384239001895,59.10729429414934
4500,62.633288011356186,58.56175773455836,58.147191922137225,57.73262610971609,58.60407417111229
5000,65.84327671398752,60.51851776126534,59.42510617218808,58.33169458311082,58.609693713378874
7500,nan,nan,67.82985765653495,64.17721657835968,60.51967036659658
10000,nan,nan,nan,nan,66.58440122798848
