,0.08333333333333333,0.16666666666666666,0.25,0.3333333333333333,0.5
3500,54.75509350294005,57.51079123791927,58.03138011813871,58.55196899835815,60.16106497509485
4000,56.48859071570835,56.279327552748526,56.82868589430822,57.37804423586792,59.17882513208074
4500,62.60207313808759,58.565436958916436,58.205611721092446,57.845786483268455,58.74343992193627
5000,65.81380186931212,60.508825938762904,59.42553501338742,58.342244088011924,58.680926507019024
7500,nan,nan,67.82843030610624,64.18363193137479,60.53766818866608
10000,nan,nan,nan,nan,66.5999606868979
