,0.08333333333333333,0.16666666666666666,0.25,0.3333333333333333,0.5
3500,55.04424741815825,57.83150373124786,58.20872216657956,58.58594060191127,60.095979521876046
4000,57.792142221806955,57.27544350813617,57.47213533613674,57.668827164137305,58.94853869496126
4500,63.667287975099754,58.26788823023638,58.005325155243135,57.74276208024989,58.61636941644803
5000,67.37905504349281,61.23575550059135,59.98822960426892,58.74070370794647,58.709461457712095
7500,nan,nan,68.32415776791434,64.51283865645382,60.91818918442679
10000,nan,nan,nan,72.7219500447258,66.06958467153957
