,0.08333333333333333,0.16666666666666666,0.25,0.3333333333333333,0.5
3500,54.78052563381149,57.31611414743861,57.898067657301056,58.4800211671635,60.128735525131304
4000,56.0763400827079,56.359943420568776,56.89907874231445,57.438214064060126,59.18969188794044
4500,62.682060688313285,58.613540258780695,58.203739457719465,57.793938656658234,58.674165880261576
5000,65.88654101603952,60.56225269736177,59.473416540608156,58.38458038385454,58.671312658162265
7500,nan,nan,67.86413356871685,64.21343767393185,60.56181835637228
10000,nan,nan,nan,nan,66.62051332194567
