,0.08333333333333333,0.16666666666666666,0.25,0.3333333333333333,0.5
3500,55.7679672025276,58.098682323085754,58.417486963224704,58.73629160336366,60.24969334805526
4000,57.80604336919269,57.482146996853636,57.717620319332696,57.953093641811755,59.26513136875728
4500,64.14193015440435,59.28439626458274,58.71017587727823,58.135955489973725,58.996667732389255
5000,67.4499351249304,61.80106420888541,60.29817945696375,58.795294705042096,58.901358201737864
7500,nan,nan,68.33167573692336,64.4889738568147,60.83500378828256
10000,nan,nan,nan,nan,66.87517633235652
