,0.08333333333333333,0.16666666666666666,0.25,0.3333333333333333,0.5
3500,56.63184314854877,58.31782010165787,58.526856275848374,58.73589245003888,60.114172184968645
4000,57.636922106765795,57.31770935558555,57.57619761833365,57.83468588108176,59.16931346909844
4500,64.01031537507137,59.16046301110842,58.615309649346955,58.070156287585505,58.87085872479186
5000,67.33335550956957,61.70290781551911,60.242085060811924,58.78126230610472,58.86425158575561
7500,nan,nan,68.23805268275896,64.38918359995796,60.71778773987621
10000,nan,nan,nan,nan,66.7747620233116
