,0.08333333333333333,0.16666666666666666,0.25,0.3333333333333333,0.5
3500,54.76509801532476,57.77685192633437,58.20882713489747,58.640802343460564,60.00243714322224
4000,58.08565005060164,57.10276987910127,57.28942610840289,57.4760823377045,58.817756791164925
4500,63.501815181700614,58.12779626662921,57.84030841273667,57.55282055884412,58.526288863833635
5000,67.22770168992007,61.08771797980648,59.74477408714594,58.4018301944854,58.57145898716223
7500,nan,nan,68.25649159678086,64.45987675483822,61.012615503223614
10000,nan,nan,nan,70.9554842698951,66.54760115487865
