,0.08333333333333333,0.16666666666666666,0.25,0.3333333333333333,0.5
3500,56.357497499919326,58.15396574398156,58.4195467632327,58.68512778248386,60.096334560404365
4000,57.62864539835175,57.29387305786835,57.51490241183532,57.73593176580229,59.097132308789526
4500,64.00387439076798,59.15274880493363,58.60633312755321,58.05991745017279,58.85846583925546
5000,67.32771798692369,61.69634694442396,60.234379895175294,58.77241284592664,58.853351592807925
7500,nan,nan,68.23268635817385,64.38316544018049,60.7103317404348
10000,nan,nan,nan,nan,66.76837003729335
