,0.08333333333333333,0.16666666666666666,0.25,0.3333333333333333,0.5
3500,53.551599044379806,56.67712755957331,57.28633119045682,57.895534821340334,59.27039532706429
4000,55.88422183992158,55.666621857273086,56.2619650243154,56.857308191357724,58.33967500349628
4500,61.58590330525726,57.41784919839712,57.31858036865454,57.21931153891195,58.10940734601664
5000,65.0153056892284,60.41275952240138,59.127905873128526,57.84305222385566,58.04190361650599
7500,nan,nan,67.16815303139782,63.91603942990106,60.555377447322726
10000,nan,nan,nan,70.54639361829221,65.8871574074733
