,0.08333333333333333,0.16666666666666666,0.25,0.3333333333333333,0.5
3500,54.93511920127101,57.6469589429948,58.17432111966213,58.70168329632946,60.21943112515916
4000,57.50305910623298,56.72732076004697,57.11392832351852,57.500535886990065,59.06181921816276
4500,63.69450497865757,58.298453508773505,57.97666441915326,57.65487532953302,58.60043195478692
5000,67.54086131997761,61.84767183634929,60.28315480323089,58.718637770112494,58.76919197797629
7500,nan,nan,68.37748191961893,64.58253804048472,61.01665797761503
10000,nan,nan,nan,72.78303774634891,66.41371877774098
