,0.08333333333333333,0.16666666666666666,0.25,0.3333333333333333,0.5
3500,54.58710081586827,57.62957034899612,58.03970021399732,58.449830078998524,59.886594653376974
4000,57.97870260373328,57.010246351905906,57.201230354528654,57.39221435715141,58.73755064941494
4500,63.41946327011206,58.055696249713506,57.76989509969986,57.48409394968621,58.45815533899351
5000,67.15323487226703,61.04779793221193,59.76128532733787,58.47477272246381,58.64603452781309
7500,nan,nan,68.2125999692906,64.41863475787395,60.97138871048142
10000,nan,nan,nan,70.91828096327261,66.51296458124563
