,0.08333333333333333,0.16666666666666666,0.25,0.3333333333333333,0.5
3500,55.07768827085457,57.68900669456767,58.15795567855909,58.62690466255051,60.21625993857865
4000,57.75454842746362,57.29600044667106,57.555648342435255,57.81529623819945,59.17981492241755
4500,63.82285037310686,58.6161768558299,58.244177156733834,57.872177457637775,58.741243310621584
5000,67.49050950582924,61.8403461909934,60.38171302802866,58.923079865063926,58.829935716191585
7500,nan,nan,68.33840701195888,64.54135014250582,60.96887147595957
10000,nan,nan,nan,72.74598276932245,66.11282543724019
