,0.08333333333333333,0.16666666666666666,0.25,0.3333333333333333,0.5
3500,54.70440960145294,57.49679536687569,57.96563475099262,58.434474135109554,59.871016146283395
4000,57.48263133619983,57.05029977512425,57.31516380597225,57.580027836820236,58.94534516358894
4500,63.42739021710947,58.06500747923151,57.78068910813478,57.49637073703804,58.55429921464005
5000,67.16021495739369,61.03420223337869,59.693651164369776,58.353100095360844,58.52463935581255
7500,nan,nan,68.21910223422059,64.42588476636845,60.98033322116536
10000,nan,nan,nan,70.92465589142408,66.52059478806625
