,0.08333333333333333,0.16666666666666666,0.25,0.3333333333333333,0.5
3500,53.74850066459514,56.9351311171984,57.35453758997555,57.77394406275269,58.91853330452807
4000,56.0201984138034,56.0037075244401,56.3320847659892,56.6604620075383,57.95031267634465
4500,62.315713397827764,57.312509433222296,57.1105568094284,56.908604185634516,57.80368775868095
5000,65.33843084860735,59.484006329151114,58.5355940798066,57.58718183046207,57.85960754672202
7500,nan,nan,66.45800640342257,63.28110987243817,59.97172028180078
10000,nan,nan,nan,69.95215929792138,65.39326389552653
