,0.08333333333333333,0.16666666666666666,0.25,0.3333333333333333,0.5
3500,54.11222543285774,56.70448578208277,57.187625872972454,57.67076596386213,58.893377176963696
4000,55.39646943584056,55.05106800000444,55.695405148871885,56.339742297739335,57.90160916322623
4500,61.795806451627314,56.52072736520295,56.63037322125921,56.740019077315466,57.8075590331292
5000,65.20036495706351,59.37594520713008,58.433112076611735,57.49027894609339,57.81389002933345
7500,nan,nan,66.38370055982348,63.214168793921445,60.038310891946196
10000,nan,nan,nan,69.89137334247167,65.34054215389392
