,0.08333333333333333,0.16666666666666666,0.25,0.3333333333333333,0.5
3500,55.73744338045342,58.07002290943933,58.38797995123768,58.70593699303603,60.21733452453439
4000,57.78755287828585,57.46219316163733,57.695949747696716,57.929706333756116,59.20122228342218
4500,64.12753722133854,59.268657633777735,58.69265729414799,58.11665695451825,58.974179164423525
5000,67.43721412343754,61.787682098877106,60.283152229637565,58.778622360398,58.881575014351384
7500,nan,nan,68.32110127738031,64.47757600289165,60.82145194285749
10000,nan,nan,nan,nan,66.86356384734101
