,0.08333333333333333,0.16666666666666666,0.25,0.3333333333333333,0.5
3500,55.09079426822677,57.74609684512805,58.12925106703739,58.512405288946724,60.02631595781257
4000,57.86764497713074,57.314705773484285,57.464159288088496,57.6136128026927,58.832712885092505
4500,63.725841876573526,58.275586241901294,57.918298154330074,57.561010066758854,58.492392200213175
5000,67.43278870244266,61.24956996014801,59.9401287818163,58.63068760348459,58.633892761185265
7500,nan,nan,68.34602302192309,64.5285711288006,61.05876407033534
10000,nan,nan,nan,72.73697987537342,66.07683189443205
