,0.08333333333333333,0.16666666666666666,0.25,0.3333333333333333,0.5
3500,54.924089688016494,57.748892959486874,58.138238017679356,58.52758307587184,60.05079118247599
4000,57.72056095647693,57.21852828932415,57.42159010445403,57.624651919583926,58.9119419157169
4500,63.61179365377126,58.22358594300576,57.965121227644,57.70665651228224,58.5853346326122
5000,67.46880191004351,61.79744703433719,60.32288593298117,58.84832483162515,58.68221700420848
7500,nan,nan,68.29861888975287,64.49096479838255,60.899408702013034
10000,nan,nan,nan,72.70166741249236,66.05374033876572
