,0.08333333333333333,0.16666666666666666,0.25,0.3333333333333333,0.5
3500,54.67410074911817,57.420067301058985,57.867744637689135,58.31542197431929,59.611451202099644
4000,57.33932963283881,56.3516746227805,56.709207903026126,57.06674118327176,58.485673027699164
4500,63.65173457501574,58.17165049692489,57.78879888059831,57.40594726427171,58.21380607422876
5000,67.50912235354193,61.73864354569933,60.12073371149329,58.50282387728724,58.464416753353234
7500,nan,nan,68.26909127430167,64.38303087912277,60.65982246624308
10000,nan,nan,nan,72.65611626310385,65.97611943026956
