,0.08333333333333333,0.16666666666666666,0.25,0.3333333333333333,0.5
3500,53.75600314660069,56.836241537763755,57.30829918206153,57.78035682635931,58.91882278651151
4000,55.92225499763154,55.94168440792828,56.31610454935549,56.690524690782695,58.00176392694165
4500,62.240729181171744,57.27026291627679,57.11770548512434,56.96514805397189,57.83521254973907
5000,65.27057620738832,59.45566075830452,58.56688682168358,57.67811288506263,57.96002285229892
7500,nan,nan,66.42552164101954,63.2540593830951,59.949961943925
10000,nan,nan,nan,69.92727019123541,65.3749024904951
