,0.08333333333333333,0.16666666666666666,0.25,0.3333333333333333,0.5
3500,55.47130477226534,58.04978438132575,58.46604827944144,58.88231217755713,60.30603115361261
4000,57.998969926866316,57.71762298289697,57.82175348232916,57.925883981761345,59.1950989382719
4500,64.20870220062032,59.324150383008316,58.73526878578092,58.146387188553526,58.90460263072137
5000,67.511657082764,61.83473652281973,60.31944583021672,58.8041551376137,58.891753148813685
7500,nan,nan,68.34908310649216,64.49610122805561,60.828574543744836
10000,nan,nan,nan,nan,66.62935469412359
