,0.08333333333333333,0.16666666666666666,0.25,0.3333333333333333,0.5
3500,54.5326665316656,57.53042275561026,58.03914440481273,58.54786605401521,60.0029899793727
4000,57.38146881203419,56.85120580545292,57.161970192994474,57.47273458053602,58.921203845363436
4500,63.43230747610589,58.076365813369634,57.79684000510625,57.517314196842854,58.50154002432634
5000,67.16410310343345,61.06546049233861,59.78450414390109,58.503547795463554,58.63811583027547
7500,nan,nan,68.22840084107744,64.43810672581631,60.99759929307912
10000,nan,nan,nan,nan,66.53495551948318
