,0.08333333333333333,0.16666666666666666,0.25,0.3333333333333333,0.5
3500,52.97452078437297,56.4620690899369,57.03377462078917,57.60548015164144,58.72278651101786
4000,55.270516883766575,55.27173943691114,55.79871915008211,56.32569886325308,57.732293284849945
4500,61.637835647008515,56.560229477691266,56.57390800301651,56.587586528341745,57.5638602181234
5000,64.89424796964651,59.12742438560763,58.23043011486409,57.333435844120544,57.59235998228188
7500,nan,nan,66.18617690711108,63.01857423976644,59.56937011051514
10000,nan,nan,nan,69.71642851691982,65.16306250025974
