,0.08333333333333333,0.16666666666666666,0.25,0.3333333333333333,0.5
3500,54.71563519767793,57.56356083952634,57.98310373252971,58.40264662553308,59.666543845823
4000,57.47230827812126,56.449711230055506,56.7908671187771,57.132023007498695,58.529989784284254
4500,63.75511173265568,58.24831920376519,57.853748871470245,57.459178539175305,58.251238193714755
5000,67.60380315070826,61.80437411229792,60.17660147687588,58.548828841453826,58.49720300283821
7500,nan,nan,68.31098400484768,64.41565606300264,60.682457438286896
10000,nan,nan,nan,72.68686925128877,65.99480231245388
