,0.08333333333333333,0.16666666666666666,0.25,0.3333333333333333,0.5
3500,55.58991599090381,58.20319815675436,58.54668094695987,58.89016373716538,60.22262110641714
4000,58.127124380628864,57.91753455357177,57.93391310750176,57.95029166143175,59.156986124766604
4500,64.22531117493233,59.3253897335464,58.726899642344705,58.12840955114301,58.95330457998766
5000,67.52771320405849,61.835723901556044,60.312135259385144,58.78854661721424,58.86299752724625
7500,nan,nan,68.34518140225721,64.48597504518928,60.80894995338938
10000,nan,nan,nan,nan,66.61248942892524
