,0.08333333333333333,0.16666666666666666,0.25,0.3333333333333333,0.5
3500,nan,nan,nan,nan,nan
4000,51.02643162052173,52.262826478798324,53.21681531132105,54.027837935110504,54.54383473569465
4500,52.84196180829635,51.41982246949845,52.29393702958514,52.917145317213084,53.67217120662161
5000,56.671515563982155,52.58510307150026,52.78050154542136,53.38429657451956,54.442137656226656
7500,nan,67.4433099264786,62.292298027689526,57.15162178539336,55.84361481137458
10000,nan,nan,nan,63.317239700282755,60.469778154031665
