,0.08333333333333333,0.16666666666666666,0.25,0.3333333333333333,0.5
3500,53.80286663175011,56.85924214145205,57.43291161443003,58.00658108740801,59.376584154946144
4000,56.20678065423017,56.29785209228368,56.67780925021215,57.05776640814062,58.42624373627784
4500,61.66216021510422,57.788010292587046,57.569131704655476,57.35025311672389,58.18317741875932
5000,65.00811026504941,60.45013417779748,59.23457786180285,58.01902154580821,58.1957034012188
7500,nan,nan,67.18700260502449,63.94456002448004,60.599725523036994
10000,nan,nan,nan,70.56993368568837,65.92499258685652
