,0.08333333333333333,0.16666666666666666,0.25,0.3333333333333333,0.5
3500,54.943831830225584,57.87096814640476,58.254590194114684,58.63821224182458,59.97537294135877
4000,57.5291689864355,57.092615644848905,57.3567555242107,57.62089540357248,58.986325088376006
4500,63.46344090735498,58.098003571136196,57.81394095873904,57.52987834634188,58.58911551180731
5000,67.1927000753396,61.08388438840507,59.7991282680469,58.51437214768873,58.64354123067624
7500,nan,78.56790107609578,72.29478678317736,65.79474100095187,62.03719070689006
10000,nan,nan,nan,72.44959581888992,66.53810871367195
