,0.08333333333333333,0.16666666666666666,0.25,0.3333333333333333,0.5
3500,52.91908377030752,56.63016263325436,57.108764737716974,57.58736684217959,58.65853837364932
4000,55.29413115315161,55.293495463225334,55.82027051734747,56.34704557146961,57.75391259300671
4500,61.65601320883082,56.577066215271785,56.591039625885756,56.60501303649973,57.622394958036246
5000,64.91050251031973,59.14164011399068,58.24502605061102,57.34841198723134,57.60837114993442
7500,nan,nan,66.19655119388463,63.02879791335528,59.580234017467106
10000,nan,nan,nan,69.7255784811778,65.17227879272298
