,0.08333333333333333,0.16666666666666666,0.25,0.3333333333333333,0.5
3500,53.69541650128886,56.7280570792109,57.34633907630875,57.9646210734066,59.32072088462669
4000,55.78939205049568,56.06527103944623,56.40754724177161,56.74982344409698,58.22960248662491
4500,63.01241812954183,57.45004347255919,57.25521900817625,57.060394543793315,58.04325673362972
5000,66.81402108337534,60.16320959634735,58.966330853594485,57.769452110841605,58.10443496706284
7500,nan,nan,68.03100267174219,64.21593668669219,60.72110748977064
10000,nan,nan,nan,72.45341319308821,65.7913787563032
