,0.08333333333333333,0.16666666666666666,0.25,0.3333333333333333,0.5
3500,56.34679147502803,58.012878750831455,58.37936161388562,58.745844476939794,60.28417694202608
4000,57.72119398330594,57.41388793343187,57.656467216651876,57.899046499871886,59.219399316071986
4500,64.07591685970317,59.247596869441026,58.72120200146583,58.19480713349063,59.02668933941326
5000,67.3900794761338,61.77705234965782,60.333049953383835,58.88904755710982,59.0013995946541
7500,nan,nan,68.3008661128341,64.46226696921104,60.81157748160073
10000,nan,nan,nan,nan,66.85521591291983
