,0.08333333333333333,0.16666666666666666,0.25,0.3333333333333333,0.5
3500,53.65991216740885,56.81317386486363,57.415618088001075,58.01806231113853,59.45985626320878
4000,56.27971094491906,56.37896247036742,56.76714496507604,57.155327459784665,58.53779240818261
4500,63.4828541175512,57.8516291614621,57.6411315775741,57.430633993686115,58.2780448971281
5000,67.24028217816307,60.482532306623696,59.21879751256127,57.955062718498816,58.1900685498263
7500,nan,nan,68.27334592159767,64.38422536168656,60.6568961467974
10000,nan,nan,nan,70.94153423561251,65.9735892900522
