,0.08333333333333333,0.16666666666666666,0.25,0.3333333333333333,0.5
3500,56.684231086913435,58.47701814298675,58.64579714804549,58.81457615310423,60.217872047288004
4000,57.62168448095751,57.32487718704125,57.597144859327756,57.86941253161426,59.29894643413571
4500,63.998486576372116,59.16635586390338,58.63272761567221,58.099099367441056,58.9175581909943
5000,67.32136997408064,61.707993259505066,60.25717552711359,58.8063577947221,58.90540745421863
7500,nan,nan,68.24727077128533,64.40570328652915,60.74586543794256
10000,nan,nan,nan,nan,66.79893285726303
