,0.08333333333333333,0.16666666666666666,0.25,0.3333333333333333,0.5
3500,53.80657075299646,56.805509084558736,57.413110035117576,58.020710985676416,59.36536259667152
4000,55.74600184976883,55.91733255713414,56.33145928560797,56.74558601408181,58.22817389925329
4500,63.063381452432886,57.49121694559194,57.29306824364383,57.09491954169572,58.07378184783986
5000,66.86037655046138,60.219730838389765,59.075699140564765,57.93166744273976,58.173595648716635
7500,nan,nan,68.05500293336023,64.23679453582947,60.73950449740319
10000,nan,nan,nan,72.47271202023623,65.80692914049374
