,0.08333333333333333,0.16666666666666666,0.25,0.3333333333333333,0.5
3500,53.8695234773615,57.09406073273403,57.566900819205,58.03974090567598,59.1876051364608
4000,56.09347924863951,56.10434086021756,56.453416539996255,56.80249221977495,58.12474285110474
4500,62.372271097944285,57.39127607732839,57.208375058143844,57.0254740389593,57.9518179768267
5000,65.3867050483941,59.55058006720571,58.61924256471619,57.687905062226655,57.989619081718345
7500,nan,nan,66.51502358208486,63.34885394000028,60.06013851922902
10000,nan,nan,nan,70.01120343385125,65.46839318448606
