,0.08333333333333333,0.16666666666666666,0.25,0.3333333333333333,0.5
3500,54.60391315385996,57.63663854315871,58.03414550606804,58.43165246897738,59.703614541213064
4000,57.51644394299544,56.50976138590415,56.863282798434504,57.21680421096487,58.634163043844055
4500,63.78943917476356,58.29571113652953,57.912465460186965,57.529219783844404,58.33993471612773
5000,67.63353066633805,61.845079609431856,60.22729698356999,58.60951435770812,58.5291303951586
7500,nan,nan,68.34593955829062,64.4568521063567,60.73595796859259
10000,nan,nan,nan,72.7234286357533,66.04029605826132
