,0.08333333333333333,0.16666666666666666,0.25,0.3333333333333333,0.5
3500,nan,nan,nan,nan,nan
4000,54.086464346977024,54.30377869489101,54.954504516972825,55.6122447229978,56.066648818851235
4500,56.27994527586153,53.35841870873758,53.97197491607312,54.849448859829344,55.39329691120024
5000,58.175154834805554,53.89606336347398,54.21267863672769,54.88096450442972,55.42849614026601
7500,nan,68.73548302139653,63.56062247152083,58.35440929368612,56.72989999484476
10000,nan,nan,nan,63.69786818492322,60.808926852901294
