,0.08333333333333333,0.16666666666666666,0.25,0.3333333333333333,0.5
3500,54.145361482882045,57.265344644661404,57.74761121412334,58.229877783585266,59.45889095079852
4000,56.664145564334255,56.325554382655206,56.61226432610394,56.89897426955269,58.34955802240742
4500,63.45293574389537,58.01022753963188,57.67182318473135,57.33341882983083,58.18504774925914
5000,67.32947624565097,61.58573971659761,59.96815636830135,58.350573020005086,58.30692469895148
7500,nan,nan,68.15889488308228,64.27769244949108,60.55175257199808
10000,nan,nan,nan,72.56001899996254,65.88444348402219
