,0.08333333333333333,0.16666666666666666,0.25,0.3333333333333333,0.5
3500,54.66970484260217,57.48337636737478,57.8990011215397,58.31462587570461,59.712458936003905
4000,57.497065001249716,56.526809968814945,56.902974994850254,57.27914002088556,58.65443731295663
4500,63.77438230082544,58.30952618104216,57.94530874707121,57.581091313100266,58.42129715639875
5000,67.6177877514394,61.87857602101363,60.33277524495646,58.78697446889929,58.78162421984533
7500,nan,nan,68.36376433260267,64.48667868250665,60.785026602597014
10000,nan,nan,nan,72.74895615407198,66.59173676300803
