,0.08333333333333333,0.16666666666666666,0.25,0.3333333333333333,0.5
3500,55.201064895181645,57.62978494164396,58.066578932796105,58.503372923948255,60.111265970357394
4000,56.883860264496164,56.46855637880295,56.96700593408916,57.46545548937536,59.225866808511434
4500,62.37125395354877,58.380949236276564,58.04042977943699,57.69991032259742,58.62227674139767
5000,65.6040504551367,60.35335942506868,59.28513980877483,58.216920192480984,58.61946004636674
7500,nan,nan,67.72397046699977,64.09554224822404,60.46485435853299
10000,nan,nan,nan,nan,66.53792919043235
