,0.08333333333333333,0.16666666666666666,0.25,0.3333333333333333,0.5
3500,55.1038332013972,57.525118104145946,57.99530735153983,58.46549659893371,60.146271258011616
4000,57.12937496087847,56.417596195367096,56.96969546822356,57.521794741080015,59.33004019449265
4500,62.713229281786255,58.65920947889124,58.26113881232965,57.86306814576806,58.762632920024465
5000,65.91314799147435,60.5812985486188,59.44799510812703,58.31469166763528,58.704441627016735
7500,nan,nan,67.89802175028542,64.2538767165533,60.61502358701009
10000,nan,nan,nan,nan,66.6661849952352
