,0.08333333333333333,0.16666666666666666,0.25,0.3333333333333333,0.5
3500,56.30685590462085,57.99169589592889,58.36522081854361,58.738745741158326,60.248624418936664
4000,57.80491604663999,57.61192735043572,57.819126323555416,58.02632529667511,59.278304633140266
4500,64.05782925253723,59.236307640773916,58.71352609822874,58.190744555683565,59.02780309976883
5000,67.37340313728346,61.76748765863226,60.32653196222971,58.88557626582714,59.002416427045695
7500,nan,nan,68.29565740479711,64.45962223789428,60.81223643004076
10000,nan,nan,nan,nan,66.85583228937591
