,0.08333333333333333,0.16666666666666666,0.25,0.3333333333333333,0.5
3500,56.35561078036781,58.11940009503465,58.45558598874478,58.7917718824549,60.22025442381901
4000,57.831799360797746,57.47270855354606,57.65949732029624,57.84628608704642,59.2068261972852
4500,64.16195139082352,59.287821845896715,58.7033513362166,58.11888082653648,58.964050142312246
5000,67.46913266701645,61.803904165591874,60.29218168947668,58.780459213361475,58.87258502737495
7500,nan,nan,68.32881101898059,64.47942577585732,60.81537633140428
10000,nan,nan,nan,nan,66.8582452339663
