,0.08333333333333333,0.16666666666666666,0.25,0.3333333333333333,0.5
3500,53.590214561518124,56.643248648074646,57.179592759072705,57.715936870070756,58.93275228351197
4000,54.85977413731487,55.79836344614559,56.16812420784022,56.53788496953486,57.90459674903828
4500,62.13480403998872,56.994636699584326,56.96692464531546,56.939212591046584,57.881443932760135
5000,65.33949381010433,59.48715215845021,58.54023373592796,57.59331531340571,57.91388364504481
7500,nan,nan,66.46108342551321,63.28520008084533,59.97756856362101
10000,nan,nan,nan,69.95567383181066,65.39823761264688
