,0.08333333333333333,0.16666666666666666,0.25,0.3333333333333333,0.5
3500,54.67144522928089,57.40283148811043,57.88613569585633,58.36943990360224,59.85537742644468
4000,57.39075569601408,56.463318127508714,56.86218488826292,57.26105164901714,58.667289806956475
4500,63.691735906066285,58.2600864210753,57.9134532334113,57.566820045747306,58.51407151198089
5000,67.54116393934142,61.83622333867054,60.30546849510123,58.77471365153191,58.791701199528006
7500,nan,nan,68.34155728333413,64.47698638695208,60.791750999720804
10000,nan,nan,nan,72.7385921633649,66.59771085450623
