,0.08333333333333333,0.16666666666666666,0.25,0.3333333333333333,0.5
3500,55.41675780891909,57.71498182974571,58.17032321060704,58.625664591468365,60.25960124367877
4000,56.95793872363906,56.44012828635672,57.01984554956442,57.59956281277213,59.420644945522305
4500,62.50472565936018,58.51513307053335,58.182459276584254,57.84978548263516,58.78787278499034
5000,65.72305387326415,60.466607906329344,59.40632347822266,58.34603905011597,58.720254374082955
7500,nan,nan,67.81053744958778,64.18423848334704,60.5643107558488
10000,nan,nan,nan,nan,66.6231316515491
