,0.08333333333333333,0.16666666666666666,0.25,0.3333333333333333,0.5
3500,54.71907846734182,57.58204520080267,57.97892850532217,58.37581180984167,59.86662026730667
4000,58.104508146504756,57.08894913018926,57.2555131299186,57.422077129647946,58.77203458770801
4500,63.516297494667185,58.116597697219355,57.81224532251598,57.50789294781259,58.41455790012019
5000,67.24268646287206,61.078075146212015,59.72048340832042,58.362891670428816,58.50888192408071
7500,nan,nan,68.24144260045057,64.43408449690048,60.9697364495593
10000,nan,nan,nan,70.93387668011178,66.51128722439117
