,0.08333333333333333,0.16666666666666666,0.25,0.3333333333333333,0.5
3500,53.88234596600073,56.9025036716397,57.47455008687058,58.04659650210145,59.4170636820364
4000,56.098953373562786,56.20186026309543,56.558253636894854,56.914647010694274,58.327934566561495
4500,63.34077100679073,57.70735090885355,57.45399502232512,57.200639135796685,58.12053843412643
5000,67.1120110056568,60.395976384631226,59.18765294880225,57.97932951297328,58.25801322078208
7500,nan,nan,68.19422088343364,64.30847769640607,60.57902411761015
10000,nan,nan,nan,72.58849642910448,65.90752636557693
