,0.08333333333333333,0.16666666666666666,0.25,0.3333333333333333,0.5
3500,54.76478255579307,57.57681184469055,57.96587559894292,58.3549393531953,59.61516136449652
4000,57.34517322793245,56.356306151596876,56.71332882092493,57.07035149025299,58.48867142768621
4500,63.6562768127239,58.17527691982729,57.792089129388955,57.40890133895063,58.25708338621897
5000,67.51326221779793,61.720128370926105,60.046355920222474,58.37258346951883,58.37801529012962
7500,nan,nan,68.27118211567023,64.38482069905326,60.66135682113727
10000,nan,nan,nan,72.6577766681915,65.97741775258814
