,0.08333333333333333,0.16666666666666666,0.25,0.3333333333333333,0.5
3500,53.565191814713536,56.87779686932968,57.40374055856715,57.929684247804616,59.14221699796764
4000,55.91654316822531,55.961899322110916,56.35284906359402,56.743798805077134,58.079281857053765
4500,62.23627233284881,57.28631444150726,57.147775711108906,57.009236980710554,57.90113203126786
5000,65.26488982293245,59.46930358915759,58.592752766461174,57.716201943764766,58.017958346278874
7500,nan,nan,66.44201716348275,63.279191866397376,59.98925794323824
10000,nan,nan,nan,69.9485334669747,65.40835017564169
