,0.08333333333333333,0.16666666666666666,0.25,0.3333333333333333,0.5
3500,55.945533355876094,58.2103887601098,58.506338235857534,58.80228771160527,60.252622714149915
4000,57.488824146049495,57.743554458250784,57.85287076152267,57.96218706479455,59.239558118782355
4500,64.2235430991413,59.344637938653165,58.76052750537241,58.17641707209165,58.983194998457954
5000,67.52442867716493,61.85217493858619,60.341147296018505,58.830119653450794,58.92514258039601
7500,nan,nan,68.36404293991137,64.51371628447909,60.851427698243256
10000,nan,nan,nan,nan,66.88907345728354
