,0.08333333333333333,0.16666666666666666,0.25,0.3333333333333333,0.5
3500,nan,nan,nan,nan,nan
4000,57.30857466325126,55.984754280250066,56.34212576115886,56.7037459847628,56.1857748306615
4500,58.567617105406065,55.559526791066354,54.81920642669546,54.09744165745026,54.54433370980548
5000,60.79682507150213,56.49426419315611,56.11852699502124,56.05947001171515,55.659490644325516
7500,nan,69.36692358452203,64.87616266375622,59.628698847750265,55.70028468977458
10000,nan,nan,nan,63.69624062986498,60.76240170599989
