,0.08333333333333333,0.16666666666666666,0.25,0.3333333333333333,0.5
3500,54.40644199981432,57.450536009914124,57.88584926523661,58.32116252055909,59.743603580943315
4000,57.45000846966655,56.50485150072231,56.89503557584197,57.28521965096163,58.68007962778576
4500,63.73779984556448,58.29254221558686,57.939504339236805,57.58646646288676,58.44329324302095
5000,67.58348784871595,61.86404824529051,60.32787446299412,58.791700680697716,58.80110485872504
7500,nan,nan,68.35862982494616,64.4891708599138,60.79827373480057
10000,nan,nan,nan,72.75025447285277,66.60318527470673
