,0.08333333333333333,0.16666666666666666,0.25,0.3333333333333333,0.5
3500,54.569597500658446,57.4529511830727,57.898292600796665,58.34363401852064,59.853048352478176
4000,57.43910253469235,56.5069043089934,56.904950307076376,57.30299630515934,58.709203120636076
4500,63.729324868462584,58.29430240498931,57.94780086479794,57.601299324606586,58.54971246530184
5000,67.575096625337,61.86558683568921,60.33509115542209,58.804595475154954,58.8230710263113
7500,nan,nan,68.3628978998486,64.49763111006796,60.813278464268
10000,nan,nan,nan,72.7573962117201,66.61606931874698
