,0.08333333333333333,0.16666666666666666,0.25,0.3333333333333333,0.5
3500,56.43669533715995,58.062079320736686,58.4406442180899,58.81920911544313,60.30359794244735
4000,57.772982780258175,57.43812302659798,57.665159396785626,57.89219576697327,59.19095244089617
4500,64.11618633242585,59.266386247287485,58.72757087552394,58.1887555037604,59.00225212034402
5000,67.42772338213098,61.792927150043745,60.33831341142845,58.88369967281316,58.97978955353702
7500,nan,nan,68.30642822822556,64.45943193406521,60.79689596352462
10000,nan,nan,nan,nan,66.84248203170138
