,0.08333333333333333,0.16666666666666666,0.25,0.3333333333333333,0.5
3500,54.31250973045731,56.58190698156693,57.11589663033759,57.64988627910826,58.93124425966745
4000,55.39011235519613,55.57895603249714,56.062971318866545,56.54698660523596,58.03673960763932
4500,62.10738296203173,56.78151814017036,56.84594267967549,56.910367219180614,57.97409910661668
5000,65.48042767869809,59.61108557039873,58.66779048509463,57.72449539979051,58.008992954960455
7500,nan,nan,66.55185576139755,63.3749638586682,60.20263238788874
10000,nan,nan,nan,70.03599991303918,65.47956068257872
