,0.08333333333333333,0.16666666666666666,0.25,0.3333333333333333,0.5
3500,55.38542221474357,57.687843766557336,58.14344859064069,58.59905341472404,60.23251872944137
4000,56.93919705675334,56.421400285306675,57.00028578589421,57.579171286481746,59.398577601193935
4500,62.4903037748374,58.500381903801845,58.166686147472284,57.83299039114272,58.769104594036015
5000,65.71021557645136,60.45415554766026,59.39286079777736,58.331566047894455,58.70376584572314
7500,nan,nan,67.80094099734549,64.17430505260666,60.55302851775924
10000,nan,nan,nan,nan,66.61346851070846
