,0.08333333333333333,0.16666666666666666,0.25,0.3333333333333333,0.5
3500,nan,nan,nan,nan,nan
4000,52.33013817459086,52.16809088377816,52.91794313703399,53.57221658012324,54.384866196236814
4500,53.81893535513862,51.33321753897541,51.96570087255651,52.844788638411345,53.7180942718192
5000,56.516652213198164,52.2206898123264,52.53998994200586,53.23201807866921,54.45683472286734
7500,nan,68.29449103807848,62.93780441069519,57.396106361395404,55.72222566151521
10000,nan,nan,nan,63.80520845701487,60.85372044124101
