,0.08333333333333333,0.16666666666666666,0.25,0.3333333333333333,0.5
3500,nan,nan,nan,nan,nan
4000,56.62959962521142,56.076714062334084,56.551372468984,57.04818927676357,56.479792293889474
4500,58.00076038965857,55.60491734410759,55.79804946922198,56.127580712598444,55.649530433627454
5000,60.4777384279686,56.181947703902395,55.82426968823266,55.957647084290926,55.73447636743002
7500,nan,69.05177298347539,64.13890575239867,59.45132595257911,57.276911904087235
10000,nan,nan,69.57735706368697,63.53046649555659,60.643910253314644
