,0.08333333333333333,0.16666666666666666,0.25,0.3333333333333333,0.5
3500,53.36054458531691,56.89840631960991,57.30427690622702,57.71014749284413,58.87176504798748
4000,55.493690361046674,55.389811705625775,55.94306682639636,56.49632194716694,57.97186779446042
4500,61.891135593350114,56.77611878856836,56.687865594719696,56.599612400871024,57.844223859539895
5000,65.11818728541165,59.35188330864685,58.47912548969208,57.60636767073731,57.77350938010258
7500,nan,nan,66.36006632428175,63.20359312415218,59.91613126749378
10000,nan,nan,nan,69.88013186662151,65.34645632483475
