,0.08333333333333333,0.16666666666666666,0.25,0.3333333333333333,0.5
3500,54.998665974203355,57.50177222453797,58.08000453931372,58.658236854089466,60.271638436365045
4000,56.206037742655994,56.48815372830057,57.031418667442416,57.574683606584266,59.37187993713496
4500,62.78312749800723,58.71471110822321,58.310545648179044,57.90638018813487,58.79808832383682
5000,65.97670802782555,60.6476823417492,59.564613458159016,58.481544574568815,58.780253011712894
7500,nan,nan,67.92934382983458,64.28009597815887,60.6363870806758
10000,nan,nan,nan,nan,66.68437146794699
