,0.08333333333333333,0.16666666666666666,0.25,0.3333333333333333,0.5
3500,53.648949285436714,56.83003653204357,57.4460727318248,58.06210893160603,59.52216336428981
4000,55.946273613722326,55.76834421732663,56.36531242207273,56.96228062681883,58.53085625406559
4500,61.63254478224482,57.50943388765297,57.4436080616891,57.377782235725235,58.28063729428145
5000,65.05475610288252,60.49086749729055,59.23534178568952,57.97981607408849,58.228212041959395
7500,nan,nan,67.24072428257716,64.00843685990145,60.68301705609618
10000,nan,nan,nan,70.49579929096056,65.99546297793552
