,0.08333333333333333,0.16666666666666666,0.25,0.3333333333333333,0.5
3500,53.75757121613292,56.83957229988517,57.43820138494064,58.03683046999609,59.40303971644032
4000,56.33466583915514,56.37259522170719,56.69591863312107,57.01924204453495,58.351949135867436
4500,63.526355718181286,57.85710569984005,57.62311136588764,57.38911703193522,58.20071633867366
5000,67.28220243329818,60.48704766736965,59.203081033755744,57.91911440014182,58.12197718026146
7500,nan,nan,68.26539054603498,64.36094603023186,60.61035591867851
10000,nan,nan,nan,70.92278513333349,65.93384727422648
