,0.08333333333333333,0.16666666666666666,0.25,0.3333333333333333,0.5
3500,54.54913309484229,57.529270349678235,57.819730814149366,58.110191278620505,59.53544588636605
4000,56.16368657092897,56.737051903426234,56.919198415361706,57.101344927297184,58.42029841475366
4500,63.052768059094454,57.46811151455191,57.22900037131852,56.98988922808513,58.12821965006774
5000,66.85054096737422,60.192837532921565,58.99528448281176,57.79773143270195,58.08664148868476
7500,nan,nan,68.05220633166223,64.2356310893655,60.60894212587995
10000,nan,nan,nan,72.47145141974836,65.80779304717625
