,0.08333333333333333,0.16666666666666666,0.25,0.3333333333333333,0.5
3500,55.14807627502985,57.540147477096006,57.998267167498,58.456386857899986,60.085704156309525
4000,57.15493704646728,56.42755385303963,56.97083840722031,57.514122961400986,59.27332689817034
4500,62.73281902691167,58.6669186774392,58.26172159528383,57.85652451312846,58.74532182885096
5000,65.93161134838893,60.58774678896805,59.44835749127194,58.308968193575836,58.644360305011375
7500,nan,nan,67.89932585391057,64.250439922974,60.604625269624755
10000,nan,nan,nan,nan,66.65718990993422
