,0.08333333333333333,0.16666666666666666,0.25,0.3333333333333333,0.5
3500,56.106087517906204,57.979689640556195,58.356314409189665,58.73293917782313,60.24646361948261
4000,57.68587162755493,57.40528212649404,57.69067895229983,57.97607577810561,59.27659158817188
4500,64.04844644654429,59.22987081318044,58.70856327544736,58.18725573771429,59.02637194272402
5000,67.36479970715725,61.76203009843739,60.322304566097316,58.88257903375723,59.001173850703125
7500,nan,nan,68.29240326311344,64.45745210335139,60.81136913295213
10000,nan,nan,nan,nan,66.85511243028608
