,0.08333333333333333,0.16666666666666666,0.25,0.3333333333333333,0.5
3500,54.6658215507762,57.49391647998548,57.9286031595629,58.363289839140315,59.82436833406456
4000,56.701084804879216,56.22068078664129,56.70201872198288,57.18335665732447,58.71730530163405
4500,63.65172886238918,58.1946184811554,57.764166595950385,57.33371471074537,58.27254948149667
5000,67.50467435483131,61.765889436251655,60.12668580805578,58.487482179859896,58.45727136566853
7500,nan,nan,68.32344327612664,64.51602362223215,60.927039012709095
10000,nan,nan,nan,72.72434330364098,66.33727508025284
