,0.08333333333333333,0.16666666666666666,0.25,0.3333333333333333,0.5
3500,55.982415193039046,57.78755468961771,58.256525974499596,58.72549725938149,60.35819224689179
4000,57.506233959083616,57.268610180656104,57.601196769160595,57.93378335766509,59.55466295262211
4500,63.90873168219227,59.12823291515224,58.65640732872603,58.18458174229982,59.036349037537875
5000,67.0984670717261,61.04147278955145,59.781249506726624,58.521026223901785,58.87192060474156
7500,nan,nan,68.22251707893001,64.3941549647291,60.75151849180134
10000,nan,nan,nan,nan,66.80404004127004
