,0.08333333333333333,0.16666666666666666,0.25,0.3333333333333333,0.5
3500,53.60485170294578,56.65206026087104,57.29963926179294,57.947218262714856,59.26768757784238
4000,55.62699749287317,55.80304664691689,56.2155623720069,56.62807809709691,58.10531857268789
4500,62.969929632356965,57.41856282014598,57.26005003263056,57.101537245115125,58.03828229014347
5000,66.77654122022433,60.12229736387637,58.9191702999539,57.71604323603141,58.03962362926075
7500,nan,nan,67.9977493137198,64.17935724742692,60.67652962192752
10000,nan,nan,nan,72.42071302360918,65.75369103563324
