,0.08333333333333333,0.16666666666666666,0.25,0.3333333333333333,0.5
3500,53.41835051481681,56.958402477726565,57.42338798980913,57.88837350189171,59.02317426784598
4000,55.73806690408781,55.818559553818275,56.25170795894418,56.68485636407008,58.03410714503235
4500,62.098542031889515,57.16427831122091,57.02769307471694,56.891107838212974,57.823181543322235
5000,65.14141225828453,59.366566091398845,58.49061377955209,57.61466146770533,57.91428037996944
7500,nan,nan,66.36881533708112,63.2095343769477,59.91865981662824
10000,nan,nan,nan,69.88582459920245,65.34855616803134
