,0.08333333333333333,0.16666666666666666,0.25,0.3333333333333333,0.5
3500,54.70296704863742,57.396242682358064,57.83759597494129,58.27894926752451,59.70757875423904
4000,57.612366886203276,56.46451129278232,56.84747711550773,57.23044293823315,58.598043901993094
4500,63.949046349404696,58.413340596621275,57.979742877256754,57.54614515789223,58.38465864491313
5000,67.77846460328024,61.960511566036566,60.337290515751356,58.71406946546613,58.67556145754289
7500,nan,nan,68.42628602377927,64.5296690904999,60.80488324209258
10000,nan,nan,nan,72.79039155624758,66.09867352734646
