,0.08333333333333333,0.16666666666666666,0.25,0.3333333333333333,0.5
3500,55.80576087678468,57.98848814083806,58.35918949579284,58.72989085074762,60.16367721627219
4000,57.4516907431435,57.68366243379063,57.776920084099174,57.87017773440773,59.0853424759785
4500,64.19453894292474,59.297245410338334,58.698740700862245,58.100235991386164,58.88362642693598
5000,67.50006665983271,61.83329919618225,60.364734806896905,58.89617041761154,58.925542487507656
7500,nan,nan,68.32781021614359,64.46917715362818,60.79144368239874
10000,nan,nan,nan,nan,66.83757856207194
