,0.08333333333333333,0.16666666666666666,0.25,0.3333333333333333,0.5
3500,53.14306929137067,56.867198557383674,57.18742023353382,57.50764190968397,58.62983522780556
4000,55.27223454140494,55.156333649522125,55.69224004755239,56.22814644558265,57.74739052599107
4500,61.72049146065062,56.611253062295106,56.546571334477264,56.48188960665943,57.65858184768979
5000,64.96753263880802,59.19846216948103,58.307797086252954,57.41713200302487,57.7792829550696
7500,nan,nan,66.24045756098967,63.07537928519506,59.63440964708294
10000,nan,nan,nan,69.76680698072414,65.21829645323557
