,0.08333333333333333,0.16666666666666666,0.25,0.3333333333333333,0.5
3500,54.52406560672517,57.52202558990178,57.820064034403956,58.11810247890614,59.552991482769826
4000,56.14959691196964,56.732330969220996,56.92006745466975,57.107803940118515,58.43466491617468
4500,63.041666189049835,57.46456396108544,57.229954160322364,56.995344359559304,58.05934458293386
5000,66.84001399125083,60.18985369304939,58.996164811740286,57.802475930431186,58.05137129356493
7500,nan,nan,68.05217455151957,64.23859414508132,60.616300619272444
10000,nan,nan,nan,72.47375809858464,65.81408792192747
