,0.08333333333333333,0.16666666666666666,0.25,0.3333333333333333,0.5
3500,55.80477081676503,57.657999640188564,58.16768574509463,58.677371850000696,60.32459355664308
4000,57.1860942438645,56.77203310706482,57.25749191655028,57.742950726035744,59.49072999970308
4500,63.82659024362219,59.03382946451571,58.51714541852374,58.00046137253177,58.8408599458279
5000,67.0249825454882,60.9973818765306,59.790125828109474,58.58286977968834,58.88415018872475
7500,nan,nan,68.17388633253785,64.34592163555557,60.69963176447781
10000,nan,nan,nan,nan,66.76003891260108
