,0.08333333333333333,0.16666666666666666,0.25,0.3333333333333333,0.5
3500,53.78319424160603,56.37771119733522,56.92656891780514,57.47542663827507,58.632979656152
4000,55.04326140510079,55.2140186677786,55.730514415052866,56.24701016232713,57.72615140878014
4500,61.198527731300764,56.01422630637988,56.17652905420118,56.33883180202248,57.456402504619504
5000,64.66293313723462,58.890662793264255,57.844606126869365,56.79854946047447,57.24910659347273
7500,nan,nan,66.06979631091895,62.9176725672224,59.740657430895986
10000,nan,nan,nan,69.62420374060915,65.0888628668711
