,0.08333333333333333,0.16666666666666666,0.25,0.3333333333333333,0.5
3500,54.052513713337135,57.014660241164385,57.59065114855634,58.1666420559483,59.47424799252097
4000,55.89230564315976,56.084486021675346,56.544980543851395,57.005475066027444,58.40303122993086
4500,63.17812831823435,57.61104376098457,57.42430970684574,57.237575652706894,58.155769933044596
5000,66.96261078546063,60.299996976303184,59.111094327057344,57.9221916778115,58.182463008616125
7500,nan,nan,68.1350599037634,64.32136730429418,60.83798783305522
10000,nan,nan,nan,70.83407010519556,65.89041256111074
