,0.08333333333333333,0.16666666666666666,0.25,0.3333333333333333,0.5
3500,53.785636735336695,56.94118394803922,57.579019448393915,58.21685494874861,59.63745359578651
4000,56.02694888417127,55.83532472509041,56.42676972321889,57.01821472134737,58.54301260423959
4500,61.698235576985084,57.56179102526078,57.49270499873788,57.42361897221498,58.32278496294903
5000,65.11555448195975,60.535496216736234,59.27740065322064,58.01930508970504,58.26515274474153
7500,nan,nan,67.27142518945496,64.03597641113113,60.708463579065594
10000,nan,nan,nan,70.52189560510381,66.01700318123916
