,0.08333333333333333,0.16666666666666666,0.25,0.3333333333333333,0.5
3500,56.18651042400755,58.044243574069355,58.41766420952121,58.79108484497308,60.302510414930616
4000,57.733872455491564,57.43594580067758,57.68508490583682,57.93422401099606,59.26456663084204
4500,64.08579438789481,59.26508133398659,58.74451917270352,58.22395701142045,59.06524485782619
5000,67.398265741222,61.791946311953595,60.35310913041419,58.91427194887477,59.03535282764446
7500,nan,nan,68.31447819440267,64.47927526789553,60.834792184898625
10000,nan,nan,nan,nan,66.87514899679812
