,0.08333333333333333,0.16666666666666666,0.25,0.3333333333333333,0.5
3500,54.75105560363976,57.29588975979118,57.8807786649527,58.46566757011421,60.153643328953386
4000,56.059068544299826,56.35889752683382,56.93554878437353,57.51220004191324,59.2392942291078
4500,62.66861076582512,58.602631310760216,58.193845498842016,57.785059686923816,58.66654884271438
5000,65.8743304313725,60.553055552943995,59.46499974169281,58.37694393044161,58.709423640275915
7500,nan,nan,67.85789061472133,64.20808046353399,60.557232900496444
10000,nan,nan,nan,nan,66.61660619609466
