,0.08333333333333333,0.16666666666666666,0.25,0.3333333333333333,0.5
3500,55.63087167988995,58.02441504879533,58.38327774438998,58.742140439984624,60.19602970774318
4000,57.56454115634568,57.916705971835874,57.952740354497394,57.98877473715892,59.223611031761166
4500,64.19922646476336,59.32511605321425,58.74286825901497,58.16062046481567,58.96965582246917
5000,67.5023607489876,61.8356022618836,60.32605305813961,58.8165038543956,58.91325942741293
7500,nan,nan,68.35290124144116,64.50417954960892,60.84325567502366
10000,nan,nan,nan,nan,66.882113774331
