,0.08333333333333333,0.16666666666666666,0.25,0.3333333333333333,0.5
3500,53.26509889568011,56.84261728808486,57.22921819000209,57.615819091919334,58.75488447520222
4000,55.240148123929416,55.13560276485529,55.704265692542606,56.27292862022992,57.795732953711926
4500,61.69577888021914,56.60085310260233,56.57545724822716,56.55006139385198,57.76766301264138
5000,64.94577230890305,59.17568675051563,58.2820247299946,57.388362709473576,57.74503571683957
7500,nan,nan,66.22252132202176,63.05591750405582,59.611207475125504
10000,nan,nan,nan,69.74963741467577,65.19858149433762
