,0.08333333333333333,0.16666666666666666,0.25,0.3333333333333333,0.5
3500,54.61445890090094,57.44796401421817,57.88244551886865,58.31692702351913,59.77628659574149
4000,56.67024006142974,56.18898046408287,56.66840195609845,57.14782344811404,58.67818801597398
4500,63.62759388766005,58.16966242013193,57.73706835454344,57.30447428895495,58.239303434558266
5000,67.48312221259411,61.744469430480585,60.10331106878779,58.462152707094965,58.42802092672764
7500,nan,nan,68.30687661325047,64.49861863523228,60.90691617108322
10000,nan,nan,nan,72.70867871460325,66.32016311245704
