,0.08333333333333333,0.16666666666666666,0.25,0.3333333333333333,0.5
3500,54.028908396435355,56.98470561157364,57.556108626063576,58.12751164055351,59.42818508078549
4000,55.877812343486724,56.063681078830456,56.51948431312739,56.97528754742433,58.36555978478784
4500,63.166798770830994,57.594689876519155,57.40367870987835,57.212667543237544,58.1238869590343
5000,66.95287363311101,60.28607924635463,59.093383759795465,57.900688273236284,58.15443853624375
7500,nan,nan,68.12281709357984,64.30674435040113,60.81873071987095
10000,nan,nan,nan,70.82133697927215,65.8740872988057
