,0.08333333333333333,0.16666666666666666,0.25,0.3333333333333333,0.5
3500,55.930636413881764,57.74074750460232,58.23632060103494,58.73189369746757,60.3634051573857
4000,57.259883079378284,56.82870874675459,57.30637294130582,57.78403713585704,59.52214428961201
4500,63.88402529274258,59.09514720638761,58.616062338075366,58.136977469763124,58.97672312510903
5000,67.07716437255124,61.03495119864446,59.82336594171247,58.611780684780456,58.90747831974014
7500,nan,nan,68.19869751026008,64.36627927905678,60.71566166714998
10000,nan,nan,nan,nan,66.77367241760959
