,0.08333333333333333,0.16666666666666666,0.25,0.3333333333333333,0.5
3500,53.73481045533126,56.78653692139449,57.339101989679676,57.891667057964874,59.30444732522053
4000,56.01230709470147,56.145597284956665,56.54540834717904,56.94521940940142,58.33825585315738
4500,63.27263126336809,57.68615190204416,57.523904073527106,57.36165624501007,58.21834947736515
5000,67.05000676107056,60.3493945802132,59.14467611131222,57.939957642411244,58.130512214645464
7500,nan,nan,68.16227873406554,64.28081693289292,60.554798851931785
10000,nan,nan,nan,70.84812006402169,65.8870255020939
