,0.08333333333333333,0.16666666666666666,0.25,0.3333333333333333,0.5
3500,53.774062164792696,56.791512767487625,57.32106335455856,57.85061394162951,59.02640871455817
4000,56.02375204418698,55.913547976213934,56.31972407184901,56.725900167484085,58.067498349679425
4500,62.40015280006766,57.39513388195664,57.197286872355235,56.99943986275383,57.90303680703812
5000,65.41345901932196,59.55366670636626,58.609497049239565,57.66532739211287,57.94670874387937
7500,nan,nan,66.51016885316166,63.33438365949133,60.03104211262128
10000,nan,nan,nan,69.9995955338075,65.44357448530806
