,0.08333333333333333,0.16666666666666666,0.25,0.3333333333333333,0.5
3500,53.78506925118677,56.81682777127592,57.362097322482754,57.90736687368959,59.274653315421304
4000,56.04157518170532,56.16620286737955,56.561518183565084,56.95683349975063,58.343943104170194
4500,63.29566860408119,57.70217437899319,57.53662252101398,57.37107066303478,58.22312204889853
5000,67.07116907757118,60.36298430501762,59.15551105705022,57.948037809082805,58.13466024853855
7500,nan,nan,68.1706525848728,64.28666647599302,60.55768492585022
10000,nan,nan,nan,70.85368384443736,65.88943775587708
