,0.08333333333333333,0.16666666666666666,0.25,0.3333333333333333,0.5
3500,54.53105396612213,57.521357858856916,57.93636942074821,58.35138098263951,59.74961720218964
4000,57.52376790666262,56.55305626114417,56.93017443076324,57.30729260038232,58.68465125214425
4500,63.795148728319006,58.330160715136444,57.967217452781234,57.604274190426025,58.44700161471075
5000,67.63639977741937,61.89629040454506,60.351681993195996,58.80707358184691,58.804267559315335
7500,nan,nan,68.37721531231514,64.50048282812445,60.80055165179524
10000,nan,nan,nan,72.76142634180414,66.09530114113792
