,0.08333333333333333,0.16666666666666666,0.25,0.3333333333333333,0.5
3500,53.83763604712374,56.83734916276532,57.39640396072089,57.955458758676464,59.30690274415512
4000,56.070978463552365,56.15643081252766,56.500332416589075,56.844234020650504,58.27580921423781
4500,63.318929187352694,57.6884251552637,57.46717189386982,57.24591863247595,58.11329845511911
5000,67.09357164306957,60.34383110244619,59.06987871773762,57.795926333029044,58.10204543816458
7500,nan,nan,68.1665359967403,64.32866117864226,60.81255478214785
10000,nan,nan,nan,72.55842760398994,65.86844735573129
