,0.08333333333333333,0.16666666666666666,0.25,0.3333333333333333,0.5
3500,53.4410016438957,57.01154081069697,57.297877035363484,57.58421326003,58.632208730879825
4000,55.106652891546105,55.14874317725965,55.695308225614305,56.24187327396898,57.747994815341364
4500,61.69300140471884,56.785292283401176,56.640797000879616,56.49630171835807,57.64760524125178
5000,64.77958495012625,59.068516239557894,58.23632681082563,57.40413738209335,57.726049970508825
7500,nan,nan,66.13502927631885,62.97789303618771,59.539874470933555
10000,nan,nan,nan,69.6786628592781,65.13820588652291
