,0.08333333333333333,0.16666666666666666,0.25,0.3333333333333333,0.5
3500,54.841320748134976,57.69753873369299,58.09804378158502,58.49854882947706,59.9977173027215
4000,58.071504719912724,56.95547702325885,57.169566872472316,57.38365672168578,58.78347327258919
4500,63.573803057580065,58.162503952554715,57.82222927706149,57.48195460156826,58.43619718094857
5000,67.29370568930705,61.13164938774922,59.780850140112015,58.43005089247481,58.58874466563272
7500,nan,nan,68.28397871659777,64.48009952819807,61.024639461717655
10000,nan,nan,nan,70.97375043702705,66.55768168727333
