,0.08333333333333333,0.16666666666666666,0.25,0.3333333333333333,0.5
3500,52.77278829618209,56.59753638486767,56.96454799579889,57.33155960673012,58.47068705799258
4000,54.15657713093212,55.08797063436532,55.64681254874684,56.20565446312837,57.6757993304074
4500,61.485010100832184,56.20598519625303,56.26013388163837,56.314282567023696,57.589645678867626
5000,64.92282991823103,59.14426387774403,58.24251630687857,57.34076873601311,57.68358078581272
7500,nan,nan,66.19560691475154,63.02397823418653,59.43700010661573
10000,nan,nan,nan,69.721808005019,65.16320822293747
