,0.08333333333333333,0.16666666666666666,0.25,0.3333333333333333,0.5
3500,54.01063679569907,56.36872358202776,56.902761264049126,57.43679894607049,58.67951564497485
4000,55.28052541825974,54.92405302081016,55.55595933532963,56.187865649849094,57.72863679482333
4500,61.70645301818545,56.4219402068346,56.518681052821286,56.61542189880797,57.660852820953906
5000,65.12164220363829,59.31324385024017,58.41290021401177,57.51255657778337,57.771762402126114
7500,nan,nan,66.31724280602032,63.141526313665054,59.95078501943539
10000,nan,nan,nan,69.82734326917921,65.26635889307376
