,0.08333333333333333,0.16666666666666666,0.25,0.3333333333333333,0.5
3500,54.71939522433285,57.274164002430254,57.86220660076479,58.45024919909933,60.14173179255885
4000,56.04051750524823,56.331180017441895,56.87345888802527,57.41573775860864,59.17105730217136
4500,62.65416520184564,58.5909145893857,58.18321889456679,57.77552319974788,58.658367885335146
5000,65.86121609132903,60.543177597521925,59.455959862794735,58.36874212806754,58.70225029087273
7500,nan,nan,67.85118565066253,64.20232679070698,60.55230808736036
10000,nan,nan,nan,nan,66.61240996077345
