,0.08333333333333333,0.16666666666666666,0.25,0.3333333333333333,0.5
3500,53.672253306173026,56.79533636050095,57.36091680615794,57.926497251814936,59.214625432508484
4000,55.728233383736594,56.02273000016962,56.401776543626696,56.780823087083796,58.193791079735334
4500,62.96437918263355,57.43932633098176,57.3301859163988,57.22104550181584,58.09265991777705
5000,66.77082175847205,60.1257300902998,58.92804164316166,57.73035319602352,58.01674501886967
7500,nan,nan,68.00326130519944,64.1888293333719,60.69234631982506
10000,nan,nan,nan,70.71586309107403,65.76713833703106
