,0.08333333333333333,0.16666666666666666,0.25,0.3333333333333333,0.5
3500,52.72672864809286,56.519024376388366,57.05387366633304,57.588722956277714,58.69501016710876
4000,55.18446523336958,55.20986157590633,55.74888522302733,56.28790887014832,57.672866034420046
4500,61.57156472395032,56.512596723148604,56.53484717223173,56.55709762131485,57.58555581858471
5000,64.83383981411703,59.087280644551626,58.19730711922096,57.30733359389028,57.576224962200314
7500,nan,nan,66.16132964424563,63.00013708905935,59.558322039689685
10000,nan,nan,nan,69.69908318860455,65.15379278863486
