,0.08333333333333333,0.16666666666666666,0.25,0.3333333333333333,0.5
3500,55.42832829717524,57.98564516708543,58.41586135794191,58.84607754879839,60.17771555858102
4000,57.97101160929391,57.66306355054603,57.74896045677991,57.834857363013796,59.038893764198974
4500,64.18693449783672,59.280913289508476,58.67593956323611,58.07096583696376,58.80334466424743
5000,67.4939971079875,61.797895638314834,60.26840373895702,58.738911839599204,58.80260242818146
7500,nan,nan,68.31459458551412,64.50648888830943,61.04758893108787
10000,nan,nan,nan,nan,66.81708023785738
