,0.08333333333333333,0.16666666666666666,0.25,0.3333333333333333,0.5
3500,54.94243847800884,57.56563695765257,58.021332846554415,58.477028735456265,59.93333362222073
4000,57.50396896874605,56.67869368513953,57.03338497980141,57.3880762744633,58.86470089858689
4500,63.695214157602834,58.25970860553294,57.91063141413641,57.56155422273988,58.464302769587256
5000,67.54458086071907,61.81432105447012,60.22600659109987,58.6376921277296,58.60298032876557
7500,nan,nan,68.34013599724668,64.52836473872834,61.06638928763553
10000,nan,nan,nan,72.7360753128192,66.3435150692855
