,0.08333333333333333,0.16666666666666666,0.25,0.3333333333333333,0.5
3500,56.818078243985276,58.510542979910994,58.72405498845136,58.93756699699172,60.363665919653954
4000,57.90346910001685,57.54999479523448,57.77054559852239,57.99109640181028,59.35864121893658
4500,64.21773040383368,59.354345274246974,58.81220238427552,58.27005949430408,59.08107528140701
5000,67.51935117461045,61.86763200466059,60.41074711219362,58.95386221972664,59.00299146349554
7500,nan,nan,68.35906467453799,64.50809054552353,60.844405982574685
10000,nan,nan,nan,nan,66.88305189389827
