,0.08333333333333333,0.16666666666666666,0.25,0.3333333333333333,0.5
3500,53.7966852807899,56.785550885961676,57.36032055416601,57.935090222370334,59.307699810911885
4000,55.74023587920793,55.91269601015523,56.32733267477322,56.74196933939121,58.18769182591554
4500,63.058850206778544,57.487604744326035,57.28978546344259,57.09196618255915,58.071237297377365
5000,66.85625109471863,60.21666486147066,59.072894107604895,57.92912335373913,58.21738382638161
7500,nan,nan,68.05291545346753,64.23500704902065,60.737970064234304
10000,nan,nan,nan,72.47105433296181,65.8056331320777
