,0.08333333333333333,0.16666666666666666,0.25,0.3333333333333333,0.5
3500,54.919843577998094,57.636466439757584,58.1653702840606,58.694274128363624,60.17677797879414
4000,57.49396934509959,56.720115491879284,57.1075239471343,57.49493240238932,59.0571728193727
4500,63.687443228472944,58.292818272762545,57.97155412313351,57.65028997350447,58.596475957259514
5000,67.53442445978332,61.84283862998011,60.27875458289432,58.71467053580854,58.71948230886581
7500,nan,nan,68.37423200347719,64.57975477431832,61.014269135966586
10000,nan,nan,nan,72.78045674465888,66.41169793616352
