,0.08333333333333333,0.16666666666666666,0.25,0.3333333333333333,0.5
3500,55.05680714180987,57.40003716473561,57.92738478837416,58.454732412012724,60.17269971911142
4000,57.14630523070219,56.434991730117346,56.988164912638496,57.541338095159645,59.31508418543167
4500,62.726279971811245,58.672944775245625,58.27606454655924,57.879184317872856,58.780962418934195
5000,65.9247355240785,60.592898082808546,59.460739054864035,58.32858002691953,58.720556871901614
7500,nan,nan,67.90708188061612,64.26340702489146,60.6260542145912
10000,nan,nan,nan,nan,66.67563674174355
