,0.08333333333333333,0.16666666666666666,0.25,0.3333333333333333,0.5
3500,53.30092586605141,56.82212106778909,57.1717534679587,57.52138586812832,58.61037830224675
4000,55.072693622709124,55.12161688448172,55.67118038958009,56.22074389467846,57.7304620411727
4500,61.66682722905854,56.764298231127654,56.62171798962994,56.47913774813224,57.63281172403126
5000,64.75594257355073,59.05086880086183,58.22013668902859,57.38940457719534,57.71311335651513
7500,nan,nan,66.1232179900929,62.96769961631255,59.53108542017494
10000,nan,nan,nan,69.66933848499556,65.13077472687365
