,0.08333333333333333,0.16666666666666666,0.25,0.3333333333333333,0.5
3500,54.86765994087618,57.611978951555066,57.94535568620441,58.27873242085375,59.57578485369132
4000,57.40538996664385,56.388833994783326,56.73076001269297,57.07268603060261,58.5451431681349
4500,63.70308204338339,58.20053223071603,57.80547569551116,57.4104191603063,58.28183854647126
5000,67.55686868368616,61.763374238961894,60.13500102351355,58.50662780806521,58.498590623930866
7500,nan,nan,68.28112331062485,64.38650371862231,60.65178108043256
10000,nan,nan,nan,70.94430615785666,65.96916453456416
