,0.08333333333333333,0.16666666666666666,0.25,0.3333333333333333,0.5
3500,54.91468224167055,57.588342871603224,58.095183842968076,58.602024814332935,60.054300002595255
4000,57.48879683279297,56.68596034386048,57.05443953831991,57.42291873277933,58.95706638126242
4500,63.683426006566265,58.26567081253282,57.928120219160334,57.59056962578785,58.511109570499116
5000,67.53263452831123,61.81948156934739,60.24117815918751,58.66287474902762,58.64425102465616
7500,nan,nan,68.34943921137545,64.54500785499711,61.09468863815333
10000,nan,nan,nan,72.75022866791741,66.36766901115656
