,0.08333333333333333,0.16666666666666666,0.25,0.3333333333333333,0.5
3500,56.047144715974035,57.82855206078406,58.28947823771715,58.75040441465024,60.37394998854985
4000,57.54418823913991,57.29675517827018,57.62462539660442,57.95249561493868,59.56738529041412
4500,63.93824196568622,59.13352668359116,58.61522998082864,58.09693327806612,58.97841099659816
5000,67.12534906813208,61.06006046143485,59.79709876144044,58.53413706144602,58.88133046258476
7500,nan,nan,68.23446700685787,64.40346161422296,60.75800668355013
10000,nan,nan,nan,nan,66.80953684062528
