,0.08333333333333333,0.16666666666666666,0.25,0.3333333333333333,0.5
3500,54.39273873541174,56.57395535707912,57.131665068894876,57.68937478071064,58.89656486973402
4000,55.28417755888921,55.471547156885705,56.00402157582756,56.53649599476941,57.93200736250692
4500,62.02544787469186,56.67610679908739,56.71836409207487,56.76062138506236,57.787862647533345
5000,65.409439843097,59.5637373096189,58.709091766477535,57.85444622333617,58.01848548835426
7500,nan,nan,66.47679282213781,63.28789077259795,60.091301496502055
10000,nan,nan,nan,69.95986377246129,65.38512053025312
