,0.08333333333333333,0.16666666666666666,0.25,0.3333333333333333,0.5
3500,56.367531002353736,58.03024082795857,58.42345584223389,58.81667085650922,60.31908375457006
4000,57.73292662598932,57.43061813606514,57.70402462423611,57.97743111240709,59.336488528739324
4500,64.08503600919971,59.24959116498447,58.71882456211833,58.18805795925219,59.01333343847067
5000,67.39878787889623,61.77871590109165,60.330946672721026,58.883177444350395,58.98961398183115
7500,nan,nan,68.29997535085447,64.45851682223028,60.803544938288525
10000,nan,nan,nan,nan,66.84828448269218
