,0.08333333333333333,0.16666666666666666,0.25,0.3333333333333333,0.5
3500,54.6173308725067,57.600861687720695,57.98640695388478,58.37195222004887,59.62835245345421
4000,56.83655007455479,56.37277357829397,56.727980781560845,57.08318798482771,58.499332378212486
4500,63.672427439962306,58.18817112054243,57.803787993753346,57.41940486696427,58.22538019959363
5000,67.52798224987276,61.75281033586439,60.1336361020234,58.514461868182394,58.47457622240263
7500,nan,nan,68.27861657697687,64.39118480461543,60.66681255275636
10000,nan,nan,nan,72.66368062230413,65.98203426334831
