,0.08333333333333333,0.16666666666666666,0.25,0.3333333333333333,0.5
3500,54.710979503015785,57.467286873644426,57.92235462919996,58.37742238475549,59.684589724195746
4000,56.83296866610142,56.38456083846519,56.74959306603118,57.11462529359717,58.545216405915
4500,63.66958329051488,58.197609281150896,57.82155970689999,57.44551013264909,58.2645027916072
5000,67.52447463520755,61.73930801809429,60.0717872646811,58.40426651126789,58.42040490674427
7500,nan,nan,68.28844564095274,64.40626609547557,60.690391075647426
10000,nan,nan,nan,72.67669976584541,66.00173512401253
