,0.08333333333333333,0.16666666666666666,0.25,0.3333333333333333,0.5
3500,nan,nan,nan,nan,nan
4000,57.30708406971448,55.96454288423294,56.272465022328554,56.6517468076905,56.24691372568921
4500,58.79438104605034,55.43873889853525,55.469079873524116,55.756793968383015,55.29982845635536
5000,61.54071124426113,56.395410871281335,55.84838984846214,55.88831878075239,55.55446294378831
7500,nan,69.44452384918455,64.33949991757333,59.08589854459112,55.73594880137041
10000,nan,nan,nan,64.88141214486161,60.81491424974106
