,0.08333333333333333,0.16666666666666666,0.25,0.3333333333333333,0.5
3500,56.46695136653388,58.3870286139165,58.58697358731695,58.786918560717396,60.22576206513836
4000,57.80282534904256,57.47404406118934,57.70624200022735,57.93843993926535,59.32058890627977
4500,64.1394195839291,59.29475972213596,58.76087190746257,58.22698409278919,59.04883097251319
5000,67.44801653239836,61.81706586067483,60.36690929457819,58.91675272848155,59.02078447475349
7500,nan,nan,68.3263166616817,64.48190560259656,60.824945057729245
10000,nan,nan,nan,nan,66.86653454501587
