,0.08333333333333333,0.16666666666666666,0.25,0.3333333333333333,0.5
3500,56.43057600698609,58.06300688248463,58.39037301934583,58.717739156207024,60.278062076811295
4000,57.77097926676933,57.45766856917888,57.69847535797954,57.9392821467802,59.333313477782845
4500,64.11465311096055,59.28202733911678,58.75496586468432,58.22790439025188,59.059783677682105
5000,67.42496006303415,61.80629686200176,60.36195604249567,58.917615222989575,59.03048399957058
7500,nan,nan,68.32177592955475,64.48203062975628,60.831522639637576
10000,nan,nan,nan,nan,66.87225827754213
