,0.08333333333333333,0.16666666666666666,0.25,0.3333333333333333,0.5
3500,53.45289901873193,56.641932300549556,57.29044293308068,57.93895356561181,59.3282710367137
4000,55.89274328686893,55.938555464158966,56.419100952946685,56.899646441734404,58.3063692642761
4500,63.07468493907932,57.33071821613621,57.306021081994196,57.28132394785218,58.22316501070982
5000,66.52586747560215,60.34600554411543,59.14344479900046,57.940884053885505,58.134763265104155
7500,nan,nan,67.11933121104792,63.889534090545844,60.557689558286356
10000,nan,nan,nan,70.50317673421057,65.88950516799426
