,0.08333333333333333,0.16666666666666666,0.25,0.3333333333333333,0.5
3500,53.42251973678795,56.62286131681541,57.275403469243244,57.927945621671086,59.358856479442316
4000,55.65628115901286,55.5198902877917,56.158694917899,56.7974995480063,58.33877682515895
4500,63.06074404629125,57.30382429982449,57.23760770004695,57.1713911002694,58.14994077060699
5000,66.51311684861747,60.33742629519268,59.13628988534575,57.93515347549882,58.13101332604085
7500,nan,nan,67.11395369883985,63.88546241765047,60.55509482696548
10000,nan,nan,nan,70.49935710946718,65.88732283401251
