,0.08333333333333333,0.16666666666666666,0.25,0.3333333333333333,0.5
3500,56.557830192855924,58.36669553732824,58.53598983378688,58.705284130245516,60.10574911095145
4000,57.54604073699953,57.23433372487433,57.466738265125144,57.69914280537598,59.14997471081616
4500,63.93964105977793,59.106115225728225,58.568022650940115,58.029930076152006,58.83980166879016
5000,67.26903335259824,61.656798189665864,60.20170636693756,58.74661454420925,58.83704170022432
7500,nan,nan,68.20805681545812,64.36479418418679,60.6990682180957
10000,nan,nan,nan,nan,66.75924932145232
