,0.08333333333333333,0.16666666666666666,0.25,0.3333333333333333,0.5
3500,56.60381051706803,58.44206137639271,58.628875862818646,58.815690349244576,60.16742341146244
4000,57.5753651552469,57.3013141294846,57.58627673080892,57.87123933213324,59.3932685449377
4500,63.9624792254326,59.14804974167402,58.624492448726244,58.10093515577846,58.934213765028105
5000,67.28783483863322,61.69251512618931,60.2502787397862,58.80804235338307,58.920154357963014
7500,nan,nan,68.24086866487401,64.40617139211423,60.75586120370434
10000,nan,nan,nan,nan,66.56764646267368
