,0.08333333333333333,0.16666666666666666,0.25,0.3333333333333333,0.5
3500,54.715381732476715,57.504321097677646,57.97205342583301,58.439785753988374,59.875126727963945
4000,57.489138799134324,57.0554751597011,57.31976018469281,57.58404520968453,58.94867301243805
4500,63.432432128100395,58.06903277210181,57.78434122685678,57.499649681611764,58.55711887605851
5000,67.16480478691305,61.05917648654029,59.77370376793674,58.48823104933317,58.61541447209572
7500,nan,nan,68.22142182867324,64.42787127245957,60.982040511230835
10000,nan,nan,nan,70.9264748384406,66.52204161129617
