,0.08333333333333333,0.16666666666666666,0.25,0.3333333333333333,0.5
3500,53.847843862613914,56.87374979233507,57.44674989409734,58.01974999585961,59.39054712430216
4000,56.078445472611534,56.18206395367161,56.53811252689303,56.89416110011445,58.3064242053825
4500,63.32466409222532,57.70871243922259,57.49799317356093,57.28727390789928,58.212004302760015
5000,67.09755305326678,60.3828138235224,59.17381195590795,57.9648100882935,58.241959121641784
7500,nan,nan,68.18425335541446,64.2984491144909,60.56801190645431
10000,nan,nan,nan,72.57941385843563,65.89817709008261
