,0.08333333333333333,0.16666666666666666,0.25,0.3333333333333333,0.5
3500,53.87667348830036,56.90337996164222,57.51752988149987,58.131679801357535,59.4499034210993
4000,55.941937831005774,56.09626339124643,56.5070207268971,56.917778062547775,58.32526583986774
4500,63.21724784977341,57.630983699875614,57.43357291096967,57.23616212206373,58.1385384722808
5000,66.99911893568073,60.316867458940045,59.11887290578754,57.92087835263504,58.16722368674039
7500,nan,nan,68.14230896053436,64.26698644921257,60.5482111013219
10000,nan,nan,nan,70.83494245074476,65.88152503473991
