,0.08333333333333333,0.16666666666666666,0.25,0.3333333333333333,0.5
3500,53.28861921833201,56.81682701382761,57.169195653641864,57.52156429345611,58.613931718248175
4000,55.06585542040338,55.11813352586488,55.66958518824836,56.22103685063183,57.73337483193478
4500,61.66155429083493,56.76163310897401,56.62053238151375,56.479431654053485,57.635304296077464
5000,64.7510470947358,59.02766101081859,58.144254320653694,57.26084763048879,57.629325701982744
7500,nan,nan,66.12231108073907,62.96778449541741,59.53255770212776
10000,nan,nan,nan,69.66927775632735,65.1320402646007
