,0.08333333333333333,0.16666666666666666,0.25,0.3333333333333333,0.5
3500,54.67299008047938,57.5899621337564,58.011551400451125,58.43314066714585,59.88246301252862
4000,58.0787654700779,57.09536052718891,57.28136331294553,57.46736609870216,58.88291602586673
4500,63.496511254230725,58.122001034405734,57.83382288608344,57.54564473776115,58.51789789822533
5000,67.22299655474389,61.10432401716798,59.81614664206876,58.52796926696953,58.6524094593707
7500,nan,nan,68.25255685635622,64.45562634791646,61.00754215939631
10000,nan,nan,nan,70.95172988432442,66.54327810809816
