,0.08333333333333333,0.16666666666666666,0.25,0.3333333333333333,0.5
3500,54.88212457688542,57.75667274377672,58.16881162362339,58.58095050347006,60.097110839978924
4000,58.09735239621111,57.01099798833146,57.272533782629665,57.53406957692788,58.92232682276632
4500,63.59376264819961,58.21198623075041,57.92517455317383,57.63836287559725,58.57445269906304
5000,67.31055954801593,61.15951306822494,59.81762115505046,58.47572924187598,58.64957192458493
7500,nan,nan,68.30913195483711,64.51104881524799,61.066413290045716
10000,nan,nan,nan,71.16270354082161,66.5933454148028
