,0.08333333333333333,0.16666666666666666,0.25,0.3333333333333333,0.5
3500,53.399893677568556,57.00694125887203,57.34444278361102,57.68194430835001,58.79260827953914
4000,55.61699782267212,55.44346141958262,55.903215604834855,56.36296979008709,57.829111930372775
4500,61.98630220128795,56.838963498739105,56.73453024428373,56.63009698982837,57.81129965057515
5000,65.2054200115932,59.404846390870695,58.51864108312268,57.63243577537465,57.962491681767084
7500,nan,nan,66.39056724376019,63.22254130244982,59.78969292276204
10000,nan,nan,nan,69.89864471895211,65.35004213463658
