,0.08333333333333333,0.16666666666666666,0.25,0.3333333333333333,0.5
3500,54.96101909031041,57.54547926391082,58.09136239131551,58.63724551872022,60.17587803076293
4000,57.51902297887913,56.85878607524575,57.17870984616296,57.498633617080166,59.06416715600694
4500,63.62272379918232,58.261024516368494,57.990038913680785,57.719053310993075,58.680656879599965
5000,67.47520175496437,61.80109427423293,60.242768003419485,58.68444173260603,58.74308840052802
7500,nan,nan,68.34728847593924,64.5583522119708,60.99859159576321
10000,nan,nan,nan,72.76036299887696,66.39848460324691
