,0.08333333333333333,0.16666666666666666,0.25,0.3333333333333333,0.5
3500,54.599971750865755,57.43696943602814,57.860473576136144,58.28397771624415,59.72753050204258
4000,57.45552819552921,56.49502113252399,56.87554466677429,57.256068201024576,58.6367908900436
4500,63.74208588859588,58.28463988136958,57.92343542292959,57.562230964489615,58.44712555897788
5000,67.58827951586214,61.857231742747786,60.313939945146075,58.770648147544364,58.76849868363283
7500,nan,nan,68.34975168137717,64.4751859444431,60.775987190215915
10000,nan,nan,nan,72.73821951290086,66.58407019640433
