,0.08333333333333333,0.16666666666666666,0.25,0.3333333333333333,0.5
3500,53.87817605021516,56.86634598455947,57.421836256226165,57.97732652789285,59.32504179288205
4000,56.094834302258185,56.17629110685928,56.518527810579556,56.86076451429984,58.290472860481074
4500,63.33768745597257,57.687077850311816,57.4215436399723,57.15600942963278,58.05669240306377
5000,67.1106099186841,60.35698824369138,59.08227727740607,57.807566311120745,58.11293837886771
7500,nan,nan,68.17570591977936,64.33682597244734,60.820080936282935
10000,nan,nan,nan,72.5659501307608,65.87479223426288
