,0.08333333333333333,0.16666666666666666,0.25,0.3333333333333333,0.5
3500,55.85570321939527,57.692664686611124,58.197234835457365,58.7018049843036,60.34347885831498
4000,57.2160051742151,56.795803094873165,57.27861544712091,57.76142779936866,59.50604323645938
4500,63.849872546742255,59.06928245187974,58.59388305634826,58.118483660816786,58.96309709191034
5000,67.04608280321189,61.01315112142839,59.80452439587386,58.595897670319324,58.895544606725934
7500,nan,nan,68.18454748438192,64.35504640815965,60.707451661982816
10000,nan,nan,nan,nan,66.76670246501848
