,0.08333333333333333,0.16666666666666666,0.25,0.3333333333333333,0.5
3500,54.70735069457534,57.57047001755505,57.99728708914147,58.42410416072791,59.697712032713966
4000,57.46793880921482,56.454762042792076,56.801808641366854,57.14885523994163,58.555433611243004
4500,63.751717196080534,58.25239557357219,57.86278483431856,57.47317409506492,58.272939686723724
5000,67.60017884046621,61.80789041394645,60.18442962615455,58.56096883836264,58.516336587917905
7500,nan,nan,68.31592302865833,64.4237105844647,60.695536311723465
10000,nan,nan,nan,72.69377823987483,66.00594778675305
