,0.08333333333333333,0.16666666666666666,0.25,0.3333333333333333,0.5
3500,53.67604636996779,56.59301348497733,57.22159780071338,57.850182116449446,59.2142794352214
4000,55.71621209716554,55.89725511346384,56.34351818179932,56.789781250134794,58.16200432506037
4500,63.04004363248052,57.48126064534797,57.322302265439305,57.163343885530644,58.01981172879708
5000,66.8397732035045,60.17541010384947,58.97231481901605,57.76921953418263,58.00261448351888
7500,nan,nan,68.03644339987963,64.21630971515141,60.714508848393
10000,nan,nan,nan,72.4543911533045,65.78570501086512
