,0.08333333333333333,0.16666666666666666,0.25,0.3333333333333333,0.5
3500,54.55508600685998,57.52573665612065,57.811733788387,58.09773092065334,59.51706131192275
4000,56.16675340942632,56.734442519375115,56.91300722981012,57.09157194024513,58.405301682854436
4500,63.05521692814059,57.46600920206693,57.22389588158197,56.981782561097006,58.0343023961679
5000,66.85309120709877,60.191032551195356,58.99087373984074,57.79071492848611,58.02932760076599
7500,nan,nan,68.04944782601054,64.23098247303518,60.601272589439375
10000,nan,nan,nan,72.46747761849355,65.80125151931738
