,0.08333333333333333,0.16666666666666666,0.25,0.3333333333333333,0.5
3500,53.44037934309415,56.98050490792693,57.375295662977834,57.77008641802875,58.85157605714485
4000,55.154811627621704,55.234623710748984,55.83444464810598,56.43426558546298,57.93891821782107
4500,61.54865467178408,56.488481640548635,56.44656271083163,56.40464378111462,57.693403220961756
5000,64.81083203223,59.0949786220467,58.22295548706763,57.35093235208855,57.78503807418092
7500,nan,nan,66.176696529058,63.028542465295196,59.607233129801706
10000,nan,nan,nan,69.72265343275676,65.19551164832292
