,0.08333333333333333,0.16666666666666666,0.25,0.3333333333333333,0.5
3500,53.35532306546439,56.4208583792503,57.00897600337969,57.597093627509096,59.012415950440605
4000,56.136268495400486,55.891278263878995,56.297486990662364,56.70369571744572,57.99630864465642
4500,62.665952944330755,56.99234364523741,57.05033053809785,57.10831743095828,58.08930562753518
5000,66.158254262931,60.02920405841856,58.82195498926291,57.61470592010726,57.88250868165013
7500,nan,nan,66.888888815155,63.664570522499325,60.32143853277285
10000,nan,nan,nan,70.30128882763223,65.68909567539781
