,0.08333333333333333,0.16666666666666666,0.25,0.3333333333333333,0.5
3500,55.21371352588399,57.51534819538648,58.030947023489105,58.54654585159173,60.216494951160755
4000,57.239798940346176,56.514320956417734,57.06271886282936,57.611116769240965,59.34341705133291
4500,62.79824231882028,58.735434304836886,58.335972657185906,57.93651100953493,58.83603817236036
5000,65.9897301087804,60.64561079839065,59.5117549614367,58.37789912448275,58.72407796303662
7500,nan,nan,67.9444276220892,64.29775705448687,60.6592242396507
10000,nan,nan,nan,nan,66.70397282195923
