,0.08333333333333333,0.16666666666666666,0.25,0.3333333333333333,0.5
3500,54.916804998255856,57.79259956159442,58.17584410882313,58.55908865605183,59.82197338460013
4000,57.50958204223701,56.99975448234223,57.16162750815383,57.323500533965415,58.626740207182976
4500,63.44833740332909,58.046911964510585,57.73687713204566,57.42684229958075,58.363586565405356
5000,66.66573608860824,61.01863143864058,59.655741809210184,58.292852179779786,58.42830255426908
7500,nan,nan,67.15353814098081,63.99414670854807,60.91433642932841
10000,nan,nan,nan,72.2615617185183,66.21490031236206
