,0.08333333333333333,0.16666666666666666,0.25,0.3333333333333333,0.5
3500,54.6897803747616,57.230943367736884,57.810459779891005,58.389976192045125,60.032908460978526
4000,56.02205913607022,56.30102698719386,56.83504465967469,57.369062332155536,59.11162277168716
4500,62.639763685154705,58.56701059853611,58.15195639203127,57.73690218552643,58.607742325012175
5000,65.84915544775899,60.522946004631834,59.42915893360613,58.33537186258044,58.612910798762
7500,nan,nan,67.83286331817062,64.17979587466942,60.52187823099823
10000,nan,nan,nan,nan,66.58628232734361
