,0.08333333333333333,0.16666666666666666,0.25,0.3333333333333333,0.5
3500,56.771515866307524,58.315515713441,58.61876545074486,58.92201518804871,60.422061805420945
4000,57.973607357382946,57.6324044253724,57.86379051855567,58.095176611738935,59.405454067591045
4500,64.27235194450573,59.4194473283423,58.88777960830104,58.356111888259775,59.18501419603087
5000,67.56719652386319,61.923021895151486,60.475648094089735,59.02827429302799,59.09444653784991
7500,nan,nan,68.4043168878507,64.55874463255363,60.90703674755352
10000,nan,nan,nan,nan,66.93675632144817
