,0.08333333333333333,0.16666666666666666,0.25,0.3333333333333333,0.5
3500,53.841672639599665,56.494784516975855,57.01086800472672,57.52695149247758,58.71341438760534
4000,55.189453470333895,55.61390070821884,56.04586835935403,56.47783601048923,57.842852762197595
4500,61.78801916685487,56.504170913636365,56.63800543146754,56.771839949298716,57.77680509485245
5000,65.19552086518837,59.3688895381792,58.464322986239154,57.55975643429912,57.8139218611728
7500,nan,nan,66.35473344604443,63.174207182868656,59.97955338311006
10000,nan,nan,nan,69.85719254009368,65.29064043930539
