,0.08333333333333333,0.16666666666666666,0.25,0.3333333333333333,0.5
3500,54.7571076907206,57.499153930072495,57.98532943748512,58.471504944897745,60.104239808877196
4000,56.48973016616604,56.29237543544079,56.877191383854424,57.462007332268065,59.23578282893301
4500,62.60295134688791,58.565607840508946,58.205342028843106,57.84507621717726,58.742055105022516
5000,65.81464401585555,60.508966537905806,59.42529671199954,58.341626886093266,58.67970613220449
7500,nan,nan,67.82832244518728,64.1832378421559,60.53683729873521
10000,nan,nan,nan,nan,66.59924386380865
