,0.08333333333333333,0.16666666666666666,0.25,0.3333333333333333,0.5
3500,54.96021107736523,57.664194940857975,58.189024819835716,58.71385469881347,60.228851791417355
4000,57.5179922503564,56.73915783853531,57.1244496782871,57.509741518038894,59.069452539224244
4500,63.70610671602601,58.30771156030618,57.98506003723347,57.66240851416076,58.64766989347274
5000,67.55143649567057,61.855612336490154,60.290383934549126,58.72515553260808,58.77487651015866
7500,nan,nan,68.38282129811218,64.58711074494639,61.020582663626044
10000,nan,nan,nan,72.7872781528299,66.41703888322002
