,0.08333333333333333,0.16666666666666666,0.25,0.3333333333333333,0.5
3500,53.85808500547162,56.9369960394982,57.40567869287005,57.87436134624191,59.047925943252366
4000,56.02544516925016,55.910754406196745,56.31409874247427,56.71744307875179,58.05490398871798
4500,62.40146490435463,57.39290195439888,57.19266809030374,56.9924342262086,57.89232214064143
5000,65.4149230376054,59.551769675946616,58.60552260045077,57.65927552495491,57.93729366428062
7500,nan,nan,66.50766149794363,63.330394120918086,60.0246493404184
10000,nan,nan,nan,69.99623491651157,65.4381314731641
