,0.08333333333333333,0.16666666666666666,0.25,0.3333333333333333,0.5
3500,55.99446992973001,57.794439455920376,58.31594276458468,58.837446073249,60.4331404155421
4000,57.297259281469266,56.856447298989174,57.32953920393715,57.80263110888514,59.53491839589567
4500,63.913119341226285,59.116948446436524,58.634563896562284,58.15217934668804,58.98752752976815
5000,67.10366184451783,61.053325638082626,59.83907964228744,58.624833646492235,58.916915513022744
7500,nan,nan,68.21045240668577,64.37553027192435,60.72217327548618
10000,nan,nan,nan,nan,66.7787997892255
