,0.08333333333333333,0.16666666666666666,0.25,0.3333333333333333,0.5
3500,54.53619013057805,57.40827414913486,57.845975230932765,58.28367631273067,59.78173571443227
4000,57.418185663271046,56.475725201329496,56.8661662575449,57.2566073137603,58.651069768791146
4500,63.71305688804647,58.2696716630828,57.916305482307365,57.562939301531934,58.50015729425472
5000,67.5611786801931,61.84442005834595,60.30786482590976,58.771309593473575,58.77938788566367
7500,nan,nan,68.34424901358389,64.47510005545747,60.783374203824806
10000,nan,nan,nan,72.73745901155108,66.5904760477538
