,0.08333333333333333,0.16666666666666666,0.25,0.3333333333333333,0.5
3500,54.91021984687892,57.31442485275633,57.90930979413241,58.504194735508506,60.16885555565875
4000,56.19745453868609,56.47057879434733,57.00771573282759,57.54485267130785,59.259712000487156
4500,62.776420689543514,58.70075009650869,58.29120618552472,57.88166227454075,58.76469683337845
5000,65.97132477431354,60.61626049243423,59.47340624790058,58.330552003366925,58.70612407075366
7500,nan,nan,67.91811128865979,64.26570882037475,60.61630106451608
10000,nan,nan,nan,nan,66.66711459744573
