,0.08333333333333333,0.16666666666666666,0.25,0.3333333333333333,0.5
3500,53.42156926939372,56.96604384672163,57.282415473134634,57.598787099547636,58.681426563099976
4000,55.47896363149242,55.31899359525697,55.808430368904816,56.29786714255267,57.76029424375895
4500,61.87986737822894,56.73142199383286,56.61904703969343,56.506672085553994,57.71304092518353
5000,65.1109728514634,59.3139205953965,58.41997488440978,57.526029173423055,57.84099527732838
7500,nan,nan,66.32124581216723,63.15024227122602,59.70724651553345
10000,nan,nan,nan,69.83447936945555,65.28001459161788
