,0.08333333333333333,0.16666666666666666,0.25,0.3333333333333333,0.5
3500,54.7234609519855,57.25304486713086,57.828698669571,58.40435247201114,60.0788538708924
4000,56.04174140451565,56.31615302300865,56.848006431113134,57.37985983921761,59.119657072868385
4500,62.65508810236852,58.594180654413194,58.22050160108384,57.84682254775447,58.72390626995499
5000,65.86311227189543,60.532965000349805,59.43796108577497,58.34295717120015,58.663629620822114
7500,nan,nan,67.83946033299503,64.18515529894223,60.525971863566575
10000,nan,nan,nan,nan,66.58976123531193
