,0.08333333333333333,0.16666666666666666,0.25,0.3333333333333333,0.5
3500,56.62852680064976,58.31556076708298,58.524929854795595,58.73429894250821,60.11293954487215
4000,57.74188270570848,57.514452634884364,57.696926944691924,57.87940125449947,59.1683146534859
4500,64.00879606208167,59.1592427928737,58.614205388648074,58.069167984422464,58.87001132284501
5000,67.33197694209504,61.70187221793735,60.241141336667624,58.780410455397885,58.863508303365165
7500,nan,nan,68.2373567827729,64.38858790290551,60.71727719368962
10000,nan,nan,nan,nan,66.77432730125548
