,0.08333333333333333,0.16666666666666666,0.25,0.3333333333333333,0.5
3500,54.66459889545828,57.63893866798466,58.0534057272849,58.46787278658513,59.9429526993802
4000,57.60478064047899,56.63439662240789,57.01551266317216,57.396628703936436,58.781880641253025
4500,63.85815995285233,58.3941399153136,58.036009627308175,57.677879339302756,58.57053547421598
5000,67.69276913389128,61.95122287389804,60.41106082464134,58.87089877538463,58.87717830430154
7500,nan,nan,68.41934849875938,64.54427172549073,60.850537608913015
10000,nan,nan,nan,72.8009171963873,66.64768303016936
