,0.08333333333333333,0.16666666666666666,0.25,0.3333333333333333,0.5
3500,55.892691116843906,57.7251472290172,58.25688444274263,58.78862165646807,60.395391192780124
4000,57.237436659903935,56.80890851427545,57.28729199866447,57.765675483053485,59.50428858059084
4500,63.866547468467644,59.07954133029703,58.60070619508241,58.121871059867786,58.96154494327061
5000,67.06145310389175,61.021780460887015,59.81027653812474,58.59877261536245,58.89414211620311
7500,nan,nan,68.18920393625726,64.35727581007315,60.706529172386105
10000,nan,nan,nan,nan,66.76586400796977
