,0.08333333333333333,0.16666666666666666,0.25,0.3333333333333333,0.5
3500,53.87443843657125,56.88627078180907,57.453618673524346,58.02096656523963,59.384788574925366
4000,56.09376848477193,56.19048441205442,56.54263495509338,56.89478549813233,58.30165979592756
4500,63.5236529019904,58.061888990084505,57.71492322346525,57.36795745684599,58.16721946748683
5000,67.25417387309871,61.00958311183503,59.559291770974994,58.109000430114946,58.238325477550816
7500,nan,nan,68.1868284246199,64.29889403063666,60.565553291894005
10000,nan,nan,nan,72.58008580940637,65.89605822127098
