,0.08333333333333333,0.16666666666666666,0.25,0.3333333333333333,0.5
3500,53.042990700691476,56.64941998641927,57.188053297890065,57.72668660936087,58.87920960842341
4000,55.26614098514718,55.29868614152567,55.84580525033035,56.39292435913504,57.829122090466456
4500,61.63439204967558,56.581523375255415,56.61231582282386,56.643108270392304,57.686343237412345
5000,64.88912124204921,59.1455310153285,58.26342940120392,57.38132778707933,57.664508321911256
7500,nan,nan,66.20730858270042,63.05016860754638,59.61815148298803
10000,nan,nan,nan,69.74320159828324,65.20462959021272
