,0.08333333333333333,0.16666666666666666,0.25,0.3333333333333333,0.5
3500,54.992475546529086,57.85352881622182,58.319478622628694,58.78542842903557,60.15825369038228
4000,57.762802893851415,57.24505951239812,57.38550022957793,57.525940946757736,58.961464747438804
4500,63.64451093218879,58.24965800762266,57.957120591439605,57.664583175256546,58.59295571137405
5000,67.3569889156693,61.191608993770025,59.84497250096355,58.49833600815707,58.66577265389834
7500,nan,nan,68.32976914556299,64.52712410554923,61.077646921948755
10000,nan,nan,nan,nan,66.60281004162653
