,0.08333333333333333,0.16666666666666666,0.25,0.3333333333333333,0.5
3500,53.75274060066766,56.768493995271015,57.3815195213941,57.994545047517185,59.34508520550668
4000,55.822883569010266,56.09291003331457,56.43265549770819,56.77240096210181,58.21181206668178
4500,63.03871200870702,57.47155090632974,57.27519563595922,57.0788403655887,58.05992834697286
5000,66.83791649729481,60.20303884015149,59.06042775061903,57.917816661086555,58.20747052201047
7500,nan,nan,68.04363829150503,64.2270633331499,60.73115189006061
10000,nan,nan,nan,72.46368726530197,65.79987346443014
