,0.08333333333333333,0.16666666666666666,0.25,0.3333333333333333,0.5
3500,53.68441383000841,56.60462462498693,57.235343137556875,57.86606165012682,59.23331134899502
4000,55.72139172026152,55.905322907845644,56.35367732315119,56.80203173845674,58.17747363530428
4500,63.04408623068789,57.48760534546001,57.330531810389616,57.17345827531923,58.03297275787247
5000,66.84320692920937,60.18080876500109,58.97937609033001,57.77794341565891,58.014175397530906
7500,nan,nan,68.04129620452353,64.22222380058155,60.72242306822885
10000,nan,nan,nan,72.45961690098626,65.79243346824585
