,0.08333333333333333,0.16666666666666666,0.25,0.3333333333333333,0.5
3500,54.74394544173035,57.5596352853649,58.01965362340263,58.47967196144036,59.90448895752081
4000,57.3857319696738,56.45892592221321,56.85796640946644,57.257006896719666,58.73847954427557
4500,63.687830329987904,58.25664042797848,57.910069189950924,57.56349795192338,58.51074748419106
5000,67.53762978370531,61.83326646417359,60.30255077590279,58.77183508763198,58.78877637765924
7500,nan,nan,68.33944468651255,64.52936714503795,61.06982342752322
10000,nan,nan,nan,72.7367696473077,66.59599965129549
