,0.08333333333333333,0.16666666666666666,0.25,0.3333333333333333,0.5
3500,53.37497892733798,56.920613841663,57.38579755176643,57.85098126186987,58.98480652771762
4000,55.71267813128789,55.778797712928515,56.17476915512125,56.57074059731398,57.94589756899086
4500,62.07896244635381,57.1607472052664,57.065053690288806,56.96936017531121,57.86465681303734
5000,65.12409020805372,59.34965443381673,58.472127355648965,57.594600277481184,57.891206097599635
7500,nan,nan,66.35584676705919,63.195911347327645,59.90297380752655
10000,nan,nan,nan,69.8737465982113,65.33524915494446
