,0.08333333333333333,0.16666666666666666,0.25,0.3333333333333333,0.5
3500,53.67109385869482,56.837158361030454,57.41298879333945,57.98881922564844,59.327503896804146
4000,55.773512731898265,55.94823262052459,56.365655929382704,56.7830792382408,58.271231143495214
4500,63.08494010114115,57.51542502776512,57.32060320176464,57.12578137576416,58.069749311839956
5000,66.87944953784964,60.24031540905135,59.099316311927545,57.958317214803735,58.20576298722328
7500,nan,nan,68.07166543013307,64.25502345387119,60.76155175556706
10000,nan,nan,nan,72.48903192155996,65.82563619891026
