,0.08333333333333333,0.16666666666666666,0.25,0.3333333333333333,0.5
3500,55.6642616654833,58.141509020358086,58.47454597566225,58.807582930966426,60.19577377598466
4000,57.42902986519488,57.68654444479043,57.795414843617664,57.90428524244489,59.17942229160404
4500,64.17675349430654,59.29980404679434,58.71426760187736,58.12873115696038,58.97263403531662
5000,67.48255745499354,61.814076014248386,60.301512918964285,58.78894982368019,58.88011641257356
7500,nan,nan,68.33568595108184,64.48536541044223,60.820554838421806
10000,nan,nan,nan,nan,66.86265697614004
