,0.08333333333333333,0.16666666666666666,0.25,0.3333333333333333,0.5
3500,54.10128943757377,57.240885194500216,57.73060615677656,58.2203271190529,59.49522227244762
4000,56.63841775517078,56.32304873392577,56.650803897984545,56.97855906204332,58.331917780845984
4500,63.432819101444046,57.997325332102776,57.66260306654847,57.32788080099417,58.184791740235895
5000,67.31089697939555,61.574688810022984,59.96024633082742,58.34580385163186,58.30673909629792
7500,nan,nan,68.15266631009384,64.27414185356017,60.55158389460295
10000,nan,nan,nan,72.55646284464379,65.88434026471846
