,0.08333333333333333,0.16666666666666666,0.25,0.3333333333333333,0.5
3500,55.714943050200716,58.13950090534705,58.42169596697576,58.70389102860446,60.171009726715226
4000,57.457731798038225,57.69367729210897,57.78972323321469,57.885769174320416,59.18023545428555
4500,64.19925664544414,59.305171443924735,58.70915845807854,58.113145472232354,58.90057726923041
5000,67.50401154106386,61.84005170684331,60.37370001576481,58.907348324686296,58.94046924796643
7500,nan,nan,68.33390995916005,64.4767200571194,60.801652883539354
10000,nan,nan,nan,nan,66.84634320146937
