,0.08333333333333333,0.16666666666666666,0.25,0.3333333333333333,0.5
3500,53.851643881874736,56.81773767859442,57.39541123931508,57.97308480003575,59.27769780437832
4000,55.62029036894084,55.83789526870625,56.30424684970687,56.770598430707494,58.24512898459272
4500,62.964550878010684,57.45206246408824,57.35160236101922,57.2511422579502,58.13639479332816
5000,66.76991922522186,60.13647333738411,58.946381377802965,57.756289418221805,58.05518034496204
7500,nan,nan,68.01529273784601,64.20619267855443,60.71867331790067
10000,nan,nan,nan,70.73064251071425,65.78950114130053
