,0.08333333333333333,0.16666666666666666,0.25,0.3333333333333333,0.5
3500,54.81290503671046,57.706208237131655,58.12386409671787,58.54151995630409,60.063260931511394
4000,58.055790767618575,56.976225292421255,57.24016341752034,57.50410154261944,58.89485879735409
4500,63.561727697568564,58.18485399821036,57.89933259710671,57.61381119600307,58.55113012409731
5000,67.28151675681865,61.13638244356063,59.7954561229012,58.45452980224176,58.62908886715414
7500,nan,nan,68.2928964044263,64.49626304515597,61.05228610273259
10000,nan,nan,nan,71.14917844178042,66.58135467092873
