,0.08333333333333333,0.16666666666666666,0.25,0.3333333333333333,0.5
3500,54.65172800646616,57.47462305662529,57.905860215177775,58.33709737373026,59.793076945832766
4000,57.22142152046524,56.20723993053016,56.68516885026515,57.163097770000135,58.69179383921755
4500,63.64486308707593,58.18399039025527,57.750487308503,57.31698422675073,58.250836400845955
5000,67.49881938228536,61.756758629991054,60.114868765207916,58.47297890042478,58.43815098580227
7500,nan,nan,68.3153474839466,64.5061822309937,60.91390677607741
10000,nan,nan,nan,72.71564661431721,66.3260841738437
