,0.08333333333333333,0.16666666666666666,0.25,0.3333333333333333,0.5
3500,53.42055230247534,57.011790850153226,57.387237047983305,57.762683245813385,58.8899905097265
4000,55.43891231011442,55.456695669271596,55.97471056236874,56.49272545546589,57.971501998366946
4500,61.94912813934848,57.03537378890347,56.903356637045285,56.7713394851871,57.86813750673262
5000,65.00718084281641,59.258093848337545,58.38493215738028,57.511770466423,57.858132124062095
7500,nan,nan,66.29273760439798,63.13880079603704,59.849402735257044
10000,nan,nan,nan,69.82191377907253,65.28993302472323
