,0.08333333333333333,0.16666666666666666,0.25,0.3333333333333333,0.5
3500,54.870161563379924,57.48625866295266,57.95664810662784,58.42703755030301,59.86526118052919
4000,57.473520875375286,57.043054174264064,57.308728824814466,57.57440347536487,58.94068615432099
4500,63.42033165585892,58.05937213382073,57.77557619355676,57.49178025329279,58.55035175263316
5000,67.15378932951899,61.05094433440948,59.7661897014228,58.48143506843613,58.60947582183731
7500,nan,nan,68.21585489310766,64.4231037345744,60.977943078153594
10000,nan,nan,nan,70.92210945156067,66.51856930062388
