,0.08333333333333333,0.16666666666666666,0.25,0.3333333333333333,0.5
3500,54.906170652747754,57.786352196483975,58.22988481322388,58.67341742996379,60.160068899378516
4000,58.111748971892254,57.02236082095362,57.28262689464823,57.542892968342834,58.92963790205417
4500,63.60485876655098,58.220843215098554,57.93320952383685,57.64557583257516,58.58065207771513
5000,67.32066218833434,61.16706181960091,59.82450792437443,58.48195402914794,58.65501157519353
7500,nan,nan,68.31423787047873,64.5154218132855,61.070171244807504
10000,nan,nan,nan,71.16675514025083,66.59652793495054
