,0.08333333333333333,0.16666666666666666,0.25,0.3333333333333333,0.5
3500,55.79573742905926,58.023050062597385,58.388508653278826,58.75396724396027,60.25330568342939
4000,57.8704872649371,57.51933435470923,57.71284573574958,57.90635711678995,59.202777527167164
4500,64.19207550585028,59.32465444873186,58.746592198416444,58.16852994810103,59.02458962624712
5000,67.49544193383822,61.83523874515768,60.329304948513304,58.82337115186892,58.92584228489741
7500,nan,nan,68.35464970091927,64.50863822430388,60.85185389142733
10000,nan,nan,nan,nan,66.8895265804977
