,0.08333333333333333,0.16666666666666666,0.25,0.3333333333333333,0.5
3500,53.410969227869245,56.94292731654653,57.40343800951197,57.86394870247743,58.992438745574844
4000,55.733266557962445,55.79385872886399,56.187103632651315,56.58034853643865,57.95199743263289
4500,62.094850695856145,57.17238505627888,57.074763415498026,56.97714177471716,57.91011169198495
5000,65.1385397998961,59.35943429415174,58.480347858163206,57.601261422174666,57.895681491398406
7500,nan,nan,66.36198697440003,63.20060199130371,59.906039628556734
10000,nan,nan,nan,69.87813550690066,65.33782548364798
