,0.08333333333333333,0.16666666666666666,0.25,0.3333333333333333,0.5
3500,56.310165497049596,57.99395048218378,58.36714301597607,58.740335549768346,60.24985376344824
4000,57.806870128681425,57.61348349437135,57.82050705924995,58.027530624128545,59.27930153217625
4500,64.05934835059877,59.23752741055611,58.71462972636881,58.191732042181506,59.02864941860062
5000,67.37478160717076,61.7685230084712,60.327475311893075,58.88642761531494,59.00315913995388
7500,nan,nan,68.29635322270939,64.46021781583472,60.81274677620009
10000,nan,nan,nan,nan,66.85626690062782
