,0.08333333333333333,0.16666666666666666,0.25,0.3333333333333333,0.5
3500,53.71723020395014,56.82521476536074,57.30002317375113,57.77483158214152,58.95272279690573
4000,55.94321275705481,55.834489479711294,56.238221283093765,56.641953086476235,57.9779453504351
4500,62.33790360911521,57.33342857222776,57.132025943670484,56.9306233151132,57.8271034773893
5000,65.35822005465445,59.50162765969362,58.55387161890876,57.60611557812389,57.88013038505255
7500,nan,nan,66.47098907230318,63.29405251471694,59.98570017046917
10000,nan,nan,nan,69.96372587846555,65.40511509450297
