,0.08333333333333333,0.16666666666666666,0.25,0.3333333333333333,0.5
3500,54.72373215286704,57.52680195267499,57.97924905582344,58.43169615897189,59.845619142626994
4000,56.734542777236626,56.2336674387121,56.70332099405355,57.17297454939501,58.69046344594794
4500,63.677791047662055,58.20461981024683,57.76475383225774,57.324887854268646,58.24958982327287
5000,67.52927376209259,61.774433010036944,60.12710958726345,58.47978616448996,58.39066847852806
7500,nan,nan,68.32508647859997,64.51133383361736,61.04507081496405
10000,nan,nan,nan,72.72089396282516,66.3253871056043
