,0.08333333333333333,0.16666666666666666,0.25,0.3333333333333333,0.5
3500,53.82257042863152,56.79669640006645,57.37286065029052,57.94902490051459,59.42742543212811
4000,55.940092402669414,55.76831674293511,56.39605936161318,57.02380198029127,58.480325735936454
4500,61.62805912480334,57.498264840069254,57.42765396265251,57.35704308523577,58.25230568680506
5000,65.05111973754254,60.481321818979424,59.22161504659859,57.96190827421776,58.203300436898346
7500,nan,nan,67.23158866458006,63.99636168610134,60.665940592567594
10000,nan,nan,nan,70.48547879075225,65.98131427535837
