,0.08333333333333333,0.16666666666666666,0.25,0.3333333333333333,0.5
3500,54.51880449855774,57.57320087573419,58.00403467446293,58.43486847319167,59.713802886462744
4000,56.934724543689086,56.45680193201471,56.8070609025523,57.15731987308989,58.56857501870461
4500,63.749266559360535,58.254057530023104,57.86713835716911,57.480219184315125,58.284150837733876
5000,67.59766240168412,61.787691226754546,60.11095640165762,58.434221576560674,58.391377849030405
7500,nan,nan,68.31826153234324,64.42775263516542,60.702293142350335
10000,nan,nan,nan,72.69722779140413,66.01170730104478
