,0.08333333333333333,0.16666666666666666,0.25,0.3333333333333333,0.5
3500,53.37864344646336,56.97636595494615,57.30794795947281,57.63952996399948,58.70449273953254
4000,55.60392860294353,55.422382138310056,55.876384262774096,56.330386387238136,57.787707363227945
4500,61.976239113683164,56.82248326587159,56.712887865939095,56.60329246600659,57.73585862244314
5000,65.19701726270765,59.390878331358294,58.500081169289984,57.60928400722165,57.93160545488495
7500,nan,nan,66.37804403211877,63.20704184611793,59.768765335842374
10000,nan,nan,nan,69.88520973886456,65.33222964430414
