,0.08333333333333333,0.16666666666666666,0.25,0.3333333333333333,0.5
3500,53.74178866375032,56.513599088507085,57.013547266576424,57.513495444645784,58.7174449644082
4000,55.28185874476348,54.92564461874949,55.58455679113427,56.243468963519064,57.81739501293727
4500,61.70751124493481,56.428695307904086,56.560381805096696,56.69206830228931,57.732275367390635
5000,65.12347622999741,59.283821709182845,58.32270613542822,57.361590561673594,57.6531814784546
7500,nan,nan,66.3076773824857,63.12736254038278,59.92897792102037
10000,nan,nan,nan,69.81532624359595,65.24783259829422
