,0.08333333333333333,0.16666666666666666,0.25,0.3333333333333333,0.5
3500,54.74310840033288,57.55752331580783,57.989704777066606,58.421886238325385,59.88171329014334
4000,57.385771232187466,56.46678825361366,56.87088349938033,57.274978745147,58.80144495270284
4500,63.68786397917475,58.26291002124955,57.92066258367566,57.57841514610176,58.53245565456956
5000,67.53717241797708,61.83866520970755,60.31172707150837,58.78478893330919,58.854028100672835
7500,nan,nan,68.3454421021886,64.48364631039325,60.802837741957674
10000,nan,nan,nan,72.74428022773225,66.60722447490252
