,0.08333333333333333,0.16666666666666666,0.25,0.3333333333333333,0.5
3500,54.681701902563105,57.70974143070295,58.14516989608842,58.580598361473875,59.94459557615898
4000,58.03532802897687,57.05636991491999,57.24322471287687,57.43007951083375,58.77075555374983
4500,63.46305950126598,58.09159522841244,57.80332609474728,57.515056961082124,58.48633324063104
5000,67.19283581333511,61.078394428280006,59.789957920405996,58.50152141253197,58.624659778359394
7500,nan,nan,68.23362482380128,64.43732470442168,60.988446356628195
10000,nan,nan,nan,70.93529785876666,66.52704420554461
