,0.08333333333333333,0.16666666666666666,0.25,0.3333333333333333,0.5
3500,54.861288866111025,57.55499296577293,57.97959151975478,58.40419007373663,59.88719861558549
4000,57.38202209929263,56.59467712029848,57.02401459997974,57.453352079661016,58.79339309299645
4500,64.27158336203205,58.67576592860054,58.22170947645064,57.76765302430073,58.58233103942338
5000,68.07213566491748,62.18571595593087,60.54581008006413,58.905904204197384,58.803081897006
7500,nan,nan,68.57972311051557,64.66387739470913,60.924523368109114
10000,nan,nan,nan,72.9144914294646,66.19992503112036
