,0.08333333333333333,0.16666666666666666,0.25,0.3333333333333333,0.5
3500,53.836254772345,56.85992740881237,57.43112453155424,58.002321654296104,59.37032738137093
4000,56.07134886796533,56.17246264078993,56.5265974055106,56.88073217023128,58.28998315022774
4500,63.31910992105895,57.68431895318657,57.42852640320375,57.17273385322093,58.088277323597524
5000,67.09274168049863,60.376391706531074,59.1658158502878,57.95523999404452,58.229655869368756
7500,nan,nan,68.17870087653927,64.29193613723106,60.55958765779553
10000,nan,nan,nan,72.57363144280978,65.89101150340588
