,0.08333333333333333,0.16666666666666666,0.25,0.3333333333333333,0.5
3500,54.8296010955142,57.57681469752164,58.01868770066779,58.46056070381393,59.90037850904235
4000,57.6041707864108,56.975129056778584,57.17770961843216,57.38029018008574,58.76411687159559
4500,63.60503465013842,58.17763318245639,57.82824770276987,57.478862223083354,58.41958675738716
5000,67.32291524395313,61.14449926478962,59.78590081019853,58.42730235560742,58.574048081497395
7500,nan,nan,68.28896235628542,64.47883799780367,61.01463240219117
10000,nan,nan,nan,72.6909917485371,66.29962707095923
