,0.08333333333333333,0.16666666666666666,0.25,0.3333333333333333,0.5
3500,53.57391898598206,56.88299560013532,57.38042165081973,57.87784770150414,59.08777470942228
4000,55.922234286258735,55.97468224952441,56.370450679327085,56.76621910912976,58.108950246518724
4500,62.24065104424939,57.296347122174254,57.1620387551703,57.02773038816636,57.92634477295463
5000,65.26829556075714,59.456654556885994,58.529510980669976,57.60236740445395,57.95348077183324
7500,nan,nan,66.45014921801496,63.28983329642858,60.00429591837663
10000,nan,nan,nan,69.95769472725212,65.42113823628208
