,0.08333333333333333,0.16666666666666666,0.25,0.3333333333333333,0.5
3500,53.754938193655455,56.77000501198283,57.38280907471267,57.995613137442504,59.34591289870518
4000,55.715890536946745,55.893119142262755,56.30990892694009,56.72669871161743,58.24994950647078
4500,63.03971889257633,57.472353583111996,57.27592511544019,57.079496647768394,58.06049378818537
5000,66.83883319765013,60.182145332806144,58.98401994374591,57.78589455468567,58.07352397289273
7500,nan,nan,68.04410212919555,64.2274604929734,60.73149273951525
10000,nan,nan,nan,72.4640556019625,65.80016143347979
