,0.08333333333333333,0.16666666666666666,0.25,0.3333333333333333,0.5
3500,54.77057229771715,57.75429530332356,58.11807125804113,58.48184721275871,59.89662819763531
4000,58.08892448249919,57.10535697475959,57.29172321497964,57.47808945519971,58.81941935781222
4500,63.5043365701642,58.1298091107955,57.84213458881742,57.55446006683935,58.52769840079594
5000,67.22999713439943,61.110985772784275,59.82329082443874,58.53559587609321,58.66103059012785
7500,nan,nan,68.25765163230926,64.46087030178195,61.01346937416925
10000,nan,nan,nan,70.95639409880383,66.54832421791525
