,0.08333333333333333,0.16666666666666666,0.25,0.3333333333333333,0.5
3500,55.60380747924833,58.141699361262646,58.545116608379374,58.948533855496095,60.32152542549778
4000,58.07794286255873,57.781192333810246,57.878671852691866,57.97615137157349,59.237615475960936
4500,64.27012771950098,59.37401377180692,58.78080694156233,58.18760011131775,58.90000501085363
5000,67.56735835320669,61.87707093250224,60.35837720850846,58.83968348451465,58.92344651165898
7500,nan,nan,68.3777523303348,64.52094906375312,60.85036419583452
10000,nan,nan,nan,nan,66.64787905158974
