,0.08333333333333333,0.16666666666666666,0.25,0.3333333333333333,0.5
3500,54.27889093625514,56.358162516836344,56.91624095170485,57.47431938657337,58.78415118127316
4000,55.38077036508856,55.04127157152905,55.71553617115529,56.389800770781534,57.91403199906554
4500,61.78372034517503,56.50217464765551,56.60643239162941,56.71069013560331,57.76954333495148
5000,65.19014403533714,59.381298147148186,58.487969883261655,57.59464161937511,57.86706552011164
7500,nan,nan,66.36979560257733,63.19720997595318,60.01562832434693
10000,nan,nan,nan,69.8766457872976,65.32129524769358
