,0.08333333333333333,0.16666666666666666,0.25,0.3333333333333333,0.5
3500,55.43858065768728,58.07621101943314,58.345864041847136,58.61551706426114,60.025113557085916
4000,57.71152145145723,57.86068539762819,57.88328035143195,57.90587530523572,59.06826041725922
4500,64.3979289633391,59.43006305477252,58.763318557314044,58.09657405985557,58.880721869486116
5000,67.54526197799423,61.33836074971655,60.02468337761741,58.71100600551824,58.84918663638258
7500,nan,nan,68.40803365359417,64.53019139329261,60.831381127144084
10000,nan,nan,nan,nan,66.87135658707587
