,0.08333333333333333,0.16666666666666666,0.25,0.3333333333333333,0.5
3500,55.20895384533513,57.96983997717323,58.38184514462684,58.793850312080444,60.1725864835697
4000,57.9496561079002,57.66179428436279,57.759718815231885,57.85764334610098,59.11639953456952
4500,64.17033895019298,59.26331567139105,58.62501894399706,57.986722216603084,58.727897499240065
5000,67.33761870192237,61.19774407192168,59.907183738006744,58.6166234040918,58.83274725575187
7500,nan,nan,68.31893577531582,64.5172559286825,61.06821500553126
10000,nan,nan,nan,nan,66.59480428335343
