,0.08333333333333333,0.16666666666666666,0.25,0.3333333333333333,0.5
3500,55.81315711883847,58.02516545309872,58.383917760186854,58.742670067274986,60.2333632017515
4000,57.45841034131094,57.719178876403845,57.83124598514539,57.94331309388694,59.22394326543282
4500,64.1997330455477,59.32552275062706,58.743236153033315,58.16094955543958,58.96993788447355
5000,67.5028204790712,61.83594751315071,60.32636751051578,58.81678750788083,58.91350697870348
7500,nan,nan,68.35313334744602,64.50437822078857,60.84342591666602
10000,nan,nan,nan,nan,66.88225875930767
