,0.08333333333333333,0.16666666666666666,0.25,0.3333333333333333,0.5
3500,53.65053865459766,56.790377428471054,57.412524527941855,58.03467162741265,59.43002779047481
4000,55.944610091948846,55.74501414990657,56.354736770332536,56.964459390758506,58.469506767928344
4500,61.633349876428895,57.47952175441783,57.39363253278077,57.3077433111437,58.21987370222049
5000,65.05759680231436,60.465390421788044,59.192367397859385,57.91934437393071,58.13892613916015
7500,nan,nan,67.21266496026287,63.96792554767206,60.6218569607371
10000,nan,nan,nan,70.59209688009999,65.94374452782556
