,0.08333333333333333,0.16666666666666666,0.25,0.3333333333333333,0.5
3500,55.698117332451616,58.190699915359815,58.51085338050227,58.83100684564474,60.23866844001659
4000,57.759888096923305,57.91789950841295,57.92084398844746,57.92378846848196,59.1408008320095
4500,64.43575173752487,59.48647639676477,58.83477384080963,58.18307128485449,58.991937978778274
5000,67.5774187843272,61.38616657112771,60.08599040892696,58.7858142467262,58.94709762665165
7500,nan,nan,68.45018822713573,64.58090338007588,60.89843635507693
10000,nan,nan,nan,nan,66.92891071626809
