,0.08333333333333333,0.16666666666666666,0.25,0.3333333333333333,0.5
3500,56.17755334582027,58.02739838694866,58.39632488844104,58.765251389933425,60.27028518451047
4000,57.728031434706324,57.42406801672901,57.66908251923155,57.91409702173411,59.238212926023095
4500,64.08124163508906,59.25565511991326,58.731461850191344,58.20726858046944,59.04274423805045
5000,67.39460371414323,61.78391321298272,60.34187049153742,58.89982777009213,59.01553535408416
7500,nan,nan,68.3069033746843,64.4695556960185,60.82124442912527
10000,nan,nan,nan,nan,66.8635129239216
