,0.08333333333333333,0.16666666666666666,0.25,0.3333333333333333,0.5
3500,54.750486147052285,57.550978033214925,57.976514367297085,58.402050701379245,59.85302291973518
4000,57.38962605960345,56.462010769691936,56.8607100644614,57.259409359230865,58.77799439352535
4500,63.690857566574905,58.25905657776171,57.912260690180126,57.56546480259855,58.51243842715772
5000,67.54038905282712,61.83533889125395,60.304438544499476,58.773538197745,58.83636301988173
7500,nan,nan,68.34083795940171,64.47618524438023,60.79076532147043
10000,nan,nan,nan,72.73787617111762,66.596868148744
