,0.08333333333333333,0.16666666666666666,0.25,0.3333333333333333,0.5
3500,55.39670764365478,57.99760505168869,58.42087677017905,58.84414848866942,60.27533186706236
4000,57.95452061368495,57.681540398459326,57.78922135891912,57.89690231937892,59.1701949255963
4500,64.17413387682957,59.29584753563835,58.70923437232418,58.12262120901002,58.883453636796716
5000,67.48033085963569,61.81070749935204,60.29718694066503,58.78366638197802,58.87318719355325
7500,nan,nan,68.3327219979266,64.53617236676416,61.09594018084091
10000,nan,nan,nan,nan,66.85858684159771
