,0.08333333333333333,0.16666666666666666,0.25,0.3333333333333333,0.5
3500,55.118945407372635,57.52219862287793,57.98423459865465,58.446270574431374,60.08021306506066
4000,57.13774471059578,56.41528839380555,56.960937702957466,57.506587012109385,59.26891598006499
4500,62.71960409829849,58.65728486871393,58.25383367371605,57.85038247871817,58.7416037675012
5000,65.9195237156932,60.57963163604424,59.44166751107336,58.303703386102484,58.64111520350482
7500,nan,nan,67.89422336134945,64.24666494258749,60.60238204031134
10000,nan,nan,nan,nan,66.65529609460599
