,0.08333333333333333,0.16666666666666666,0.25,0.3333333333333333,0.5
3500,56.529057299793465,58.31213955432536,58.5812390623905,58.85033857045565,60.27112637452949
4000,57.73195871618087,57.403798175924294,57.63342009252974,57.863042009135185,59.164565904323425
4500,64.08426870655438,59.239415395928596,58.70211331632578,58.16481123672297,58.979820570528204
5000,67.39886909926835,61.77002609614529,60.31653507834963,58.86304406055397,58.960104031331774
7500,nan,nan,68.29053113477067,64.44507246622345,60.78337745945086
10000,nan,nan,nan,nan,66.83094712757975
