,0.08333333333333333,0.16666666666666666,0.25,0.3333333333333333,0.5
3500,54.23135642516439,57.331340218904536,57.68008514724845,58.02883007559237,59.48820317816015
4000,56.1304694951051,56.703792924814785,56.88473011159646,57.065667298378145,58.38195919149072
4500,63.02679205439173,57.44225918422742,57.201456440191606,56.960653696155795,58.0145340304571
5000,66.82729863437054,60.17087002352677,58.971691044577014,57.77251206562727,58.05807221536958
7500,nan,nan,68.03530690877,64.21825896725761,60.72089932787483
10000,nan,nan,nan,72.45576808212901,65.79117207022834
