,0.08333333333333333,0.16666666666666666,0.25,0.3333333333333333,0.5
3500,53.36925438534304,56.9728192309273,57.26323134222024,57.553643453513175,58.6049773414467
4000,55.10641411387982,55.02219459172537,55.59827269375749,56.17435079578961,57.70486475576169
4500,61.59274337341363,56.513100715352124,56.491438770020224,56.469776824688324,57.69082766238431
5000,64.85299509983513,59.10162740513362,58.21050238581191,57.31937736649019,57.67781949711417
7500,nan,nan,66.1709552861557,63.008475630890636,59.565562335939475
10000,nan,nan,nan,69.70670606647182,65.15991544284384
