,0.08333333333333333,0.16666666666666666,0.25,0.3333333333333333,0.5
3500,54.99734197883824,57.46092302860671,57.963894765685176,58.46686650276365,60.1185205977399
4000,56.204490192923174,56.47622691627861,57.01274625429069,57.549265592302774,59.263370013825494
4500,62.78190170547907,58.705194746554916,58.29523699022989,57.88527923390486,58.76779900937463
5000,65.97630119921062,60.62000790978305,59.476834147142185,58.333660384501314,58.66405917589931
7500,nan,nan,67.92065568784545,64.26789216279383,60.618169755770595
10000,nan,nan,nan,nan,66.66870705924691
