,0.08333333333333333,0.16666666666666666,0.25,0.3333333333333333,0.5
3500,54.66946781636793,57.49880214981626,57.92238482142322,58.34596749303019,59.75465636526387
4000,57.49763684855476,56.53778155316144,56.92069339115705,57.303605229152666,58.65133327155073
4500,63.7748311257801,58.318270879905015,57.95983325491025,57.60139562991548,58.49146256431283
5000,67.61754160086554,61.886105500421934,60.34535585654657,58.8046062126712,58.807553948519384
7500,nan,nan,68.37200839651183,64.49846520908108,60.80275815924826
10000,nan,nan,nan,72.75919531937424,66.6069353921661
