,0.08333333333333333,0.16666666666666666,0.25,0.3333333333333333,0.5
3500,54.11257834265474,56.477636053810485,57.04064432050062,57.603652587190766,58.77840726878735
4000,55.289727299301845,55.68980612205867,56.083015857405016,56.476225592751376,57.83062272068959
4500,61.86570266420909,56.55699416169766,56.6479557382049,56.73891731471213,57.738395215381196
5000,65.26532795729347,59.44872211400104,58.59838650978894,57.74805090557684,57.96123052385472
7500,nan,nan,66.39687638896854,63.214671908002856,60.02115029522844
10000,nan,nan,nan,69.89356499412554,65.32582886578338
