,0.08333333333333333,0.16666666666666666,0.25,0.3333333333333333,0.5
3500,55.600197756226294,57.99194743622937,58.34812343706763,58.70429943790588,60.19056914133081
4000,57.4390451325402,57.695943757578966,57.804792414925885,57.91364107227281,59.18901000693225
4500,64.18459038883411,59.30719354436909,58.721813381602864,58.13643321883664,58.94015280378632
5000,67.48958018240738,61.82035471784171,60.30797657900771,58.7955984401737,58.887291474868434
7500,nan,nan,68.34032108776873,64.4899486550844,60.825475556429666
10000,nan,nan,nan,nan,66.86686628183914
