,0.08333333333333333,0.16666666666666666,0.25,0.3333333333333333,0.5
3500,55.67001729755238,58.10870910774049,58.395431856871205,58.68215460600192,60.15418671721791
4000,57.43119648531879,57.67240625656304,57.77085004692246,57.86929383728188,59.16660022106208
4500,64.17848444493296,59.288493155422906,58.69406986575709,58.09964657609129,58.88900468196259
5000,67.48516093174572,61.82589207281956,60.36079753837299,58.8957030039264,58.93031093594011
7500,nan,nan,68.32439235341666,64.46857310757906,60.794671055674556
10000,nan,nan,nan,nan,66.84039757029616
