,0.08333333333333333,0.16666666666666666,0.25,0.3333333333333333,0.5
3500,55.53897943235556,58.18268301190588,58.56577475864539,58.94886650538491,60.334762803292676
4000,58.09684346528785,57.89426404868386,57.913926263719745,57.933588478755624,59.181837168636264
4500,64.20177540897961,59.30718104796387,58.710966526542265,58.11475200512065,58.861275782103306
5000,67.50629835379834,61.82027018387824,60.298526145966704,58.776782108055144,58.85359331817676
7500,nan,nan,68.33505194567208,64.47769044286906,60.80247297214737
10000,nan,nan,nan,nan,66.60699668084693
