,0.08333333333333333,0.16666666666666666,0.25,0.3333333333333333,0.5
3500,53.55748194202256,56.985666253304636,57.32129154436325,57.65691683542185,58.72742211575231
4000,55.60514980302112,55.428882787404845,55.886358343596086,56.34383389978733,57.80631693123411
4500,61.97717009091639,56.8276009971674,56.72099414395527,56.61438729074314,57.75167449563579
5000,65.19749446490417,59.39522745229819,58.50705214710837,57.61887684191855,57.94550447431561
7500,nan,nan,66.38259924457547,63.21340597843549,59.77817490828904
10000,nan,nan,nan,69.89064545802941,65.34024624073513
