,0.08333333333333333,0.16666666666666666,0.25,0.3333333333333333,0.5
3500,54.530089550931876,57.505027612566124,57.91215638628404,58.31928516000195,59.706732257359164
4000,57.41332668158968,56.3390075206196,56.78718821937855,57.235368918137496,58.649646173660884
4500,63.79414379937783,58.32092610965653,57.9522119809787,57.58349785230088,58.41714411805924
5000,67.63614252910546,61.86677130134219,60.26167575386097,58.65658020637974,58.689518643017905
7500,nan,nan,68.36867081825321,64.48841293246302,60.78253474772819
10000,nan,nan,nan,72.75092811787005,66.07995702021681
