,0.08333333333333333,0.16666666666666666,0.25,0.3333333333333333,0.5
3500,54.483720966576854,57.45478290782218,57.87708346895266,58.29938403008315,59.52990685546057
4000,56.55442379292959,56.25533662436572,56.5901079682903,56.92487931221487,58.398992005464805
4500,63.36719553903892,57.944425515269515,57.6142041461556,57.28398277704169,58.18697677332596
5000,67.25113618636456,61.52934422670241,59.91861107473238,58.30787792276233,58.273009267061795
7500,nan,nan,68.12200583564332,64.24761907599401,60.528450881688464
10000,nan,nan,nan,72.5319002320461,65.86472266606259
