,0.08333333333333333,0.16666666666666666,0.25,0.3333333333333333,0.5
3500,53.3659750392158,56.42304478291951,56.96499117471434,57.50693756650917,58.7995228438775
4000,55.48856741552992,55.456104960857985,55.91685676203084,56.3776085632037,57.854457918740536
4500,61.62145975922009,56.382957754571734,56.53690878027036,56.690859805968984,57.76406084517384
5000,65.04359605824531,59.202785761280865,58.1515106272834,57.100235493285936,57.50736721097425
7500,nan,nan,66.29044229953615,63.125270786073365,59.947867457035315
10000,nan,nan,nan,69.81137535205099,65.26404399772362
