,0.08333333333333333,0.16666666666666666,0.25,0.3333333333333333,0.5
3500,54.64923612906395,57.57656279691588,58.002026629937795,58.42749046295972,59.95529200470716
4000,58.06469359273963,57.08621224907873,57.2747244485827,57.463236648086685,58.88213450091365
4500,63.485678698326616,58.114914291671724,57.828621068030294,57.542327844388865,58.51726793024369
5000,67.21301131732542,61.098291859739675,59.81170463328401,58.52511740682832,58.65187456382593
7500,nan,nan,68.24906768756122,64.45351832526595,61.00715095169762
10000,nan,nan,nan,70.94966167038132,66.5429737622971
