,0.08333333333333333,0.16666666666666666,0.25,0.3333333333333333,0.5
3500,56.554781512216245,58.25254038361365,58.52300489025382,58.793469396894,60.24740495731774
4000,57.79711817218852,57.471157184426836,57.67778283483466,57.884408485242474,59.31084156138561
4500,64.13499827535125,59.28696509160071,58.71888018036792,58.150795269135145,59.02094761025098
5000,67.44298303714241,61.803288512682826,60.30572525054407,58.808161988405296,58.92274623544867
7500,nan,nan,68.33624098702026,64.49744462882235,60.84962207225183
10000,nan,nan,nan,nan,66.8877647575876
