,0.08333333333333333,0.16666666666666666,0.25,0.3333333333333333,0.5
3500,54.64629262258303,57.683379014941636,58.121351657778995,58.55932430061635,59.962727638607085
4000,58.014069281836456,57.038192518932135,57.22604494720544,57.41389737547873,58.75551516143951
4500,63.446690395981605,58.07743373805711,57.789617661803234,57.501801585549366,58.47338049559146
5000,67.17802067814328,61.06632127110798,59.778193051720386,58.49006483233278,58.61327797738615
7500,nan,nan,68.22512629451523,64.42936240672917,60.9806086498922
10000,nan,nan,nan,70.92810362162764,66.52077781970014
