,0.08333333333333333,0.16666666666666666,0.25,0.3333333333333333,0.5
3500,53.893326977004044,56.888182966793266,57.4208423235664,57.95350168033953,59.34354968778412
4000,56.10496363422298,56.20084708461939,56.55289640809197,56.90494573156455,58.31195078359671
4500,63.532463979568455,58.05317013853902,57.66300535464412,57.27284057074922,58.106904201345614
5000,67.26210845169481,61.01651380356163,59.56635869692707,58.1162035902925,58.2460002792438
7500,nan,nan,68.19193010513689,64.30387734598158,60.570819940926796
10000,nan,nan,nan,72.58461778206357,65.90052731428108
