,0.08333333333333333,0.16666666666666666,0.25,0.3333333333333333,0.5
3500,53.21237234862437,56.721832555125694,57.15925573939751,57.596678923669316,58.68796151260497
4000,55.719690750795834,55.850946530247626,56.17872910056979,56.506511670891946,57.76262598130974
4500,62.0033640148516,57.03739220421989,56.87244306935859,56.707493934497286,57.63316012315864
5000,65.0596929933412,59.25949778143308,58.357989824230515,57.45648186702795,57.75774377425828
7500,nan,nan,66.27815401931785,63.10320517702024,59.78149925441979
10000,nan,nan,nan,69.79301419325992,65.23205332155626
