,0.08333333333333333,0.16666666666666666,0.25,0.3333333333333333,0.5
3500,54.89443303193136,57.493052888474224,57.99923343831032,58.505413988146415,59.883654092998
4000,57.64086420173665,57.098281827172826,57.2175382062262,57.33679458527958,58.66274454513817
4500,63.55006064887783,58.117781192577375,57.76139887542678,57.405016558276174,58.33334760383907
5000,66.75748575095648,61.093416040435116,59.728417771814634,58.36341950319414,58.49817071549322
7500,nan,nan,67.20589754531125,64.04299237181685,60.9624715855785
10000,nan,nan,nan,72.30632075047968,66.25569445719876
