,0.08333333333333333,0.16666666666666666,0.25,0.3333333333333333,0.5
3500,54.51881953589559,57.56357836691215,57.989496582053654,58.41541479719516,59.68763068699241
4000,57.46435875819394,56.44996580485833,56.79605760835811,57.14214941185789,58.547226334962474
4500,63.748932962013896,58.24861129448818,57.8581232726953,57.46763525090243,58.265952362006885
5000,67.59776309863005,61.80464027137258,60.180405226024426,58.55617018067626,58.51018358288199
7500,nan,nan,68.31314520144377,64.42045203367661,60.69132223886552
10000,nan,nan,nan,72.69088485500143,66.00236463081181
