,0.08333333333333333,0.16666666666666666,0.25,0.3333333333333333,0.5
3500,53.848923225399616,57.00364614038775,57.64464255907405,58.28563897776034,59.67540758711955
4000,56.065194971942276,55.87854419164495,56.474812459732924,57.0710807278209,58.60392591649739
4500,61.72865250132922,57.57880716544569,57.47119238491733,57.363577604388965,58.30546523217146
5000,65.1430521267485,60.56442127582591,59.31067131271234,58.05692134959875,58.31070714474231
7500,nan,nan,67.29468938079559,64.06168956011962,60.60791074451209
10000,nan,nan,nan,70.54404265101097,65.77172256209337
