,0.08333333333333333,0.16666666666666666,0.25,0.3333333333333333,0.5
3500,54.56362476574834,57.61576370618135,58.04799397466478,58.480224243148214,59.762333720770286
4000,56.96186904867622,56.48627015547254,56.83921023419974,57.19215031292695,58.60804716622637
4500,63.77049763787976,58.27725017575951,57.89309027643908,57.50893037711866,58.31773167299787
5000,67.61652637722688,61.80759624532471,60.13332770850609,58.459059171687464,58.420907934994915
7500,nan,nan,68.3340182021278,64.44476257791142,60.7225552947422
10000,nan,nan,nan,72.71249005127584,66.02892018240645
