,0.08333333333333333,0.16666666666666666,0.25,0.3333333333333333,0.5
3500,nan,nan,nan,nan,nan
4000,52.57270951512517,53.11320958503406,53.61404016558214,54.15919361869852,54.99712060822357
4500,54.312526745972406,52.25340923742323,52.95634147983133,53.75289051980893,54.40217835233237
5000,58.07286700340109,52.87187183871499,52.95768010596376,53.82120126111123,54.99264973346367
7500,nan,68.45925431587725,63.12680796307387,57.61120964114183,55.99044866329598
10000,nan,nan,nan,63.98284217499969,61.07432610459084
