,0.08333333333333333,0.16666666666666666,0.25,0.3333333333333333,0.5
3500,54.95097094188435,57.774940452234794,58.16541015540013,58.555879858565476,60.0813721820234
4000,57.736934442985216,57.23665516896547,57.44154822917328,57.64644128938109,58.93685504946817
4500,63.62447924730628,58.23777475126177,57.981193001523906,57.72461125178605,58.60654448145485
5000,67.48004651685801,61.80962919415502,60.336759578275355,58.863889962395675,58.700880929639176
7500,nan,nan,68.30834522040112,64.50158581698264,60.91221677828844
10000,nan,nan,nan,72.7111779028132,66.06460642093973
