,0.08333333333333333,0.16666666666666666,0.25,0.3333333333333333,0.5
3500,53.56710034511833,57.1067012782451,57.37719353054672,57.64768578284835,58.71460601556578
4000,55.32494090558791,55.30820455829499,55.79907932021135,56.28995408212771,57.7631717392242
4500,61.6797310771866,56.58272098172975,56.554777568291925,56.5268341548541,57.740052576663516
5000,64.93169512274974,59.160356989603706,58.264359910630795,57.368362831657876,57.720841146878
7500,nan,nan,66.21027494177827,63.04240961844424,59.59482119720288
10000,nan,nan,nan,69.73774867937942,65.18465538416822
