,0.08333333333333333,0.16666666666666666,0.25,0.3333333333333333,0.5
3500,53.615191881481664,56.648135279910385,57.26192370255984,57.875712125209304,59.22340459827137
4000,55.74133858975972,56.01009442754026,56.34588114412419,56.681667860708124,58.11314916635965
4500,62.97473740549111,57.406738451964905,57.20550822053919,57.004277989113476,57.976119026696644
5000,66.78082810244786,60.126515550367934,58.923798536662844,57.72108152295774,58.045463433939716
7500,nan,nan,68.00104788672611,64.18282124188234,60.68053946856171
10000,nan,nan,nan,72.42382992367622,65.75708613090583
