,0.08333333333333333,0.16666666666666666,0.25,0.3333333333333333,0.5
3500,56.32676736083607,58.298904489819606,58.553900927561415,58.808897365303224,59.87701469591997
4000,57.67348323430733,57.50458903052821,57.72187575823885,57.939162485949495,59.42759217554212
4500,63.95566678827268,59.152147654672234,58.63571134102642,58.11927502738061,58.96353152040936
5000,67.2808747115563,61.67456927193654,60.18331532171782,58.6920613714991,58.857984435469746
7500,nan,nan,68.24684704605596,64.4166525882958,60.77349486350604
10000,nan,nan,nan,nan,66.82280465743824
