,0.08333333333333333,0.16666666666666666,0.25,0.3333333333333333,0.5
3500,55.44727625680455,57.7146836707568,58.174833248758105,58.63498282675942,60.20491841257966
4000,57.125878378652075,56.52897020806279,57.037849921015294,57.54672963396779,59.273069036679146
4500,62.63354968756113,58.59456167519603,58.23484896255296,57.87513624990987,58.773743838360694
5000,65.95158761834573,61.13366868122306,59.822973600210716,58.512278519198375,58.7075610646509
7500,nan,nan,67.84645778432623,64.20110132415421,60.55589412845614
10000,nan,nan,nan,nan,66.61554886911759
