,0.08333333333333333,0.16666666666666666,0.25,0.3333333333333333,0.5
3500,53.3126780518306,56.83579145285941,57.17083417305555,57.505876893251695,58.612034735176294
4000,55.26600060644559,55.139201680628204,55.694529977986335,56.249858275344465,57.71628301152211
4500,61.71573913755691,56.58682679734118,56.50804919934478,56.42927160134839,57.62385482185488
5000,64.96495761374254,59.17772109613606,58.27470906527744,57.371697034418816,57.71352221935352
7500,nan,nan,66.21883793984838,63.04525813641439,59.457308047365515
10000,nan,nan,nan,69.74107859972611,65.18043045717907
