,0.08333333333333333,0.16666666666666666,0.25,0.3333333333333333,0.5
3500,54.45909472092461,57.41447070816141,57.82738373692196,58.24029676568251,59.45729293032059
4000,56.53878886938776,56.227200619892024,56.553193326934625,56.87918603397723,58.33988821708862
4500,63.35503084344674,57.92222211842035,57.58421955255855,57.24621698669676,58.13667162877225
5000,67.24102922841057,61.51027019935662,59.89270536618338,58.27514053301013,58.228729188065515
7500,nan,nan,68.10446238831325,64.22557020912649,60.49819407047701
10000,nan,nan,nan,72.51248368294235,65.83897777331295
