,0.08333333333333333,0.16666666666666666,0.25,0.3333333333333333,0.5
3500,56.584016619983394,58.42068329610306,58.60551807990929,58.79035286371552,60.212707743699625
4000,57.67019502812223,57.48465750814533,57.691116243833044,57.897574979520755,59.29499131445267
4500,63.95309856505499,59.136283829763556,58.61052330161524,58.08476277346692,58.9143351242193
5000,67.27966782737894,61.68250650994495,60.238283990162145,58.79406147037933,58.90265769793439
7500,nan,nan,68.23254838661639,64.39667693369225,60.7438977510289
10000,nan,nan,nan,nan,66.79736618919789
