,0.08333333333333333,0.16666666666666666,0.25,0.3333333333333333,0.5
3500,53.39604783229228,56.8256996314275,57.31343079510692,57.80116195878634,59.131572080755966
4000,56.21967148596269,55.86058559070309,56.31104606978141,56.76150654885974,58.213763651444836
4500,62.81493419400328,57.10203540523982,57.0805434135344,57.05905142182898,58.04082709276108
5000,66.29161792694053,60.15117528828091,58.95027156463368,57.74936784098643,57.98543519669001
7500,nan,nan,66.98011734983676,63.757071425268364,60.42351840085603
10000,nan,nan,nan,70.38380616593933,65.77571380547704
