,0.08333333333333333,0.16666666666666666,0.25,0.3333333333333333,0.5
3500,53.95984387059022,56.88559246522419,57.38928402815313,57.892975591082056,59.00204743893402
4000,56.08663570676686,56.07675055435718,56.439008572647154,56.80126659093714,58.06129722583877
4500,62.18456902161563,57.036645954858585,57.00685855786605,56.977071160873514,57.917173360146656
5000,65.38435226651944,59.52262834909875,58.57423408812717,57.62583982715558,57.89948756058239
7500,nan,nan,66.48567887654828,63.30764209158774,59.998903401829686
10000,nan,nan,nan,69.97601606470941,65.41629165498233
