,0.08333333333333333,0.16666666666666666,0.25,0.3333333333333333,0.5
3500,54.77275882641598,57.2878988625026,57.859153003059916,58.43040714361723,60.06415185949872
4000,56.07068004550166,56.34007102997598,56.8698245753876,57.399578120799205,59.13692729463168
4500,62.67762416643446,58.597720885481095,58.17981121615827,57.76190154683543,58.62918817776032
5000,65.88352647181713,60.548836103871594,59.452853607602435,58.35687111133328,58.63171937844002
7500,nan,nan,67.85043667218861,64.19487637004694,60.534787021768345
10000,nan,nan,nan,nan,66.59728080025735
