,0.08333333333333333,0.16666666666666666,0.25,0.3333333333333333,0.5
3500,54.09637402876467,57.252934566307914,57.75100161651863,58.24906866672934,59.49828443045054
4000,56.636266938919604,56.331679133792434,56.66634130360255,57.00100347341266,58.43953211791499
4500,63.431105924431485,58.00421918403116,57.67536338572333,57.34650758741551,58.21259047864718
5000,67.30868920102154,61.58062123522689,59.97127901488918,58.361936794551454,58.33121398645608
7500,nan,nan,68.15978479822412,64.28488804634317,60.56830600018636
10000,nan,nan,nan,72.56574583918777,65.89858942412687
