,0.08333333333333333,0.16666666666666666,0.25,0.3333333333333333,0.5
3500,55.371005665518226,58.1441450986024,58.44728913221487,58.75043316582734,60.09980841949225
4000,57.4679098873563,57.687276265424416,57.77301590998235,57.858755554540295,59.100756551471314
4500,64.20725677575564,59.29994584799516,58.69528954103591,58.09063323407666,58.864713043269006
5000,67.51221862850582,61.814066201304904,60.28497638526591,58.75588656922691,58.82080624598548
7500,nan,nan,68.32648965175362,64.46383284873995,60.78006581561904
10000,nan,nan,nan,nan,66.58777498712293
