,0.08333333333333333,0.16666666666666666,0.25,0.3333333333333333,0.5
3500,53.40397006208232,56.61006053856182,57.26447466052796,57.91888878249411,59.351834181465236
4000,55.645413938142966,55.5111774759833,56.15092990784918,56.790682339715055,58.33310599178557
4500,63.05219430586352,57.29702346266306,57.23142100568798,57.16581854871289,58.145137408636614
5000,66.50534726520402,60.33163321047612,59.13099250992331,57.93035180937049,58.12680630332856
7500,nan,nan,67.11006249154214,63.88210502696175,60.55219869626997
10000,nan,nan,nan,70.49628160663377,65.88487288094001
