,0.08333333333333333,0.16666666666666666,0.25,0.3333333333333333,0.5
3500,nan,nan,nan,nan,nan
4000,57.323527574865565,56.17399894991371,56.398502010033525,56.617780030419084,56.05945995239519
4500,58.804394227926984,55.69463294513135,55.72337573809654,55.937784222446034,55.31538379092374
5000,61.00217908842761,56.21421103258917,55.81663657597306,55.843407957911865,55.48983975873869
7500,nan,69.43591963700109,64.32187047869651,59.0590111241712,56.20312526554578
10000,nan,nan,nan,64.85963644277246,60.78169244027617
