,0.08333333333333333,0.16666666666666666,0.25,0.3333333333333333,0.5
3500,53.275991469414656,56.61555098178792,57.11038708915052,57.60522319651312,58.84012395295165
4000,55.64158940198118,55.59586617242934,56.05448975576908,56.51311333910882,57.91592333933772
4500,61.923582773374235,56.81635326827153,56.797774502939276,56.77919573760703,57.811618664523024
5000,65.1491276509571,59.35773658065082,58.47162220408551,57.58550782752019,57.868698109130975
7500,nan,nan,66.35690483690601,63.1903702151567,59.887763642820886
10000,nan,nan,nan,69.86970473004766,65.3222534760196
