,0.08333333333333333,0.16666666666666666,0.25,0.3333333333333333,0.5
3500,54.31350260538346,56.58972047863621,57.12718207870009,57.664643678763966,58.98776111581098
4000,55.391069102206664,55.598420182855065,56.12136354970002,56.64430691654499,58.10991914612612
4500,62.10810110144147,56.78583247851456,56.852827282957776,56.919822087401,57.987590101723654
5000,65.48077035718474,59.614758602187514,58.67370988130952,57.73266116043151,58.020845006736565
7500,nan,nan,66.55572886881336,63.38039232875599,60.210699664586905
10000,nan,nan,nan,70.04063638275818,65.486414593908
