,0.08333333333333333,0.16666666666666666,0.25,0.3333333333333333,0.5
3500,53.89988283304397,56.891491045615666,57.388380188714514,57.88526933181336,59.056160378949414
4000,56.09797674808591,55.991101138600044,56.40256516636263,56.81402919412521,58.16526913632784
4500,62.45745909328127,57.455602709484765,57.263676426978535,57.071750144472304,57.98599765525014
5000,65.46400038353133,59.60453431624622,58.66603979671778,57.72754527718934,58.01948184609451
7500,nan,nan,66.54980679977676,63.37667304175641,60.0805977917832
10000,nan,nan,nan,70.03701151830722,65.48563259113013
