,0.08333333333333333,0.16666666666666666,0.25,0.3333333333333333,0.5
3500,55.64872759381191,57.81384296116803,58.214540651976264,58.615238342784494,60.11601481757859
4000,57.717733216122305,57.873500763929016,57.87342841068826,57.8733560574475,59.122305300592316
4500,64.40274508326902,59.45148842368762,58.79646909098108,58.14144975827453,58.944176091455404
5000,67.54818803001959,61.35656987972393,60.05321758654381,58.74986529336368,58.8588922218743
7500,nan,nan,68.42696630798679,64.5562564461056,60.86962211007035
10000,nan,nan,nan,nan,66.90422459830035
