,0.08333333333333333,0.16666666666666666,0.25,0.3333333333333333,0.5
3500,55.06573219501648,57.49208263034902,57.96260671486459,58.43313079938015,60.11335302839343
4000,57.10646895604817,56.39477983893926,56.945886280325134,57.49699272171101,59.30322193840281
4500,62.69557824262418,58.64120185255409,58.24191416275997,57.842626472965826,58.7398186825213
5000,65.89742890440104,60.56609421439783,59.43158718373391,58.297080153070006,58.639593902822895
7500,nan,nan,67.88631113823567,64.24177059852965,60.60129489431243
10000,nan,nan,nan,nan,66.65442545130367
