,0.08333333333333333,0.16666666666666666,0.25,0.3333333333333333,0.5
3500,54.688836346687765,57.50278643745435,57.95875434714449,58.41472225683464,59.83246949477358
4000,57.352053901553816,56.419494925772135,56.81324820133685,57.20700147690155,58.75486997001401
4500,63.661645469833076,58.191734696211675,57.7530716919448,57.31440868767792,58.240579773470955
5000,67.51455770092667,61.76338252677731,60.11705114210006,58.4707197574228,58.42908199334355
7500,nan,nan,68.31765567655023,64.50496935778932,60.9077277967877
10000,nan,nan,nan,72.71499247797954,66.57023001521141
