,0.08333333333333333,0.16666666666666666,0.25,0.3333333333333333,0.5
3500,53.32320664738689,56.88133480013776,57.34965890046898,57.81798300080021,58.95460064371464
4000,55.78791512085492,55.96120014211965,56.31892361175589,56.676647081392126,57.978680145479274
4500,62.05583225288743,57.12349032667876,56.98545807276011,56.847425818841465,57.776226275368046
5000,65.10337419248297,59.33221450583951,58.45465335633172,57.57709220682393,57.873119109665325
7500,nan,nan,66.34334870681414,63.18391519065859,59.89066419482172
10000,nan,nan,nan,69.8629629393864,65.32482244205849
