,0.08333333333333333,0.16666666666666666,0.25,0.3333333333333333,0.5
3500,53.68016436345333,56.87758703336164,57.433259600230706,57.988932167099776,59.33602430270371
4000,56.2411282084073,56.30983593525531,56.67655889612885,57.0432818570024,58.393022580204075
4500,63.452761345892114,57.79712247151499,57.567552707168346,57.337982942821704,58.15478212850538
5000,67.21528449067199,60.436114151018,59.15561739522937,57.87512063944072,58.08174672100498
7500,nan,nan,68.23017917976435,64.3300494781664,60.58265084006168
10000,nan,nan,nan,70.89460326582761,65.9103908801111
