,0.08333333333333333,0.16666666666666666,0.25,0.3333333333333333,0.5
3500,55.03546974604333,57.49910426948504,58.03198109840076,58.564857927316496,60.18772713610785
4000,56.226876245402735,56.49419792460015,57.02875222282264,57.56330652104513,59.275009051518005
4500,62.79934196368679,58.71933710987273,58.308062517336225,57.896787924799725,58.77766970996998
5000,65.992136024236,60.63193197070111,59.48774148634618,58.343551001991244,58.672708120586385
7500,nan,nan,67.9287519322161,64.2748395268872,60.62411589506219
10000,nan,nan,nan,nan,66.67377428982195
