,0.08333333333333333,0.16666666666666666,0.25,0.3333333333333333,0.5
3500,53.97542787440452,56.75804271912899,57.38223402905868,58.00642533898838,59.403424506892705
4000,56.03009721690438,55.92639314734714,56.45824481758371,56.990096487820274,58.44793016950682
4500,61.69608084630536,57.814115428468895,57.59285278069186,57.371590132914825,58.201549368712364
5000,65.03955111494056,60.45059867070212,59.1773631285222,57.90412758634227,58.1228542907102
7500,nan,nan,67.2018950284207,63.95740956177522,60.610809764543944
10000,nan,nan,nan,70.58234129793229,65.9343704965766
