,0.08333333333333333,0.16666666666666666,0.25,0.3333333333333333,0.5
3500,55.59710676788356,58.048122699470284,58.379982415269495,58.7118421310687,60.060043751088486
4000,57.54059439053922,57.72377473427533,57.78902644296305,57.854278151650774,59.067917228325726
4500,64.26406132592622,59.32825985369899,58.70733145966673,58.08640306563448,58.836483737295666
5000,67.56517506041148,61.8380098675076,60.29504452399462,58.752079180481616,58.79582451853685
7500,nan,nan,68.33605839091585,64.46231912328665,60.7631121590762
10000,nan,nan,nan,nan,66.57309871301185
