,0.08333333333333333,0.16666666666666666,0.25,0.3333333333333333,0.5
3500,54.535194010322556,57.42257505435386,57.89512852922359,58.36768200409333,59.8402472715925
4000,57.41767562777895,56.476554559893415,56.867837176975385,57.25911979405734,58.654812918934155
4500,63.7126608467796,58.2703388204117,57.91768354227824,57.5650282641448,58.503352893688444
5000,67.56074083719517,61.84499562202008,60.30905991796038,58.77312421390069,58.782207384717466
7500,nan,nan,68.3450089212439,64.53067875068119,61.06537756016543
10000,nan,nan,nan,72.73849528004521,66.59212894843469
