,0.08333333333333333,0.16666666666666666,0.25,0.3333333333333333,0.5
3500,54.559021915002305,57.40473433556761,57.842225496042246,58.27971665651688,59.74162677022801
4000,57.27504007868254,56.36145590658151,56.76387936811193,57.166302829642355,58.6500466649029
4500,63.60178684944911,58.18017171646004,57.834584253386254,57.48899679031247,58.435605247278616
5000,67.45981465149964,61.76765403707451,60.23746852681192,58.70728301654932,58.72265960599344
7500,nan,nan,68.29238285276196,64.48466286589408,61.02431017011066
10000,nan,nan,nan,72.69596570079946,66.55732226966907
