,0.08333333333333333,0.16666666666666666,0.25,0.3333333333333333,0.5
3500,55.80885422465614,57.91932914761353,58.274505648063666,58.6296821485138,60.14586030261263
4000,57.81323480192355,57.955928077959385,57.950998114632156,57.94606815130493,59.152869273186695
4500,64.47756729047826,59.516252593275325,58.85873418554662,58.201215777817936,59.00210972655208
5000,67.61558721259375,61.411030816180066,60.10618396840927,58.80133712063846,58.95598231085546
7500,nan,nan,68.46574995726142,64.59209719791727,60.90459843076443
10000,nan,nan,nan,nan,66.93409439975667
