,0.08333333333333333,0.16666666666666666,0.25,0.3333333333333333,0.5
3500,53.43570489603263,57.024149043956285,57.39911152467514,57.774074005394,58.901157860912576
4000,55.44770282384056,55.45115170554577,55.933444042994424,56.41573638044309,57.923377526329055
4500,61.95590928900491,57.04190379437603,56.91015350614309,56.77840321791014,57.875784222015085
5000,65.01321505416307,59.26359266056377,58.39071880326411,57.517844945964434,57.864831669161234
7500,nan,nan,66.29682984305113,63.1429396483032,59.853956196210184
10000,nan,nan,nan,69.82560381889061,65.29379333678094
