,0.08333333333333333,0.16666666666666666,0.25,0.3333333333333333,0.5
3500,53.797312554650155,56.90762555520176,57.38838656491741,57.869147574633075,59.02043942896837
4000,56.09672936351164,56.08733656621137,56.42345974120816,56.75958291620498,58.06280105262984
4500,62.37480915755538,57.394378499025606,57.243104759539726,57.091831020053846,57.96711369252982
5000,65.39031671438894,59.539156767227,58.59820380118715,57.65725083514729,57.989014583330956
7500,nan,nan,66.5015171894957,63.32856990602707,59.89767497403082
10000,nan,nan,nan,69.99401265836752,65.4416275548122
