,0.08333333333333333,0.16666666666666666,0.25,0.3333333333333333,0.5
3500,54.08427189326207,56.312255010131906,56.89037905306154,57.468503095991174,58.695350057976654
4000,55.22177287872472,54.89111588809838,55.563934950599176,56.236754013099954,57.79246444345215
4500,61.661149077721234,56.40221780790293,56.544609344624284,56.68700088134564,57.70267751759019
5000,65.08058993577164,59.282546596267636,58.384699360449275,57.486852124630914,57.74910441393535
7500,nan,nan,66.29665472332853,63.123715120857874,59.93532346749463
10000,nan,nan,nan,69.81105443913704,65.25331200670423
