,0.08333333333333333,0.16666666666666666,0.25,0.3333333333333333,0.5
3500,55.72979878672652,57.96812925417511,58.33528896271549,58.702448671255866,60.23916598442517
4000,57.83086406543276,57.509351658518426,57.77452797631793,58.03970429411743,59.31408886465431
4500,64.16123481656044,59.31141778427373,58.775270869392,58.23912395451029,59.05801708804265
5000,67.46788322496184,61.831202232409716,60.379206902716575,58.927211573023435,58.98278282049317
7500,nan,nan,68.33549483161929,64.48928051985386,60.83048862392743
10000,nan,nan,nan,nan,66.87124092172775
