,0.08333333333333333,0.16666666666666666,0.25,0.3333333333333333,0.5
3500,53.82784911254635,56.37494127346837,56.87931121242646,57.383681151384536,58.62153480819937
4000,55.22808224078912,55.63799517012388,56.035216151561144,56.4324371329984,57.791214007713585
4500,61.81791965502906,56.517053984692424,56.61015631957045,56.70325865444848,57.70506320668267
5000,65.22216505541654,59.3938352320755,58.49098594254423,57.58813665301293,57.84578879489361
7500,nan,nan,66.37352829695837,63.193517617735,60.00124373198575
10000,nan,nan,nan,69.87436878752821,65.30900927291196
