,0.08333333333333333,0.16666666666666666,0.25,0.3333333333333333,0.5
3500,56.35422143923216,58.16963847893916,58.50455041930049,58.83946235966182,60.33911092352049
4000,57.83425669780379,57.53209100284403,57.78271160317972,58.033332203515414,59.36840759939717
4500,64.163916728426,59.32399247791458,58.76320498285642,58.202417487798265,59.0848144962178
5000,67.46810321287984,61.834794920873236,60.34379191440472,58.8527889079362,58.97894395798623
7500,nan,nan,68.36263494920327,64.52778483143692,60.8881162049438
10000,nan,nan,nan,nan,66.92078509260244
