,0.08333333333333333,0.16666666666666666,0.25,0.3333333333333333,0.5
3500,54.153587900859975,57.29439228152738,57.7877214707847,58.28105066004203,59.52541477152018
4000,56.670137270423105,56.34601568890214,56.64236696682737,56.93871824475259,58.403751134433335
4500,63.457568665596,58.02644489169547,57.69639517916184,57.366345466628204,58.23121352368038
5000,67.33271861349394,61.599676422266455,59.9893791171141,58.379081811961726,58.34755649535949
7500,nan,nan,68.17300658076785,64.29682183210988,60.57953009716321
10000,nan,nan,nan,72.57672550188337,65.90809839731475
