,0.08333333333333333,0.16666666666666666,0.25,0.3333333333333333,0.5
3500,53.23490456913338,56.74161644354525,57.12445176329794,57.50728708305064,58.6338940060315
4000,55.41783765456113,55.268164362695074,55.761643786592536,56.25512321049,57.72202117102121
4500,61.83272878194249,56.708656722936155,56.641171074124365,56.57368542531256,57.74863542049236
5000,65.06845378175353,59.280703588022035,58.3883988360662,57.496094084110354,57.81266238922396
7500,nan,nan,66.29838414819599,63.12960056363143,59.6879793705379
10000,nan,nan,nan,69.8157389966375,65.26369869508932
