,0.08333333333333333,0.16666666666666666,0.25,0.3333333333333333,0.5
3500,53.79301275258506,56.77564024315306,57.34702820862814,57.918416174103214,59.21238209736475
4000,55.73771605386055,55.91981647681235,56.36762073673192,56.81542499665149,58.19045272473315
4500,63.05690476790005,57.49891762435887,57.34167674707268,57.18443586978651,58.04398447333542
5000,66.85479102965402,60.19041332811053,58.98890326203355,57.787393195956575,58.02382860439043
7500,nan,nan,68.04824810677599,64.22879198876208,60.729053586680415
10000,nan,nan,nan,72.46561770279052,65.79804999726001
