,0.08333333333333333,0.16666666666666666,0.25,0.3333333333333333,0.5
3500,54.82411295601594,57.35211276693903,57.93277394527584,58.51343512361265,60.1255339080714
4000,56.102186717378586,56.38477172616151,56.92426494972717,57.463758173292824,59.21638059512179
4500,62.70219726375717,58.633121980801214,58.22404645000794,57.81497091921467,58.69686152414043
5000,65.90455296998363,60.578783366441506,59.49074743246646,58.402711498491406,58.69125476864169
7500,nan,nan,67.87657542769512,64.22592465321678,60.575469777961494
10000,nan,nan,nan,nan,66.63219881178033
