,0.08333333333333333,0.16666666666666666,0.25,0.3333333333333333,0.5
3500,56.108888233542174,57.9785340282956,58.353334578515934,58.72813512873627,60.239255062614504
4000,57.687368729865184,57.404410727760066,57.68834738316754,57.972284038575,59.2706874275906
4500,64.04960849999614,59.229158108200146,58.706626742773196,58.18409537734625,59.02132497887061
5000,67.36598806405847,61.76141610839579,60.32062730596989,58.879838503543986,58.996724709169776
7500,nan,nan,68.29137016361133,64.4556450104872,60.808332227347776
10000,nan,nan,nan,nan,66.85249811240216
