,0.08333333333333333,0.16666666666666666,0.25,0.3333333333333333,0.5
3500,55.410252658188824,58.002816618613195,58.422659870529735,58.842503122446274,60.26939504547887
4000,57.96237760894459,57.68504349917545,57.79025076472584,57.89545803027624,59.16530384330413
4500,64.18024182068595,59.29855524443095,58.709960699865846,58.121366155300734,58.879257060054414
5000,67.48605234448715,61.81299424033427,60.29777913159701,58.78256402285974,58.86947735282034
7500,nan,nan,68.33343035329962,64.53554567220073,61.093411879364
10000,nan,nan,nan,nan,66.85640007901749
