,0.08333333333333333,0.16666666666666666,0.25,0.3333333333333333,0.5
3500,nan,nan,nan,nan,nan
4000,53.74384501178821,54.421791381519284,55.51267015162301,56.62862155854759,56.82636078819855
4500,55.823975916096074,54.11585451688994,55.028970381207955,56.101243627335876,56.19761636639346
5000,58.89913990744722,55.266439311594524,55.55733665015674,56.294891809045424,56.23895685961014
7500,nan,73.14887878321468,66.72149895546826,60.681953753753376,58.059430037822736
10000,nan,nan,75.12109748371819,67.35468257056475,62.69669384786265
