,0.08333333333333333,0.16666666666666666,0.25,0.3333333333333333,0.5
3500,56.455394085090475,58.470198623708285,58.63002847497022,58.78985832623215,60.215581412113636
4000,57.70179738205407,57.5285157727247,57.74414435774498,57.95977294276526,59.446491489984396
4500,63.977673412848034,59.170916445742506,58.653554432344094,58.13619241894567,58.979589565211356
5000,67.3007534286252,61.690501933159624,60.198571130835646,58.70664032851166,58.87206249976977
7500,nan,nan,68.25796835295408,64.42678673479593,60.78317078884372
10000,nan,nan,nan,nan,66.59101760067229
