,0.08333333333333333,0.16666666666666666,0.25,0.3333333333333333,0.5
3500,54.669079258162455,57.5612734595966,58.01274216031006,58.464210861023524,59.77083437825334
4000,57.289950639939256,56.33759303460206,56.715649142077645,57.09370524955323,58.61681321491361
4500,63.61336275801632,58.16098054161548,57.79481985453144,57.42865916744741,58.343232541803175
5000,67.47258877964151,61.72955410798372,60.12606204302547,58.52256997806721,58.55286846357069
7500,nan,nan,68.27047628853101,64.39553522937096,60.68869923977466
10000,nan,nan,nan,70.94975346042402,66.00041015809828
