,0.08333333333333333,0.16666666666666666,0.25,0.3333333333333333,0.5
3500,54.64885946012866,57.62611918662417,58.13115736681371,58.63619554700325,60.08955472001466
4000,57.4512042544947,56.90324634547178,57.17852391544196,57.453801485412136,58.89635768230002
4500,63.486366239821365,58.12804750518754,57.85043250963379,57.57281751408004,58.561386110941335
5000,67.21264167457575,61.10954399131623,59.83054972172311,58.55155545212998,58.73689554704934
7500,nan,nan,68.26143227009615,64.47120533656829,61.033801653295264
10000,nan,nan,nan,nan,66.56575905935236
