,0.08333333333333333,0.16666666666666666,0.25,0.3333333333333333,0.5
3500,nan,nan,nan,nan,nan
4000,54.07078459194447,53.20129803532825,53.78366698498834,54.40767831739477,55.105310283592516
4500,54.956326858203795,52.628345547029184,53.26315437252379,54.20603011410968,55.0040563562812
5000,56.41747445350397,52.741892876342064,53.20474146465833,54.028638120112895,54.89101626465096
7500,nan,67.98901926562363,62.92827237266426,58.02070161043969,56.20507515462542
10000,nan,nan,nan,63.158897275520985,60.27421058216174
