,0.08333333333333333,0.16666666666666666,0.25,0.3333333333333333,0.5
3500,53.82875815181039,56.80424664940613,57.3740771640706,57.94390767873506,59.2737223042831
4000,55.75877297843409,55.92536306844781,56.33689877345854,56.74843447846927,58.22750422661453
4500,63.073433819162155,57.497439425379405,57.29731152833925,57.0971836312991,58.03254646692229
5000,66.86967033764861,60.22500306695305,59.07930229609697,57.93360152524088,58.17304436322305
7500,nan,nan,68.05791750058872,64.23828040466815,60.73914956031604
10000,nan,nan,nan,72.47423896027742,65.80660602285508
