,0.08333333333333333,0.16666666666666666,0.25,0.3333333333333333,0.5
3500,54.442443591496954,57.2464378257842,57.749017116979395,58.2515964081746,59.58037113974403
4000,56.62630939047848,56.327369521068086,56.66527605102942,57.00318258099077,58.44626227838361
4500,63.42331385258713,58.00090592049198,57.67464636810098,57.348386815709986,58.218352743684974
5000,67.30136081497781,61.57778926572093,59.9706819328548,58.36357459998867,58.382365929974924
7500,nan,nan,68.15898408767494,64.28584095913071,60.57176723122084
10000,nan,nan,nan,72.5663883719308,65.90155381156866
