,0.08333333333333333,0.16666666666666666,0.25,0.3333333333333333,0.5
3500,55.07467545208546,57.51402091969238,58.00929015105736,58.504559382422336,60.147647235810155
4000,56.249901709860104,56.49984671681601,56.99634257737189,57.49283843792777,59.228333417774806
4500,62.81728156988187,58.73388400915988,58.321254868317524,57.90862572747516,58.78782265400632
5000,66.00842446091036,60.64419745071931,59.49896107894948,58.35372470717962,58.72640317218489
7500,nan,nan,67.93708017884435,64.28198596747264,60.630232405877976
10000,nan,nan,nan,nan,66.67898678556566
