,0.08333333333333333,0.16666666666666666,0.25,0.3333333333333333,0.5
3500,56.64860975281758,58.4605673271526,58.63685110213788,58.813134877123176,60.22565335259446
4000,57.60111428427124,57.31375032420496,57.59122958232214,57.868708840439325,59.305406038603394
4500,63.982494653461686,59.15769679415044,58.62817659182598,58.098656389501514,58.92312564575005
5000,67.30651901743434,61.70066721691569,60.253341710165586,58.806016203415474,58.910344308482195
7500,nan,nan,68.24392456200967,64.40518439862458,60.74920404169298
10000,nan,nan,nan,nan,66.80184714102795
