,0.08333333333333333,0.16666666666666666,0.25,0.3333333333333333,0.5
3500,nan,nan,nan,nan,nan
4000,53.39064842798791,54.09295456549559,54.602545061605184,54.95037096572273,54.88951528898994
4500,55.343947892737965,53.37005531476705,53.92277056611286,54.729909341196304,54.76566321772775
5000,57.760982520778505,53.38055866144275,53.59725148260707,54.40123477559531,55.06279258143155
7500,nan,68.25516261058252,62.95482269438197,57.670043545611136,56.07848181031565
10000,nan,nan,nan,63.75195906862024,60.78196120551952
