,0.08333333333333333,0.16666666666666666,0.25,0.3333333333333333,0.5
3500,53.30533512931607,56.82581220390689,57.219723118171885,57.61363403243687,58.79439497366931
4000,55.460157047842046,55.33988115847918,55.88106018925963,56.42223922004008,57.87916434651771
4500,62.04723060761877,57.09112079242759,56.90492882177698,56.718736851126366,57.793257932613656
5000,65.09635624688696,59.31885503941349,58.43633448586529,57.55381393231706,57.887122337035265
7500,nan,nan,66.33106111437938,63.16836173511319,59.869243448081825
10000,nan,nan,nan,69.84952038476678,65.30661439706128
