,0.08333333333333333,0.16666666666666666,0.25,0.3333333333333333,0.5
3500,53.823773484714735,56.865013046496955,57.44445042538764,58.02388780427833,59.4028031436615
4000,56.06471024026478,56.17628396961801,56.53697964631106,56.8976753230041,58.31647565673487
4500,63.313824428046686,57.687436447464265,57.43713168980712,57.18682693214996,58.11086569544468
5000,67.08734976936401,60.37907602124509,59.17326056685747,57.967445112469846,58.24955231179608
7500,nan,nan,68.1832971808709,64.30000595571151,60.57318072985651
10000,nan,nan,nan,72.58050807327437,65.90260238586018
