,0.08333333333333333,0.16666666666666666,0.25,0.3333333333333333,0.5
3500,nan,nan,nan,nan,nan
4000,57.20858561382863,55.88485959873107,56.1841065137249,56.67642925459366,56.688425950329496
4500,58.65645935259234,55.2944814248503,55.40462174756489,55.82597634455107,55.59691499476059
5000,62.05421424394481,56.01288559331327,55.489116532257476,55.77044023009087,55.83461824389907
7500,nan,69.69640988623999,64.60097337913064,59.359157578793386,54.51051239658223
10000,nan,nan,nan,63.97330454993384,61.06723497974099
