,0.08333333333333333,0.16666666666666666,0.25,0.3333333333333333,0.5
3500,56.328098156803875,58.08746567334596,58.39259296568262,58.69772025801928,60.19300121105219
4000,57.815524090140165,57.47383846870329,57.698272555458395,57.9227066422135,59.21871019702532
4500,64.14928765521832,59.27765429455757,58.69415345711172,58.11065261966587,58.9569960944721
5000,67.45764058153131,61.816761537135484,60.36104227155677,58.90532300597805,58.954468290713564
7500,nan,nan,68.32300915064361,64.47445957947718,60.81112059997074
10000,nan,nan,nan,nan,66.85462103503664
