,0.08333333333333333,0.16666666666666666,0.25,0.3333333333333333,0.5
3500,54.666756198122826,57.588595312436354,58.01228975085333,58.4359841892703,59.88800044693882
4000,58.07517184193375,57.09449111120741,57.28207531694001,57.46965952267261,58.88745545292423
4500,63.4937468529301,58.1213552299171,57.834464700989145,57.54757417206119,58.52177837478021
5000,67.2203564015726,61.10378101523678,59.81671479250171,58.52964856976664,58.655833876532725
7500,nan,nan,68.25277957338814,64.45669748149109,61.0098831793495
10000,nan,nan,nan,70.9525729041082,66.5452874130001
