,0.08333333333333333,0.16666666666666666,0.25,0.3333333333333333,0.5
3500,53.89006279212011,56.88779364436109,57.387159063247935,57.88652448213478,59.09750842503225
4000,56.0924488567293,55.98866444653926,56.40189433846385,56.81512423038845,58.16883218126999
4500,62.453187210051965,57.45374214021338,57.26322021521425,57.072698290215136,57.98904324366498
5000,65.46000786705505,59.60298218292353,58.665680512051004,57.72837884117846,58.02216620741773
7500,nan,nan,66.54935174113044,63.37714968030164,60.0824134506804
10000,nan,nan,nan,70.03730957818034,65.48718653023298
