,0.08333333333333333,0.16666666666666666,0.25,0.3333333333333333,0.5
3500,55.042004834308244,57.49158763277907,57.99011080170889,58.48863397063869,60.13534074995724
4000,56.23071383611908,56.49727862482214,57.03149606710942,57.5657135093967,59.27700430053058
4500,62.80233182362808,58.721761560093746,58.31026121571641,57.89876087133907,58.77936185156834
5000,65.99485067987077,60.63397616581321,59.489611375105056,58.345246584396904,58.67419087016326
7500,nan,nan,67.93013992535425,64.27603055944185,60.625135279598794
10000,nan,nan,nan,nan,66.67464300479543
