,0.08333333333333333,0.16666666666666666,0.25,0.3333333333333333,0.5
3500,54.579198702954955,57.45054818311655,57.99519576329124,58.53984334346593,59.966790831164985
4000,58.070693687297776,57.0843138766079,57.268037276801735,57.451760676995576,58.78871606672446
4500,63.490289590170484,58.113334227892054,57.82304971972049,57.53276521154893,58.50155861067316
5000,67.217625166202,61.0969204424213,59.80686775203438,58.51681506164745,58.63802407146144
7500,nan,nan,68.2461522889523,64.44805435494844,60.9976678865126
10000,nan,nan,nan,70.94512284862307,66.53485282209209
