,0.08333333333333333,0.16666666666666666,0.25,0.3333333333333333,0.5
3500,53.637972140199636,56.67430644633005,57.2639906788788,57.85367491142755,59.24217171254351
4000,55.755840994083144,56.03753261061731,56.38231184017591,56.727091069734506,58.17225907546138
4500,62.98608009102368,57.445254934008936,57.29510642484411,57.144957915679285,58.095254167625015
5000,66.79008910053906,60.144890862420795,58.94917834839225,57.753465834363695,58.08967907263856
7500,nan,nan,68.01830857166536,64.20471339390039,60.71084133235027
10000,nan,nan,nan,72.44307494730288,65.78279973213695
