,0.08333333333333333,0.16666666666666666,0.25,0.3333333333333333,0.5
3500,56.1907195849924,58.02364703674143,58.42194567938827,58.8202443220351,60.33008000401223
4000,57.68820242368449,57.51218453896509,57.725498226813386,57.93881191466169,59.45922979116986
4500,63.9671032127158,59.158040660892794,58.63846034123868,58.11888002158456,58.958516552732064
5000,67.15139814700458,61.08074368146053,59.81688163797768,58.55301959449481,58.853542238605385
7500,nan,nan,68.24895533571114,64.41661235221848,60.77048478624586
10000,nan,nan,nan,nan,66.82018525583868
