,0.08333333333333333,0.16666666666666666,0.25,0.3333333333333333,0.5
3500,53.82929533784494,56.86095439049981,57.435824575846354,58.01069476119289,59.38352437227761
4000,56.06755616009137,56.173310855551904,56.530323338590506,56.88733582162911,58.30075349815202
4500,63.316099619849155,57.68503898660711,57.43163727904478,57.17823557148246,58.09746314947156
5000,67.08975413595091,60.35533008660176,59.09107446339057,57.82681884017937,58.1488547453029
7500,nan,nan,68.18030593705535,64.2950698017662,60.56511455455341
10000,nan,nan,nan,72.57627908770787,65.89572601233382
