,0.08333333333333333,0.16666666666666666,0.25,0.3333333333333333,0.5
3500,54.75904079149575,57.303398361792645,57.888508532454495,58.473618703116344,60.12611495313773
4000,56.063846347600965,56.35127056160232,56.892377761700025,57.433484961797724,59.18760836762556
4500,62.672333898632175,58.60673447000239,58.19841612392545,57.79009777784851,58.67242167580315
5000,65.87762066284952,60.55652189734547,59.468906360799295,58.381290824253114,58.66979609460512
7500,nan,nan,67.86065043315331,64.2110522114181,60.56076438489226
10000,nan,nan,nan,nan,66.61963303108472
