,0.08333333333333333,0.16666666666666666,0.25,0.3333333333333333,0.5
3500,53.683749326743154,56.70987619083041,57.297029408332705,57.88418262583501,59.23356062311666
4000,55.782743161849396,56.07598357421564,56.45630746240276,56.8366313505899,58.21537870913032
4500,63.00718232447737,57.48103331077199,57.3739826594166,57.266932008061204,58.14283775840728
5000,66.80912797123422,60.16103101379467,58.96542563123751,57.76982024868033,58.06074951959927
7500,nan,nan,68.03012164734278,64.21608281724319,60.72268664583475
10000,nan,nan,nan,72.45341591960776,65.7927337204846
