,0.08333333333333333,0.16666666666666666,0.25,0.3333333333333333,0.5
3500,53.45272501883404,56.64079203357659,57.288800121127835,57.936808208679075,59.32543412129909
4000,55.89259052964392,55.93775095420717,56.41786448212507,56.89797801004296,58.30405858154178
4500,63.07457008374206,57.31326397118444,57.244965953878776,57.176667936573104,58.15226805011423
5000,66.5258071062606,60.345460974129146,59.14257518104697,57.93968938796479,58.13303217826502
7500,nan,nan,67.11875798116415,63.88873358539833,60.55650496448372
10000,nan,nan,nan,70.50249177550587,65.88849624139961
