,0.08333333333333333,0.16666666666666666,0.25,0.3333333333333333,0.5
3500,53.31135694643729,56.87407956664259,57.228787044818574,57.58349452299455,58.716427963576535
4000,55.2673006012962,55.16601784250655,55.737974400450724,56.309930958394894,57.80093457925016
4500,61.71668906771107,56.60796169139635,56.54338105593493,56.478800420473505,57.7359230207296
5000,64.96411306406516,59.19568345593259,58.305079252164624,57.41447504839665,57.82205715932899
7500,nan,nan,66.23850361555613,63.07355462892386,59.49990213522297
10000,nan,nan,nan,69.76515974752876,65.21677412946747
