,0.08333333333333333,0.16666666666666666,0.25,0.3333333333333333,0.5
3500,53.91130274525037,57.017000592625166,57.56395241202536,58.11090423142554,59.41652254097191
4000,56.067840079078294,56.168278134046446,56.52183365147574,56.875389168905045,58.32119049056834
4500,63.31635985252103,57.68103563885923,57.42468362489642,57.16833161093361,58.082928929573455
5000,67.09032366387449,60.37359850697468,59.16251836650576,57.95143822603683,58.22495313052603
7500,nan,nan,68.1763859621927,64.28933849802671,60.556366387117784
10000,nan,nan,nan,72.57131253248902,65.88827281612214
