,0.08333333333333333,0.16666666666666666,0.25,0.3333333333333333,0.5
3500,53.87742615602434,57.0994268155462,57.57147046282939,58.04351411011257,59.190518707383816
4000,56.09804813900914,56.10798814993283,56.45665665646743,56.80532516300203,58.12709002677954
4500,62.375796932662084,57.410693791111534,57.27018124035017,57.129668689588804,58.021805564687924
5000,65.3898895497141,59.55294834924209,58.62141552203297,57.689882694823844,57.99135550164731
7500,nan,nan,66.51661738508933,63.35022922039607,60.061325264915226
10000,nan,nan,nan,70.01246202928975,65.46939601610896
