,0.08333333333333333,0.16666666666666666,0.25,0.3333333333333333,0.5
3500,56.65437988148255,58.32907760678723,58.5337890993417,58.73850059189619,60.11151786729366
4000,57.75690949591615,57.52366944849779,57.70302612648504,57.88238280447229,59.167083649131655
4500,64.02047431900148,59.16642629806551,58.618982154750924,58.07153801143633,58.86892103614092
5000,67.34275203702914,61.70795689533752,60.24519455715356,58.78243221896958,58.862525773179726
7500,nan,nan,68.24061814030983,64.39014874336803,60.71662919345597
10000,nan,nan,nan,nan,66.77373808039455
