,0.08333333333333333,0.16666666666666666,0.25,0.3333333333333333,0.5
3500,55.95211014488743,58.21489104596928,58.510178097006204,58.805465148043126,60.255081231919405
4000,57.492706736398375,57.746666177103734,57.85563132469583,57.96459647228792,59.241551486133915
4500,64.22658278715129,59.34707823318254,58.76273495907982,58.17839168497709,58.9848874241647
5000,67.5271872952097,61.85424661164178,60.3430341509971,58.83182169035242,58.92662807380726
7500,nan,nan,68.36543573989243,64.51490845078428,60.852449262099704
10000,nan,nan,nan,nan,66.88994347569142
