,0.08333333333333333,0.16666666666666666,0.25,0.3333333333333333,0.5
3500,55.13583476824324,57.461336557333084,58.01207389472727,58.56281123212146,60.24409737656862
4000,57.19298801418799,56.46871046842172,57.015728803764304,57.562747139106875,59.328406166559574
4500,62.76216794214628,58.69943693619503,58.29804349844436,57.896650060693695,58.83177758280437
5000,65.95753531971178,60.615217347519234,59.47938767685459,58.34355800618995,58.73038376703911
7500,nan,nan,67.92125445568688,64.27411398848514,60.63283759300319
10000,nan,nan,nan,nan,66.68137476291442
