,0.08333333333333333,0.16666666666666666,0.25,0.3333333333333333,0.5
3500,54.795751064028195,57.77159230932665,58.13282421370159,58.49405611807653,59.906077185242985
4000,58.10398681825582,57.11725749648525,57.30228980870078,57.48732212091632,58.8270671248888
4500,63.51593517623399,58.13906831781874,57.850535097915085,57.562001878011436,58.53418232686576
5000,67.2405564359176,61.118877011983095,59.83049340324793,58.54210979451275,58.66672237951272
7500,nan,nan,68.26298796885911,64.46544076509117,61.01739730157477
10000,nan,nan,nan,70.96057947812747,66.55165042258523
