,0.08333333333333333,0.16666666666666666,0.25,0.3333333333333333,0.5
3500,53.27865855818032,56.524774064905415,57.069637511120675,57.61450095733591,58.87636263387548
4000,55.68953562656533,55.621559717988106,56.04096385305235,56.46036798811659,57.88791883769245
4500,61.960548381743735,56.84701110271928,56.826523029208474,56.80603495569767,57.79598771437717
5000,65.18248981886035,59.383618836085084,58.49609736790042,57.608575899715746,57.890307639808505
7500,nan,nan,66.37465164776887,63.20629318502101,59.90248870679331
10000,nan,nan,nan,69.88417757051357,65.33470716062496
