,0.08333333333333333,0.16666666666666666,0.25,0.3333333333333333,0.5
3500,53.797244000548716,56.80775392291673,57.34288756983075,57.87802121674478,59.268739640845304
4000,56.047842081960525,56.15955883740325,56.546695679981,56.933832522558745,58.308995016570634
4500,63.30067925637782,57.696814598956635,57.52437641398265,57.35193822900867,58.19331858065257
5000,67.07647012512669,60.35839031647138,59.144945626201576,57.931500935931744,58.108449335467355
7500,nan,nan,68.16399374168249,64.27569248177632,60.539814930982146
10000,nan,nan,nan,70.8444593725064,65.87416094459087
