,0.08333333333333333,0.16666666666666666,0.25,0.3333333333333333,0.5
3500,nan,nan,nan,nan,nan
4000,52.15564780721858,52.83134989234286,53.318358575823936,53.82594788650333,54.01499611508166
4500,54.4134629569684,52.21269968424762,52.70334944497499,53.446714083433655,54.05285121274409
5000,56.47852503511544,52.30623333777816,52.62951070121829,53.405882138502555,54.61063137495278
7500,nan,67.9766616630568,62.88920836963314,57.95405481200842,56.04282457982711
10000,nan,nan,nan,63.10569508074893,60.18716104228757
