,0.08333333333333333,0.16666666666666666,0.25,0.3333333333333333,0.5
3500,56.29803975706978,58.07806912652667,58.419008196312035,58.759947266097406,60.23022900283848
4000,57.797642553439516,57.45823485443918,57.68338244733148,57.90853004022378,59.20512996538357
4500,64.13537296533701,59.265384689287885,58.68219282756604,58.0990009658442,58.945446650239504
5000,67.44510266906781,61.80633905281718,60.350799727631156,58.89526040244513,58.944317400748986
7500,nan,nan,68.31558993221905,64.4674932927927,60.80415777180472
10000,nan,nan,nan,nan,66.84867277252903
