,0.08333333333333333,0.16666666666666666,0.25,0.3333333333333333,0.5
3500,55.942244841577015,58.208137564050666,58.50441826600536,58.80069896796005,60.25139344309946
4000,57.486882848927024,57.741998593943045,57.85149047598579,57.960982358028545,59.23856143356506
4500,64.22202326419819,59.34341779629401,58.759423782512826,58.17542976873163,58.98234878799813
5000,67.52304937873083,61.85113910943193,60.34020387480051,58.829268640169076,58.924399841967514
7500,nan,nan,68.36334654722904,64.5131202075316,60.85091692139489
10000,nan,nan,nan,nan,66.88863845291654
