,0.08333333333333333,0.16666666666666666,0.25,0.3333333333333333,0.5
3500,53.63233405306026,56.584409001835766,57.22829084121466,57.872172680593565,59.255933254791984
4000,55.800087197114635,56.09272712076248,56.47332650430694,56.85392588785139,58.19603053760345
4500,63.02078017116168,57.49410116526687,57.38762052483969,57.2811398844125,58.117591156302026
5000,66.82133176685552,60.1721289944565,58.97708905464523,57.78204911483397,58.074261823367095
7500,nan,nan,68.03851714200697,64.22452516684602,60.731955301866265
10000,nan,nan,nan,72.46106087507466,65.80059442186449
