,0.08333333333333333,0.16666666666666666,0.25,0.3333333333333333,0.5
3500,55.151998584868636,57.64231453924015,58.038344291608894,58.43437404397763,59.85210829295491
4000,57.746772179811515,57.315623339118446,57.371063990693855,57.42650464226926,58.72505673941782
4500,63.54896233804365,58.132358735951875,57.786774634139064,57.44119053232626,58.38646180329525
5000,67.27190612398624,61.10591020003016,59.750341534686186,58.394772869342205,58.54496872843182
7500,nan,nan,68.26266769747825,64.45602629532621,60.99455825145033
10000,nan,nan,nan,72.66988280815995,66.28265955956083
