,0.08333333333333333,0.16666666666666666,0.25,0.3333333333333333,0.5
3500,53.532738754473044,56.59641657307767,57.17297963649219,57.74954269990671,59.01331043232888
4000,55.88580364300586,55.68242167183228,56.13200312598819,56.58158458014411,57.99998174027111
4500,62.65965411004683,57.15207936549755,57.03410887618864,56.91613838687973,57.84808081416713
5000,65.98284766588422,59.88193779241559,58.675002278771444,57.46806676512729,57.731305564613926
7500,nan,nan,66.78322652408559,63.563330244651425,60.217817831682375
10000,nan,nan,nan,70.21020026066371,65.60127386678136
