,0.08333333333333333,0.16666666666666666,0.25,0.3333333333333333,0.5
3500,55.07530213410165,57.695130224690566,58.168248439082575,58.64136665347458,60.236332144662754
4000,57.75350690648692,57.30041112458437,57.56352288076634,57.826634636948306,59.19623753338881
4500,63.63727513557683,58.27700867659119,58.03962215288409,57.802235629177005,58.75525823146651
5000,67.48944126574371,61.84337495399267,60.387315611368,58.93125626874331,58.84228909325661
7500,nan,nan,68.34202109612811,64.54679488817993,60.97732770904154
10000,nan,nan,nan,72.75068512179277,66.1200235165591
