,0.08333333333333333,0.16666666666666666,0.25,0.3333333333333333,0.5
3500,54.635801623948716,57.37769657335012,57.86428519493528,58.35087381652043,59.840293534463136
4000,57.36950656308349,56.4460722563799,56.84653440280884,57.24699654923779,58.76769210958686
4500,63.67521710905609,58.246573286406914,57.90093805873237,57.55530283105783,58.50370195670461
5000,67.52613313315061,61.824631563039645,60.294685253426195,58.764738943812745,58.828685856557684
7500,nan,nan,68.33363959257193,64.47002338997622,60.785484441282726
10000,nan,nan,nan,72.73215930383274,66.59238105027379
