,0.08333333333333333,0.16666666666666666,0.25,0.3333333333333333,0.5
3500,53.64442716316228,56.73793804893967,57.26731683315245,57.79669561736523,59.24790382996537
4000,55.78646891478162,55.625177543668656,56.25322777119261,56.881277998716584,58.33468579183604
4500,61.503913637028546,57.386035420481065,57.312971886732456,57.239908352983846,58.169328022029475
5000,64.93715249928465,60.38576898773694,59.12337244251318,57.860975897289414,58.094748595450895
7500,nan,nan,67.16128017535125,63.92670747543075,60.59133709802541
10000,nan,nan,nan,70.42142606408903,65.91799231618216
