,0.08333333333333333,0.16666666666666666,0.25,0.3333333333333333,0.5
3500,55.56259769292391,57.96415146132041,58.32308646129576,58.682021461271106,60.17100006961637
4000,57.41673405505264,57.6766888384195,57.786671045020086,57.896653251620684,59.17310759546591
4500,64.16712865184182,59.29207649495681,58.70727704501779,58.12247759507877,58.96727286967753
5000,67.47382299622743,61.80751630823849,60.29553818274891,58.783560057259336,58.87541330181038
7500,nan,nan,68.33127620448144,64.48159082439363,60.81732025733551
10000,nan,nan,nan,nan,66.85990236932025
