,0.08333333333333333,0.16666666666666666,0.25,0.3333333333333333,0.5
3500,54.7434351609747,57.442871285866744,57.88968637315479,58.336501460442825,59.77372911931554
4000,57.637442984111445,56.49697913726191,56.88592726613554,57.27487539500917,58.651930321142615
4500,63.96857976512736,58.43900151436451,58.0109298495375,57.58285818471049,58.43056590583883
5000,67.79548550691285,61.98255963680689,60.36423515672403,58.74591067664116,58.71601745987314
7500,nan,nan,68.44494232151017,64.5513241735386,60.832614868182716
10000,nan,nan,nan,72.80964657622714,66.1222550363363
