,0.08333333333333333,0.16666666666666666,0.25,0.3333333333333333,0.5
3500,53.707493534198456,56.76944882663521,57.32565975270126,57.88187067876731,59.261919582695995
4000,55.99637244636214,56.13395679252356,56.53594026898995,56.93792374545633,58.33377967152308
4500,63.26009252155431,57.677093605121385,57.516408768083394,57.355723931045404,58.21457505421529
5000,67.03851531865661,60.3417099672131,59.138285846962134,57.93486172671116,58.127219984839726
7500,nan,nan,68.15739756611161,64.27716593817857,60.55252026911218
10000,nan,nan,nan,70.8446937474628,65.8851096421476
