,0.08333333333333333,0.16666666666666666,0.25,0.3333333333333333,0.5
3500,54.684361711184636,57.57179535323742,58.02172234443243,58.471649335627454,59.776598674621425
4000,57.29903943029073,56.34479576431129,56.7220568503374,57.09931793636352,58.65897389800053
4500,63.620426755146134,58.166619897850744,57.79993593551066,57.43325197317058,58.347182834026555
5000,67.47902695712638,61.73438985710301,60.130465894364285,58.526541931625545,58.55633600061917
7500,nan,nan,68.27372724334552,64.3983182947954,60.691084856927226
10000,nan,nan,nan,70.95230317686351,66.0024272894596
