,0.08333333333333333,0.16666666666666666,0.25,0.3333333333333333,0.5
3500,54.9887920341943,57.90182015590762,58.280900999233864,58.6599818425601,59.992218200241616
4000,57.55584847777365,57.08566853853756,57.2750423061933,57.46441607384904,58.88453556135072
4500,63.48411454870214,58.11450781055239,57.82891465158231,57.543321492612236,58.51932078353508
5000,67.21152072349898,61.07639833525402,59.73501948102746,58.393640626800895,58.56535720954187
7500,nan,78.57838300482618,72.30402185288796,65.80281816895727,62.04419488104797
10000,nan,nan,nan,72.45674141545662,66.54403691626995
