,0.08333333333333333,0.16666666666666666,0.25,0.3333333333333333,0.5
3500,53.0369056733043,56.7751199329942,57.0600967115426,57.345073490090996,58.52608840348661
4000,54.3072494699378,55.19813458196134,55.682437707737634,56.16674083351392,57.693265172862965
4500,61.78661302914399,56.654147920897614,56.57767195248891,56.501195984080205,57.66091001975752
5000,65.02819771622833,59.23459272814021,58.33410099035771,57.433609252575216,57.78120366131027
7500,nan,nan,66.2608982381079,63.0874563398597,59.50314379461268
10000,nan,nan,nan,69.77874261715306,65.2193819775941
