,0.08333333333333333,0.16666666666666666,0.25,0.3333333333333333,0.5
3500,54.67247578583543,57.491527758517705,57.94914641925509,58.40676507999247,59.82630528187519
4000,57.34231787395012,56.411781264810955,56.806387214212634,57.20099316361432,58.74988219718256
4500,63.65407747109131,58.20263027421795,57.808062115288536,57.41349395635912,58.305767413740554
5000,67.50765982373288,61.75820280533735,60.11233640989245,58.46647001444755,58.42537471120476
7500,nan,nan,68.31417267872993,64.5019861717105,61.03703703400871
10000,nan,nan,nan,72.7122263136926,66.31859949714722
