,0.08333333333333333,0.16666666666666666,0.25,0.3333333333333333,0.5
3500,55.67839239571106,58.23751892467804,58.50439924871905,58.77127957276005,60.184653837216814
4000,57.54355977645747,57.76138146895941,57.84908699422734,57.936792519495285,59.18369181409484
4500,64.2663005619417,59.358251222535486,58.75659109404245,58.15493096554941,58.935335341986764
5000,67.56491621809263,61.8636210470182,60.337513016077125,58.81140498513603,58.88288397711473
7500,nan,nan,68.36391879550649,64.50198708808935,60.82262852961196
10000,nan,nan,nan,nan,66.86419337972228
